#
# There is insufficient memory for the Java Runtime Environment to continue.
# Native memory allocation (mmap) failed to map 25165824 bytes for committing reserved memory.
# Possible reasons:
#   The system is out of physical RAM or swap space
#   In 32 bit mode, the process size limit was hit
# Possible solutions:
#   Reduce memory load on the system
#   Increase physical memory or swap space
#   Check if swap backing store is full
#   Use 64 bit Java on a 64 bit OS
#   Decrease Java heap size (-Xmx/-Xms)
#   Decrease number of Java threads
#   Decrease Java thread stack sizes (-Xss)
#   Set larger code cache with -XX:ReservedCodeCacheSize=
# This output file may be truncated or incomplete.
#
#  Out of Memory Error (os_linux.cpp:2643), pid=3604, tid=0x00007f6af4859700
#
# JRE version: OpenJDK Runtime Environment (8.0_151-b12) (build 1.8.0_151-8u151-b12-0ubuntu0.16.04.2-b12)
# Java VM: OpenJDK 64-Bit Server VM (25.151-b12 mixed mode linux-amd64 compressed oops)
# Failed to write core dump. Core dumps have been disabled. To enable core dumping, try "ulimit -c unlimited" before starting Java again
#

---------------  T H R E A D  ---------------

Current thread (0x00007f6af0078000):  VMThread [stack: 0x00007f6af4759000,0x00007f6af485a000] [id=3611]

Stack: [0x00007f6af4759000,0x00007f6af485a000],  sp=0x00007f6af48584c0,  free space=1021k
Native frames: (J=compiled Java code, j=interpreted, Vv=VM code, C=native code)
V  [libjvm.so+0xa684eb]
V  [libjvm.so+0x4c579c]
V  [libjvm.so+0x8b6b50]
V  [libjvm.so+0x8b0fce]
V  [libjvm.so+0x92b806]
V  [libjvm.so+0x92cb33]
V  [libjvm.so+0x9291fb]
V  [libjvm.so+0x9294ac]
V  [libjvm.so+0x8db3c3]
V  [libjvm.so+0xa6a192]
V  [libjvm.so+0xa6f277]
V  [libjvm.so+0xa6ca47]
V  [libjvm.so+0xa6decf]
V  [libjvm.so+0xa6e3c1]
V  [libjvm.so+0x8b4032]

VM_Operation (0x00007f6af9dbbb80): ParallelGCFailedAllocation, mode: safepoint, requested by thread 0x00007f6af000e800


---------------  P R O C E S S  ---------------

Java Threads: ( => current thread )
  0x00007f6af06f3800 JavaThread "PoolCleaner[824909230:1520204527423]" daemon [_thread_blocked, id=3619, stack(0x00007f6ae09a2000,0x00007f6ae0aa3000)]
  0x00007f6af00b8800 JavaThread "Service Thread" daemon [_thread_blocked, id=3617, stack(0x00007f6ae0eff000,0x00007f6ae1000000)]
  0x00007f6af00b0800 JavaThread "C1 CompilerThread1" daemon [_thread_blocked, id=3616, stack(0x00007f6af40bc000,0x00007f6af41bd000)]
  0x00007f6af00ad800 JavaThread "C2 CompilerThread0" daemon [_thread_blocked, id=3615, stack(0x00007f6af41bd000,0x00007f6af42be000)]
  0x00007f6af00ab800 JavaThread "Signal Dispatcher" daemon [_thread_blocked, id=3614, stack(0x00007f6af42be000,0x00007f6af43bf000)]
  0x00007f6af0084000 JavaThread "Finalizer" daemon [_thread_blocked, id=3613, stack(0x00007f6af4557000,0x00007f6af4658000)]
  0x00007f6af007f800 JavaThread "Reference Handler" daemon [_thread_blocked, id=3612, stack(0x00007f6af4658000,0x00007f6af4759000)]
  0x00007f6af000e800 JavaThread "main" [_thread_blocked, id=3608, stack(0x00007f6af9cbf000,0x00007f6af9dc0000)]

Other Threads:
=>0x00007f6af0078000 VMThread [stack: 0x00007f6af4759000,0x00007f6af485a000] [id=3611]
  0x00007f6af00ba800 WatcherThread [stack: 0x00007f6ae0dfe000,0x00007f6ae0eff000] [id=3618]

VM state:at safepoint (normal execution)

VM Mutex/Monitor currently owned by a thread:  ([mutex/lock_event])
[0x00007f6af000afd0] Threads_lock - owner thread: 0x00007f6af0078000
[0x00007f6af000b4d0] Heap_lock - owner thread: 0x00007f6af000e800

Heap:
 PSYoungGen      total 26624K, used 1781K [0x00000000eab00000, 0x00000000ec700000, 0x0000000100000000)
  eden space 24576K, 0% used [0x00000000eab00000,0x00000000eab00000,0x00000000ec300000)
  from space 2048K, 87% used [0x00000000ec300000,0x00000000ec4bd770,0x00000000ec500000)
  to   space 2048K, 0% used [0x00000000ec500000,0x00000000ec500000,0x00000000ec700000)
 ParOldGen       total 32768K, used 0K [0x00000000c0000000, 0x00000000c2000000, 0x00000000eab00000)
  object space 32768K, 0% used [0x00000000c0000000,0x00000000c0000000,0x00000000c2000000)
 Metaspace       used 5700K, capacity 6068K, committed 6400K, reserved 1056768K
  class space    used 657K, capacity 688K, committed 768K, reserved 1048576K

Card table byte_map: [0x00007f6af6163000,0x00007f6af6364000] byte_map_base: 0x00007f6af5b63000

Marking Bits: (ParMarkBitMap*) 0x00007f6af8f772c0
 Begin Bits: [0x00007f6ada000000, 0x00007f6adb000000)
 End Bits:   [0x00007f6adb000000, 0x00007f6adc000000)

Polling page: 0x00007f6af9dcb000

CodeCache: size=245760Kb used=2175Kb max_used=2175Kb free=243584Kb
 bounds [0x00007f6ae1000000, 0x00007f6ae1270000, 0x00007f6af0000000]
 total_blobs=664 nmethods=404 adapters=175
 compilation: enabled

Compilation events (10 events):
Event: 0.444 Thread 0x00007f6af00b0800 nmethod 398 0x00007f6ae1219d90 code [0x00007f6ae1219f20, 0x00007f6ae121a548]
Event: 0.444 Thread 0x00007f6af00b0800  400       3       java.lang.ClassLoader::addClass (9 bytes)
Event: 0.444 Thread 0x00007f6af00b0800 nmethod 400 0x00007f6ae121cc50 code [0x00007f6ae121cdc0, 0x00007f6ae121cfc8]
Event: 0.444 Thread 0x00007f6af00b0800  401       3       java.lang.ClassLoader::postDefineClass (26 bytes)
Event: 0.444 Thread 0x00007f6af00b0800 nmethod 401 0x00007f6ae121d090 code [0x00007f6ae121d220, 0x00007f6ae121d778]
Event: 0.456 Thread 0x00007f6af00b0800  403       3       java.util.jar.JarFile::getManifestFromReference (113 bytes)
Event: 0.457 Thread 0x00007f6af00b0800 nmethod 403 0x00007f6ae121e090 code [0x00007f6ae121e3c0, 0x00007f6ae121f9f8]
Event: 0.457 Thread 0x00007f6af00b0800  404       3       java.util.jar.Manifest$FastInputStream::peek (38 bytes)
Event: 0.457 Thread 0x00007f6af00b0800 nmethod 404 0x00007f6ae1220790 code [0x00007f6ae1220900, 0x00007f6ae1220b48]
Event: 0.457 Thread 0x00007f6af00ad800  405       4       java.lang.ThreadLocal::get (38 bytes)

GC Heap History (5 events):
Event: 0.243 GC heap before
{Heap before GC invocations=1 (full 0):
 PSYoungGen      total 14336K, used 12288K [0x00000000eab00000, 0x00000000ebb00000, 0x0000000100000000)
  eden space 12288K, 100% used [0x00000000eab00000,0x00000000eb700000,0x00000000eb700000)
  from space 2048K, 0% used [0x00000000eb900000,0x00000000eb900000,0x00000000ebb00000)
  to   space 2048K, 0% used [0x00000000eb700000,0x00000000eb700000,0x00000000eb900000)
 ParOldGen       total 32768K, used 0K [0x00000000c0000000, 0x00000000c2000000, 0x00000000eab00000)
  object space 32768K, 0% used [0x00000000c0000000,0x00000000c0000000,0x00000000c2000000)
 Metaspace       used 3498K, capacity 4780K, committed 5120K, reserved 1056768K
  class space    used 376K, capacity 424K, committed 512K, reserved 1048576K
Event: 0.246 GC heap after
Heap after GC invocations=1 (full 0):
 PSYoungGen      total 14336K, used 1318K [0x00000000eab00000, 0x00000000ec700000, 0x0000000100000000)
  eden space 12288K, 0% used [0x00000000eab00000,0x00000000eab00000,0x00000000eb700000)
  from space 2048K, 64% used [0x00000000eb700000,0x00000000eb849ba0,0x00000000eb900000)
  to   space 2048K, 0% used [0x00000000ec500000,0x00000000ec500000,0x00000000ec700000)
 ParOldGen       total 32768K, used 0K [0x00000000c0000000, 0x00000000c2000000, 0x00000000eab00000)
  object space 32768K, 0% used [0x00000000c0000000,0x00000000c0000000,0x00000000c2000000)
 Metaspace       used 3498K, capacity 4780K, committed 5120K, reserved 1056768K
  class space    used 376K, capacity 424K, committed 512K, reserved 1048576K
}
Event: 0.325 GC heap before
{Heap before GC invocations=2 (full 0):
 PSYoungGen      total 14336K, used 13606K [0x00000000eab00000, 0x00000000ec700000, 0x0000000100000000)
  eden space 12288K, 100% used [0x00000000eab00000,0x00000000eb700000,0x00000000eb700000)
  from space 2048K, 64% used [0x00000000eb700000,0x00000000eb849ba0,0x00000000eb900000)
  to   space 2048K, 0% used [0x00000000ec500000,0x00000000ec500000,0x00000000ec700000)
 ParOldGen       total 32768K, used 0K [0x00000000c0000000, 0x00000000c2000000, 0x00000000eab00000)
  object space 32768K, 0% used [0x00000000c0000000,0x00000000c0000000,0x00000000c2000000)
 Metaspace       used 4232K, capacity 5140K, committed 5504K, reserved 1056768K
  class space    used 482K, capacity 528K, committed 640K, reserved 1048576K
Event: 0.328 GC heap after
Heap after GC invocations=2 (full 0):
 PSYoungGen      total 26624K, used 1150K [0x00000000eab00000, 0x00000000ec700000, 0x0000000100000000)
  eden space 24576K, 0% used [0x00000000eab00000,0x00000000eab00000,0x00000000ec300000)
  from space 2048K, 56% used [0x00000000ec500000,0x00000000ec61fb78,0x00000000ec700000)
  to   space 2048K, 0% used [0x00000000ec300000,0x00000000ec300000,0x00000000ec500000)
 ParOldGen       total 32768K, used 0K [0x00000000c0000000, 0x00000000c2000000, 0x00000000eab00000)
  object space 32768K, 0% used [0x00000000c0000000,0x00000000c0000000,0x00000000c2000000)
 Metaspace       used 4232K, capacity 5140K, committed 5504K, reserved 1056768K
  class space    used 482K, capacity 528K, committed 640K, reserved 1048576K
}
Event: 0.458 GC heap before
{Heap before GC invocations=3 (full 0):
 PSYoungGen      total 26624K, used 25726K [0x00000000eab00000, 0x00000000ec700000, 0x0000000100000000)
  eden space 24576K, 100% used [0x00000000eab00000,0x00000000ec300000,0x00000000ec300000)
  from space 2048K, 56% used [0x00000000ec500000,0x00000000ec61fb78,0x00000000ec700000)
  to   space 2048K, 0% used [0x00000000ec300000,0x00000000ec300000,0x00000000ec500000)
 ParOldGen       total 32768K, used 0K [0x00000000c0000000, 0x00000000c2000000, 0x00000000eab00000)
  object space 32768K, 0% used [0x00000000c0000000,0x00000000c0000000,0x00000000c2000000)
 Metaspace       used 5700K, capacity 6068K, committed 6400K, reserved 1056768K
  class space    used 657K, capacity 688K, committed 768K, reserved 1048576K

Deoptimization events (8 events):
Event: 0.118 Thread 0x00007f6af000e800 Uncommon trap: reason=unstable_if action=reinterpret pc=0x00007f6ae11187c4 method=java.lang.String.indexOf(II)I @ 49
Event: 0.120 Thread 0x00007f6af000e800 Uncommon trap: reason=unstable_if action=reinterpret pc=0x00007f6ae110ad1c method=java.lang.String.hashCode()I @ 14
Event: 0.157 Thread 0x00007f6af000e800 Uncommon trap: reason=unstable_if action=reinterpret pc=0x00007f6ae1160f40 method=java.lang.String.startsWith(Ljava/lang/String;I)Z @ 37
Event: 0.268 Thread 0x00007f6af000e800 Uncommon trap: reason=unstable_if action=reinterpret pc=0x00007f6ae115bc2c method=java.lang.AbstractStringBuilder.append(Ljava/lang/String;)Ljava/lang/AbstractStringBuilder; @ 1
Event: 0.282 Thread 0x00007f6af000e800 Uncommon trap: reason=unstable_if action=reinterpret pc=0x00007f6ae117fc20 method=java.lang.String.<init>([CII)V @ 18
Event: 0.302 Thread 0x00007f6af000e800 Uncommon trap: reason=unstable_if action=reinterpret pc=0x00007f6ae117ead8 method=java.lang.String.startsWith(Ljava/lang/String;I)Z @ 25
Event: 0.414 Thread 0x00007f6af000e800 Uncommon trap: reason=unstable_if action=reinterpret pc=0x00007f6ae1189ba4 method=java.lang.String.<init>([CII)V @ 18
Event: 0.417 Thread 0x00007f6af000e800 Uncommon trap: reason=unstable_if action=reinterpret pc=0x00007f6ae114aea8 method=java.lang.String.indexOf([CII[CIII)I @ 3

Internal exceptions (10 events):
Event: 0.243 Thread 0x00007f6af000e800 Exception <a 'java/lang/ClassNotFoundException': org/apache/log4j/PatternLayoutBeanInfo> (0x00000000eb6bd1c8) thrown at [/build/openjdk-8-W2Qe27/openjdk-8-8u151-b12/src/hotspot/src/share/vm/classfile/systemDictionary.cpp, line 210]
Event: 0.248 Thread 0x00007f6af000e800 Exception <a 'java/lang/ClassNotFoundException': org/apache/log4j/LayoutBeanInfo> (0x00000000eab06c50) thrown at [/build/openjdk-8-W2Qe27/openjdk-8-8u151-b12/src/hotspot/src/share/vm/classfile/systemDictionary.cpp, line 210]
Event: 0.249 Thread 0x00007f6af000e800 Exception <a 'java/lang/ClassNotFoundException': java/lang/ObjectBeanInfo> (0x00000000eab29a00) thrown at [/build/openjdk-8-W2Qe27/openjdk-8-8u151-b12/src/hotspot/src/share/vm/classfile/systemDictionary.cpp, line 210]
Event: 0.249 Thread 0x00007f6af000e800 Exception <a 'java/lang/ClassNotFoundException': java/lang/ObjectCustomizer> (0x00000000eab4cc68) thrown at [/build/openjdk-8-W2Qe27/openjdk-8-8u151-b12/src/hotspot/src/share/vm/classfile/systemDictionary.cpp, line 210]
Event: 0.251 Thread 0x00007f6af000e800 Exception <a 'java/lang/ArrayIndexOutOfBoundsException': 18> (0x00000000eab4f370) thrown at [/build/openjdk-8-W2Qe27/openjdk-8-8u151-b12/src/hotspot/src/share/vm/interpreter/interpreterRuntime.cpp, line 366]
Event: 0.252 Thread 0x00007f6af000e800 Exception <a 'java/lang/ArrayIndexOutOfBoundsException': 22> (0x00000000eab526b8) thrown at [/build/openjdk-8-W2Qe27/openjdk-8-8u151-b12/src/hotspot/src/share/vm/interpreter/interpreterRuntime.cpp, line 366]
Event: 0.254 Thread 0x00007f6af000e800 Exception <a 'java/lang/ArrayIndexOutOfBoundsException'> (0x00000000eab54b08) thrown at [/build/openjdk-8-W2Qe27/openjdk-8-8u151-b12/src/hotspot/src/share/vm/runtime/sharedRuntime.cpp, line 605]
Event: 0.258 Thread 0x00007f6af000e800 Exception <a 'java/lang/ClassNotFoundException': org/apache/log4j/LayoutCustomizer> (0x00000000eaba1ca0) thrown at [/build/openjdk-8-W2Qe27/openjdk-8-8u151-b12/src/hotspot/src/share/vm/classfile/systemDictionary.cpp, line 210]
Event: 0.260 Thread 0x00007f6af000e800 Exception <a 'java/lang/ClassNotFoundException': org/apache/log4j/PatternLayoutCustomizer> (0x00000000eac1f5f0) thrown at [/build/openjdk-8-W2Qe27/openjdk-8-8u151-b12/src/hotspot/src/share/vm/classfile/systemDictionary.cpp, line 210]
Event: 0.268 Thread 0x00007f6af000e800 Implicit null exception at 0x00007f6ae115b836 to 0x00007f6ae115bc15

Events (10 events):
Event: 0.457 loading class java/security/AccessControlException done
Event: 0.457 loading class org/postgresql/util/PSQLException
Event: 0.457 loading class org/postgresql/util/PSQLException done
Event: 0.458 loading class java/lang/ExceptionInInitializerError
Event: 0.458 loading class java/lang/ExceptionInInitializerError done
Event: 0.458 loading class java/sql/Connection
Event: 0.458 loading class java/sql/Connection done
Event: 0.458 loading class org/postgresql/core/Logger
Event: 0.458 loading class org/postgresql/core/Logger done
Event: 0.458 Executing VM operation: ParallelGCFailedAllocation


Dynamic libraries:
00400000-00401000 r-xp 00000000 fd:01 1046840                            /usr/lib/jvm/java-8-openjdk-amd64/jre/bin/java
00600000-00601000 r--p 00000000 fd:01 1046840                            /usr/lib/jvm/java-8-openjdk-amd64/jre/bin/java
00601000-00602000 rw-p 00001000 fd:01 1046840                            /usr/lib/jvm/java-8-openjdk-amd64/jre/bin/java
02030000-02051000 rw-p 00000000 00:00 0                                  [heap]
c0000000-c2000000 rw-p 00000000 00:00 0 
c2000000-eab00000 ---p 00000000 00:00 0 
eab00000-ec700000 rw-p 00000000 00:00 0 
edf00000-100000000 ---p 00000000 00:00 0 
100000000-1000c0000 rw-p 00000000 00:00 0 
1000c0000-140000000 ---p 00000000 00:00 0 
7f6ab0000000-7f6ab0021000 rw-p 00000000 00:00 0 
7f6ab0021000-7f6ab4000000 ---p 00000000 00:00 0 
7f6ab4000000-7f6ab4021000 rw-p 00000000 00:00 0 
7f6ab4021000-7f6ab8000000 ---p 00000000 00:00 0 
7f6ab8000000-7f6ab83d0000 rw-p 00000000 00:00 0 
7f6ab83d0000-7f6abc000000 ---p 00000000 00:00 0 
7f6abc000000-7f6abc021000 rw-p 00000000 00:00 0 
7f6abc021000-7f6ac0000000 ---p 00000000 00:00 0 
7f6ac0000000-7f6ac0021000 rw-p 00000000 00:00 0 
7f6ac0021000-7f6ac4000000 ---p 00000000 00:00 0 
7f6ac4000000-7f6ac42c9000 rw-p 00000000 00:00 0 
7f6ac42c9000-7f6ac8000000 ---p 00000000 00:00 0 
7f6ac8000000-7f6ac8021000 rw-p 00000000 00:00 0 
7f6ac8021000-7f6acc000000 ---p 00000000 00:00 0 
7f6acc000000-7f6acc021000 rw-p 00000000 00:00 0 
7f6acc021000-7f6ad0000000 ---p 00000000 00:00 0 
7f6ad0000000-7f6ad0021000 rw-p 00000000 00:00 0 
7f6ad0021000-7f6ad4000000 ---p 00000000 00:00 0 
7f6ad4000000-7f6ad4021000 rw-p 00000000 00:00 0 
7f6ad4021000-7f6ad8000000 ---p 00000000 00:00 0 
7f6ada000000-7f6adc000000 rw-p 00000000 00:00 0 
7f6adc000000-7f6adc021000 rw-p 00000000 00:00 0 
7f6adc021000-7f6ae0000000 ---p 00000000 00:00 0 
7f6ae09a2000-7f6ae09a5000 ---p 00000000 00:00 0 
7f6ae09a5000-7f6ae0aa3000 rw-p 00000000 00:00 0 
7f6ae0aa3000-7f6ae0aa4000 r--s 00001000 fd:01 522405                     /opt/OpenbravoTablero/modules/org.openbravo.client.kernel/lib/runtime/jsmin.0.2.4.jar
7f6ae0aa4000-7f6ae0ab0000 r--s 000ee000 fd:01 522406                     /opt/OpenbravoTablero/modules/org.openbravo.client.kernel/lib/runtime/jslint4java-1.4.7.jar
7f6ae0ab0000-7f6ae0ab2000 r--s 00005000 fd:01 520712                     /opt/OpenbravoTablero/modules/org.openbravo.client.application/lib/runtime/httpmime-4.1.jar
7f6ae0ab2000-7f6ae0ab7000 r--s 00026000 fd:01 520714                     /opt/OpenbravoTablero/modules/org.openbravo.client.application/lib/runtime/httpcore-4.0.1.jar
7f6ae0ab7000-7f6ae0abe000 r--s 00040000 fd:01 520713                     /opt/OpenbravoTablero/modules/org.openbravo.client.application/lib/runtime/httpclient-4.0.jar
7f6ae0abe000-7f6ae0acc000 r--s 00099000 fd:01 520715                     /opt/OpenbravoTablero/modules/org.openbravo.client.application/lib/runtime/guice-2.0.jar
7f6ae0acc000-7f6ae0ad0000 r--s 0000a000 fd:01 518216                     /opt/OpenbravoTablero/modules/org.openbravo.base.weld/lib/runtime/weld-spi.jar
7f6ae0ad0000-7f6ae0ad3000 r--s 00011000 fd:01 518222                     /opt/OpenbravoTablero/modules/org.openbravo.base.weld/lib/runtime/weld-servlet-core-1.1.24.Final.jar
7f6ae0ad3000-7f6ae0ae5000 r--s 000ce000 fd:01 518212                     /opt/OpenbravoTablero/modules/org.openbravo.base.weld/lib/runtime/weld-core-1.1.24.Final.jar
7f6ae0ae5000-7f6ae0ae7000 r--s 00004000 fd:01 518213                     /opt/OpenbravoTablero/modules/org.openbravo.base.weld/lib/runtime/weld-api.jar
7f6ae0ae7000-7f6ae0ae9000 r--s 00009000 fd:01 518211                     /opt/OpenbravoTablero/modules/org.openbravo.base.weld/lib/runtime/slf4j-ext-1.6.1.jar
7f6ae0ae9000-7f6ae0aea000 r--s 00001000 fd:01 518214                     /opt/OpenbravoTablero/modules/org.openbravo.base.weld/lib/runtime/jboss-interceptor-spi-2.0.0.CR1.jar
7f6ae0aea000-7f6ae0aed000 r--s 0000c000 fd:01 518220                     /opt/OpenbravoTablero/modules/org.openbravo.base.weld/lib/runtime/jboss-interceptor-core-2.0.0.CR1.jar
7f6ae0aed000-7f6ae0aef000 r--s 00000000 fd:01 518210                     /opt/OpenbravoTablero/modules/org.openbravo.base.weld/lib/runtime/jboss-interceptor-api-3.1.0-CR3.jar
7f6ae0aef000-7f6ae0af0000 r--s 00000000 fd:01 518221                     /opt/OpenbravoTablero/modules/org.openbravo.base.weld/lib/runtime/javax.inject.jar
7f6ae0af0000-7f6ae0b1b000 r--s 001fc000 fd:01 518217                     /opt/OpenbravoTablero/modules/org.openbravo.base.weld/lib/runtime/guava-18.0.jar
7f6ae0b1b000-7f6ae0b1e000 r--s 00006000 fd:01 518219                     /opt/OpenbravoTablero/modules/org.openbravo.base.weld/lib/runtime/ejb-api-3.0.jar
7f6ae0b1e000-7f6ae0b21000 r--s 0000a000 fd:01 518218                     /opt/OpenbravoTablero/modules/org.openbravo.base.weld/lib/runtime/cdi-api.jar
7f6ae0b21000-7f6ae0b23000 r--s 00006000 fd:01 518215                     /opt/OpenbravoTablero/modules/org.openbravo.base.weld/lib/runtime/cal10n-api-0.7.4.jar
7f6ae0b23000-7f6ae0b24000 r--s 00006000 fd:01 522533                     /opt/OpenbravoTablero/modules/org.openbravo.apachejdbcconnectionpool/lib/runtime/tomcat-juli.jar
7f6ae0b24000-7f6ae0b26000 r--s 0001d000 fd:01 522532                     /opt/OpenbravoTablero/modules/org.openbravo.apachejdbcconnectionpool/lib/runtime/tomcat-jdbc.jar
7f6ae0b26000-7f6ae0b32000 r--s 00096000 fd:01 1076806                    /opt/OpenbravoTablero/modules/com.atrums.felectronica/lib/runtime/xmlsec-1.4.2-ADSI-1.1.jar
7f6ae0b32000-7f6ae0b35000 r--s 00018000 fd:01 1076805                    /opt/OpenbravoTablero/modules/com.atrums.felectronica/lib/runtime/xmlrpc-1.2-b1.jar
7f6ae0b35000-7f6ae0b36000 r--s 00007000 fd:01 1076804                    /opt/OpenbravoTablero/modules/com.atrums.felectronica/lib/runtime/xmlrpc-1.2-b1-applet.jar
7f6ae0b36000-7f6ae0b3b000 r--s 0002d000 fd:01 1076795                    /opt/OpenbravoTablero/modules/com.atrums.felectronica/lib/runtime/bcmail-jdk15-140.jar
7f6ae0b3b000-7f6ae0b3e000 r--s 00014000 fd:01 1076794                    /opt/OpenbravoTablero/modules/com.atrums.felectronica/lib/runtime/barbecue-1.5-beta1.jar
7f6ae0b3e000-7f6ae0b46000 r--s 0007a000 fd:01 1076803                    /opt/OpenbravoTablero/modules/com.atrums.felectronica/lib/runtime/MITyCLibXADES-1.1.7.jar
7f6ae0b46000-7f6ae0b4c000 r--s 00047000 fd:01 1076801                    /opt/OpenbravoTablero/modules/com.atrums.felectronica/lib/runtime/MITyCLibTrust-1.1.7.jar
7f6ae0b4c000-7f6ae0b4d000 r--s 00011000 fd:01 1076802                    /opt/OpenbravoTablero/modules/com.atrums.felectronica/lib/runtime/MITyCLibTSA-1.1.7.jar
7f6ae0b4d000-7f6ae0b4f000 r--s 00019000 fd:01 1076800                    /opt/OpenbravoTablero/modules/com.atrums.felectronica/lib/runtime/MITyCLibPolicy-1.1.7.jar
7f6ae0b4f000-7f6ae0b51000 r--s 0001c000 fd:01 1076799                    /opt/OpenbravoTablero/modules/com.atrums.felectronica/lib/runtime/MITyCLibOCSP-1.1.7.jar
7f6ae0b51000-7f6ae0b53000 r--s 0001f000 fd:01 1076798                    /opt/OpenbravoTablero/modules/com.atrums.felectronica/lib/runtime/MITyCLibCrypt-1.1.7.jar
7f6ae0b53000-7f6ae0b5a000 r--s 0044c000 fd:01 1076797                    /opt/OpenbravoTablero/modules/com.atrums.felectronica/lib/runtime/MITyCLibCert-1.1.7.jar
7f6ae0b5a000-7f6ae0b5e000 r--s 00029000 fd:01 1076796                    /opt/OpenbravoTablero/modules/com.atrums.felectronica/lib/runtime/MITyCLibAPI-1.1.7.jar
7f6ae0b5e000-7f6ae0b64000 r--s 0006e000 fd:01 278520                     /opt/OpenbravoTablero/src-db/database/lib/wstx-asl-3.0.2.jar
7f6ae0b64000-7f6ae0b66000 r--s 0000e000 fd:01 278521                     /opt/OpenbravoTablero/src-db/database/lib/jakarta-oro-2.0.8.jar
7f6ae0b66000-7f6ae0b71000 r--s 000b4000 fd:01 278518                     /opt/OpenbravoTablero/src-db/database/lib/dbsourcemanager.jar
7f6ae0b71000-7f6ae0b72000 r--s 00001000 fd:01 278522                     /opt/OpenbravoTablero/src-db/database/lib/dbmanager.jar
7f6ae0b72000-7f6ae0b78000 r--s 00036000 fd:01 278519                     /opt/OpenbravoTablero/src-db/database/lib/commons-betwixt-0.8.jar
7f6ae0b78000-7f6ae0b7d000 r--s 00066000 fd:01 523757                     /opt/OpenbravoTablero/src-wad/lib/openbravo-wad.jar
7f6ae0b7d000-7f6ae0b7e000 r--s 00005000 fd:01 522897                     /opt/OpenbravoTablero/src-trl/lib/openbravo-trl.jar
7f6ae0b7e000-7f6ae0b82000 r--s 0003d000 fd:01 516417                     /opt/OpenbravoTablero/src-core/lib/openbravo-core.jar
7f6ae0b82000-7f6ae0b88000 r--s 00036000 fd:01 276925                     /opt/OpenbravoTablero/lib/test/junit.jar
7f6ae0b88000-7f6ae0b8e000 r--s 00045000 fd:01 276926                     /opt/OpenbravoTablero/lib/test/hamcrest-all-1.3.jar
7f6ae0b8e000-7f6ae0b99000 r--s 0005f000 fd:01 276970                     /opt/OpenbravoTablero/lib/runtime/xstream-1.3.1.jar
7f6ae0b99000-7f6ae0ba3000 r--s 00089000 fd:01 276977                     /opt/OpenbravoTablero/lib/runtime/xmlgraphics-commons-1.5.jar
7f6ae0ba3000-7f6ae0bba000 r--s 00114000 fd:01 276929                     /opt/OpenbravoTablero/lib/runtime/xercesImpl.jar
7f6ae0bba000-7f6ae0bbd000 r--s 0001c000 fd:01 276992                     /opt/OpenbravoTablero/lib/runtime/wsdl4j-1.5.1.jar
7f6ae0bbd000-7f6ae0bc3000 r--s 0004b000 fd:01 276945                     /opt/OpenbravoTablero/lib/runtime/tika-core-0.9.jar
7f6ae0bc3000-7f6ae0bc4000 r--s 00002000 fd:01 276950                     /opt/OpenbravoTablero/lib/runtime/slf4j-log4j12-1.6.1.jar
7f6ae0bc4000-7f6ae0bc6000 r--s 00005000 fd:01 276960                     /opt/OpenbravoTablero/lib/runtime/slf4j-api-1.6.1.jar
7f6ae0bc6000-7f6ae0bc7000 r--s 00001000 fd:01 276954                     /opt/OpenbravoTablero/lib/runtime/renderFoRmi.jar
7f6ae0bc7000-7f6ae0bcd000 r--s 00067000 fd:01 276989                     /opt/OpenbravoTablero/lib/runtime/quartz-1.6.2.jar
7f6ae0bcd000-7f6ae0bd4000 r--s 0008e000 fd:01 276936                     /opt/OpenbravoTablero/lib/runtime/postgresql-9.4.1207.jre6.jar
7f6ae0bd4000-7f6ae0bf5000 r--s 001bb000 fd:01 276988                     /opt/OpenbravoTablero/lib/runtime/poi-3.10.1.jar
7f6ae0bf5000-7f6ae0bf9000 r--s 0003d000 fd:01 276967                     /opt/OpenbravoTablero/lib/runtime/openbravo-core.jar
7f6ae0bf9000-7f6ae0c0b000 r--s 001fc000 fd:01 276962                     /opt/OpenbravoTablero/lib/runtime/ojdbc6.jar
7f6ae0c0b000-7f6ae0c0d000 r--s 00018000 fd:01 276976                     /opt/OpenbravoTablero/lib/runtime/nekohtml.jar
7f6ae0c0d000-7f6ae0c14000 r--s 00072000 fd:01 276938                     /opt/OpenbravoTablero/lib/runtime/mail-1.4.4.jar
7f6ae0c14000-7f6ae0c1d000 r--s 0006d000 fd:01 276986                     /opt/OpenbravoTablero/lib/runtime/log4j-1.2.16.jar
7f6ae0c1d000-7f6ae0c29000 r--s 000aa000 fd:01 276965                     /opt/OpenbravoTablero/lib/runtime/jxl-2.6.10.jar
7f6ae0c29000-7f6ae0c2b000 r--s 00001000 fd:01 276949                     /opt/OpenbravoTablero/lib/runtime/jta.jar
7f6ae0c2b000-7f6ae0c3b000 r--s 0013f000 fd:01 276933                     /opt/OpenbravoTablero/lib/runtime/jfreechart-1.0.12.jar
7f6ae0c3b000-7f6ae0c3d000 r--s 00010000 fd:01 276951                     /opt/OpenbravoTablero/lib/runtime/jettison-1.3.jar
7f6ae0c3d000-7f6ae0c4f000 r--s 00223000 fd:01 276971                     /opt/OpenbravoTablero/lib/runtime/jdt-compiler-4.4.2.jar
7f6ae0c4f000-7f6ae0c55000 r--s 00046000 fd:01 276952                     /opt/OpenbravoTablero/lib/runtime/jcommon-1.0.15.jar
7f6ae0c55000-7f6ae0c57000 r--s 00006000 fd:01 276996                     /opt/OpenbravoTablero/lib/runtime/jaxrpc.jar
7f6ae0c57000-7f6ae0c60000 r--s 00095000 fd:01 276953                     /opt/OpenbravoTablero/lib/runtime/javassist-3.14.0-GA.jar
7f6ae0c60000-7f6ae0c62000 r--s 0025c000 fd:01 276930                     /opt/OpenbravoTablero/lib/runtime/jasperreports-fonts-6.0.0.jar
7f6ae0c62000-7f6ae0cbe000 r--s 0048c000 fd:01 276937                     /opt/OpenbravoTablero/lib/runtime/jasperreports-6.0.0.jar
7f6ae0cbe000-7f6ae0cd0000 r--s 00105000 fd:01 276987                     /opt/OpenbravoTablero/lib/runtime/jackson-databind-2.5.1.jar
7f6ae0cd0000-7f6ae0cd4000 r--s 00035000 fd:01 276966                     /opt/OpenbravoTablero/lib/runtime/jackson-core-2.5.1.jar
7f6ae0cd4000-7f6ae0cd6000 r--s 00008000 fd:01 276981                     /opt/OpenbravoTablero/lib/runtime/jackson-annotations-2.5.1.jar
7f6ae0cd6000-7f6ae0cec000 r--s 001ef000 fd:01 276956                     /opt/OpenbravoTablero/lib/runtime/itextpdf-5.5.0.jar
7f6ae0cec000-7f6ae0cee000 r--s 0000c000 fd:01 276955                     /opt/OpenbravoTablero/lib/runtime/itext-pdfa-5.5.0.jar
7f6ae0cee000-7f6ae0cfa000 r--s 00108000 fd:01 276978                     /opt/OpenbravoTablero/lib/runtime/iText-2.1.7.jar
7f6ae0cfa000-7f6ae0d42000 r--s 003aa000 fd:01 276946                     /opt/OpenbravoTablero/lib/runtime/hibernate3-patched.jar
7f6ae0d42000-7f6ae0d47000 r--s 00014000 fd:01 276984                     /opt/OpenbravoTablero/lib/runtime/hibernate-jpa-2.0-api-1.0.0.Final.jar
7f6ae0d47000-7f6ae0d57000 r--s 000c8000 fd:01 276932                     /opt/OpenbravoTablero/lib/runtime/freemarker-2.3.16.jar
7f6ae0d57000-7f6ae0d90000 r--s 00329000 fd:01 276998                     /opt/OpenbravoTablero/lib/runtime/fop-1.1.jar
7f6ae0d90000-7f6ae0d95000 r--s 00048000 fd:01 276974                     /opt/OpenbravoTablero/lib/runtime/dom4j-1.6.1.jar
7f6ae0d95000-7f6ae0d98000 r--s 00016000 fd:01 276959                     /opt/OpenbravoTablero/lib/runtime/commons-pool-1.5.6.jar
7f6ae0d98000-7f6ae0d9a000 r--s 0000d000 fd:01 276935                     /opt/OpenbravoTablero/lib/runtime/commons-logging-1.1.1.jar
7f6ae0d9a000-7f6ae0d9f000 r--s 00041000 fd:01 276993                     /opt/OpenbravoTablero/lib/runtime/commons-lang-2.6.jar
7f6ae0d9f000-7f6ae0da3000 r--s 0002a000 fd:01 276973                     /opt/OpenbravoTablero/lib/runtime/commons-io-2.4.jar
7f6ae0da3000-7f6ae0da5000 r--s 0000d000 fd:01 276958                     /opt/OpenbravoTablero/lib/runtime/commons-fileupload-1.2.2.jar
7f6ae0da5000-7f6ae0da8000 r--s 0000f000 fd:01 276972                     /opt/OpenbravoTablero/lib/runtime/commons-discovery-0.2.jar
7f6ae0da8000-7f6ae0dac000 r--s 00020000 fd:01 276995                     /opt/OpenbravoTablero/lib/runtime/commons-digester-1.8.1.jar
7f6ae0dac000-7f6ae0daf000 r--s 00025000 fd:01 276982                     /opt/OpenbravoTablero/lib/runtime/commons-dbcp-1.4.jar
7f6ae0daf000-7f6ae0dbd000 r--s 0007f000 fd:01 276944                     /opt/OpenbravoTablero/lib/runtime/commons-collections-3.2.1.jar
7f6ae0dbd000-7f6ae0dbf000 r--s 00010000 fd:01 276994                     /opt/OpenbravoTablero/lib/runtime/commons-codec-1.5.jar
7f6ae0dbf000-7f6ae0dc4000 r--s 00034000 fd:01 276979                     /opt/OpenbravoTablero/lib/runtime/commons-beanutils-1.8.3.jar
7f6ae0dc4000-7f6ae0dc6000 r--s 00005000 fd:01 276941                     /opt/OpenbravoTablero/lib/runtime/catalina-ant.jar
7f6ae0dc6000-7f6ae0dc7000 r--s 00007000 fd:01 276990                     /opt/OpenbravoTablero/lib/runtime/batik-xml.jar
7f6ae0dc7000-7f6ae0dca000 r--s 0001d000 fd:01 276969                     /opt/OpenbravoTablero/lib/runtime/batik-util.jar
7f6ae0dca000-7f6ae0dcf000 r--s 00030000 fd:01 276980                     /opt/OpenbravoTablero/lib/runtime/batik-svggen.jar
7f6ae0dcf000-7f6ae0ddc000 r--s 00087000 fd:01 276975                     /opt/OpenbravoTablero/lib/runtime/batik-svg-dom.jar
7f6ae0ddc000-7f6ae0ddf000 r--s 0000d000 fd:01 276943                     /opt/OpenbravoTablero/lib/runtime/batik-script.jar
7f6ae0ddf000-7f6ae0de1000 r--s 00010000 fd:01 276983                     /opt/OpenbravoTablero/lib/runtime/batik-parser.jar
7f6ae0de1000-7f6ae0de5000 r--s 00038000 fd:01 276963                     /opt/OpenbravoTablero/lib/runtime/batik-gvt.jar
7f6ae0de5000-7f6ae0ded000 r--s 00045000 fd:01 276940                     /opt/OpenbravoTablero/lib/runtime/batik-css.jar
7f6ae0ded000-7f6ae0df7000 r--s 00080000 fd:01 276968                     /opt/OpenbravoTablero/lib/runtime/batik-bridge.jar
7f6ae0df7000-7f6ae0dfe000 r--s 0005c000 fd:01 276997                     /opt/OpenbravoTablero/lib/runtime/batik-awt-util.jar
7f6ae0dfe000-7f6ae0dff000 ---p 00000000 00:00 0 
7f6ae0dff000-7f6ae0eff000 rw-p 00000000 00:00 0 
7f6ae0eff000-7f6ae0f02000 ---p 00000000 00:00 0 
7f6ae0f02000-7f6ae1000000 rw-p 00000000 00:00 0 
7f6ae1000000-7f6ae1270000 rwxp 00000000 00:00 0 
7f6ae1270000-7f6af0000000 ---p 00000000 00:00 0 
7f6af0000000-7f6af0743000 rw-p 00000000 00:00 0 
7f6af0743000-7f6af4000000 ---p 00000000 00:00 0 
7f6af4000000-7f6af4001000 r--s 00002000 fd:01 276961                     /opt/OpenbravoTablero/lib/runtime/batik-ext.jar
7f6af4001000-7f6af4005000 r--s 00027000 fd:01 276942                     /opt/OpenbravoTablero/lib/runtime/batik-dom.jar
7f6af4005000-7f6af4008000 r--s 00015000 fd:01 276928                     /opt/OpenbravoTablero/lib/runtime/batik-anim.jar
7f6af4008000-7f6af400e000 r--s 00043000 fd:01 276957                     /opt/OpenbravoTablero/lib/runtime/barcode4j-fop-ext-complete.jar
7f6af400e000-7f6af4022000 r--s 00173000 fd:01 276985                     /opt/OpenbravoTablero/lib/runtime/axis.jar
7f6af4022000-7f6af4024000 r--s 00007000 fd:01 276964                     /opt/OpenbravoTablero/lib/runtime/axis-ant.jar
7f6af4024000-7f6af4027000 r--s 0000f000 fd:01 276947                     /opt/OpenbravoTablero/lib/runtime/avalon-framework-4.1.5.jar
7f6af4027000-7f6af402c000 r--s 00068000 fd:01 276934                     /opt/OpenbravoTablero/lib/runtime/antlr-2.7.7.jar
7f6af402c000-7f6af4034000 r--s 00063000 fd:01 276948                     /opt/OpenbravoTablero/lib/runtime/ant-nodeps.jar
7f6af4034000-7f6af4035000 r--s 00004000 fd:01 276931                     /opt/OpenbravoTablero/lib/runtime/ant-launcher-1.9.2.jar
7f6af4035000-7f6af4037000 r--s 00001000 fd:01 276991                     /opt/OpenbravoTablero/lib/runtime/ant-apache-log4j-1.9.2.jar
7f6af4037000-7f6af4055000 r--s 001cb000 fd:01 276939                     /opt/OpenbravoTablero/lib/runtime/ant-1.9.2.jar
7f6af4055000-7f6af405e000 r--s 000c7000 fd:01 276919                     /opt/OpenbravoTablero/lib/build/yuicompressor-2.4.2.jar
7f6af405e000-7f6af4060000 r--s 00014000 fd:01 276920                     /opt/OpenbravoTablero/lib/build/servlet-api.jar
7f6af4060000-7f6af4069000 r--s 000be000 fd:01 276922                     /opt/OpenbravoTablero/lib/build/ob-rhino-1.6R7.jar
7f6af4069000-7f6af4072000 r--s 000cc000 fd:01 276921                     /opt/OpenbravoTablero/lib/build/js.jar
7f6af4072000-7f6af408d000 r--s 00394000 fd:01 785206                     /usr/lib/jvm/java-8-openjdk-amd64/jre/lib/ext/cldrdata.jar
7f6af408d000-7f6af4093000 r--s 0003a000 fd:01 785209                     /usr/lib/jvm/java-8-openjdk-amd64/jre/lib/ext/sunjce_provider.jar
7f6af4093000-7f6af409d000 r--s 00116000 fd:01 785211                     /usr/lib/jvm/java-8-openjdk-amd64/jre/lib/ext/localedata.jar
7f6af409d000-7f6af40a1000 r--s 00037000 fd:01 785212                     /usr/lib/jvm/java-8-openjdk-amd64/jre/lib/ext/sunpkcs11.jar
7f6af40a1000-7f6af40bc000 r--s 001d6000 fd:01 785208                     /usr/lib/jvm/java-8-openjdk-amd64/jre/lib/ext/nashorn.jar
7f6af40bc000-7f6af40bf000 ---p 00000000 00:00 0 
7f6af40bf000-7f6af41bd000 rw-p 00000000 00:00 0 
7f6af41bd000-7f6af41c0000 ---p 00000000 00:00 0 
7f6af41c0000-7f6af42be000 rw-p 00000000 00:00 0 
7f6af42be000-7f6af42c1000 ---p 00000000 00:00 0 
7f6af42c1000-7f6af43bf000 rw-p 00000000 00:00 0 
7f6af43bf000-7f6af4557000 r--p 00000000 fd:01 2061                       /usr/lib/locale/locale-archive
7f6af4557000-7f6af455a000 ---p 00000000 00:00 0 
7f6af455a000-7f6af4658000 rw-p 00000000 00:00 0 
7f6af4658000-7f6af465b000 ---p 00000000 00:00 0 
7f6af465b000-7f6af4759000 rw-p 00000000 00:00 0 
7f6af4759000-7f6af475a000 ---p 00000000 00:00 0 
7f6af475a000-7f6af51c6000 rw-p 00000000 00:00 0 
7f6af51c6000-7f6af5395000 r--s 03c21000 fd:01 533088                     /usr/lib/jvm/java-8-openjdk-amd64/jre/lib/rt.jar
7f6af5395000-7f6af598b000 rw-p 00000000 00:00 0 
7f6af598b000-7f6af5c0b000 ---p 00000000 00:00 0 
7f6af5c0b000-7f6af5e0b000 rw-p 00000000 00:00 0 
7f6af5e0b000-7f6af5e0c000 ---p 00000000 00:00 0 
7f6af5e0c000-7f6af5f0c000 rw-p 00000000 00:00 0 
7f6af5f0c000-7f6af5f0d000 ---p 00000000 00:00 0 
7f6af5f0d000-7f6af601d000 rw-p 00000000 00:00 0 
7f6af601d000-7f6af6163000 ---p 00000000 00:00 0 
7f6af6163000-7f6af6173000 rw-p 00000000 00:00 0 
7f6af6173000-7f6af62b8000 ---p 00000000 00:00 0 
7f6af62b8000-7f6af62c7000 rw-p 00000000 00:00 0 
7f6af62c7000-7f6af6363000 ---p 00000000 00:00 0 
7f6af6363000-7f6af636e000 rw-p 00000000 00:00 0 
7f6af636e000-7f6af6724000 ---p 00000000 00:00 0 
7f6af6724000-7f6af672c000 r-xp 00000000 fd:01 785239                     /usr/lib/jvm/java-8-openjdk-amd64/jre/lib/amd64/libzip.so
7f6af672c000-7f6af692b000 ---p 00008000 fd:01 785239                     /usr/lib/jvm/java-8-openjdk-amd64/jre/lib/amd64/libzip.so
7f6af692b000-7f6af692c000 r--p 00007000 fd:01 785239                     /usr/lib/jvm/java-8-openjdk-amd64/jre/lib/amd64/libzip.so
7f6af692c000-7f6af692d000 rw-p 00008000 fd:01 785239                     /usr/lib/jvm/java-8-openjdk-amd64/jre/lib/amd64/libzip.so
7f6af692d000-7f6af6938000 r-xp 00000000 fd:01 21329                      /lib/x86_64-linux-gnu/libnss_files-2.23.so
7f6af6938000-7f6af6b37000 ---p 0000b000 fd:01 21329                      /lib/x86_64-linux-gnu/libnss_files-2.23.so
7f6af6b37000-7f6af6b38000 r--p 0000a000 fd:01 21329                      /lib/x86_64-linux-gnu/libnss_files-2.23.so
7f6af6b38000-7f6af6b39000 rw-p 0000b000 fd:01 21329                      /lib/x86_64-linux-gnu/libnss_files-2.23.so
7f6af6b39000-7f6af6b3f000 rw-p 00000000 00:00 0 
7f6af6b3f000-7f6af6b4a000 r-xp 00000000 fd:01 21341                      /lib/x86_64-linux-gnu/libnss_nis-2.23.so
7f6af6b4a000-7f6af6d49000 ---p 0000b000 fd:01 21341                      /lib/x86_64-linux-gnu/libnss_nis-2.23.so
7f6af6d49000-7f6af6d4a000 r--p 0000a000 fd:01 21341                      /lib/x86_64-linux-gnu/libnss_nis-2.23.so
7f6af6d4a000-7f6af6d4b000 rw-p 0000b000 fd:01 21341                      /lib/x86_64-linux-gnu/libnss_nis-2.23.so
7f6af6d4b000-7f6af6d61000 r-xp 00000000 fd:01 21246                      /lib/x86_64-linux-gnu/libnsl-2.23.so
7f6af6d61000-7f6af6f60000 ---p 00016000 fd:01 21246                      /lib/x86_64-linux-gnu/libnsl-2.23.so
7f6af6f60000-7f6af6f61000 r--p 00015000 fd:01 21246                      /lib/x86_64-linux-gnu/libnsl-2.23.so
7f6af6f61000-7f6af6f62000 rw-p 00016000 fd:01 21246                      /lib/x86_64-linux-gnu/libnsl-2.23.so
7f6af6f62000-7f6af6f64000 rw-p 00000000 00:00 0 
7f6af6f64000-7f6af6f6c000 r-xp 00000000 fd:01 21298                      /lib/x86_64-linux-gnu/libnss_compat-2.23.so
7f6af6f6c000-7f6af716b000 ---p 00008000 fd:01 21298                      /lib/x86_64-linux-gnu/libnss_compat-2.23.so
7f6af716b000-7f6af716c000 r--p 00007000 fd:01 21298                      /lib/x86_64-linux-gnu/libnss_compat-2.23.so
7f6af716c000-7f6af716d000 rw-p 00008000 fd:01 21298                      /lib/x86_64-linux-gnu/libnss_compat-2.23.so
7f6af716d000-7f6af719a000 r-xp 00000000 fd:01 785224                     /usr/lib/jvm/java-8-openjdk-amd64/jre/lib/amd64/libjava.so
7f6af719a000-7f6af7399000 ---p 0002d000 fd:01 785224                     /usr/lib/jvm/java-8-openjdk-amd64/jre/lib/amd64/libjava.so
7f6af7399000-7f6af739a000 r--p 0002c000 fd:01 785224                     /usr/lib/jvm/java-8-openjdk-amd64/jre/lib/amd64/libjava.so
7f6af739a000-7f6af739c000 rw-p 0002d000 fd:01 785224                     /usr/lib/jvm/java-8-openjdk-amd64/jre/lib/amd64/libjava.so
7f6af739c000-7f6af73ab000 r-xp 00000000 fd:01 785237                     /usr/lib/jvm/java-8-openjdk-amd64/jre/lib/amd64/libverify.so
7f6af73ab000-7f6af75aa000 ---p 0000f000 fd:01 785237                     /usr/lib/jvm/java-8-openjdk-amd64/jre/lib/amd64/libverify.so
7f6af75aa000-7f6af75ac000 r--p 0000e000 fd:01 785237                     /usr/lib/jvm/java-8-openjdk-amd64/jre/lib/amd64/libverify.so
7f6af75ac000-7f6af75ad000 rw-p 00010000 fd:01 785237                     /usr/lib/jvm/java-8-openjdk-amd64/jre/lib/amd64/libverify.so
7f6af75ad000-7f6af75b4000 r-xp 00000000 fd:01 21343                      /lib/x86_64-linux-gnu/librt-2.23.so
7f6af75b4000-7f6af77b3000 ---p 00007000 fd:01 21343                      /lib/x86_64-linux-gnu/librt-2.23.so
7f6af77b3000-7f6af77b4000 r--p 00006000 fd:01 21343                      /lib/x86_64-linux-gnu/librt-2.23.so
7f6af77b4000-7f6af77b5000 rw-p 00007000 fd:01 21343                      /lib/x86_64-linux-gnu/librt-2.23.so
7f6af77b5000-7f6af77cb000 r-xp 00000000 fd:01 2039                       /lib/x86_64-linux-gnu/libgcc_s.so.1
7f6af77cb000-7f6af79ca000 ---p 00016000 fd:01 2039                       /lib/x86_64-linux-gnu/libgcc_s.so.1
7f6af79ca000-7f6af79cb000 rw-p 00015000 fd:01 2039                       /lib/x86_64-linux-gnu/libgcc_s.so.1
7f6af79cb000-7f6af7ad3000 r-xp 00000000 fd:01 21243                      /lib/x86_64-linux-gnu/libm-2.23.so
7f6af7ad3000-7f6af7cd2000 ---p 00108000 fd:01 21243                      /lib/x86_64-linux-gnu/libm-2.23.so
7f6af7cd2000-7f6af7cd3000 r--p 00107000 fd:01 21243                      /lib/x86_64-linux-gnu/libm-2.23.so
7f6af7cd3000-7f6af7cd4000 rw-p 00108000 fd:01 21243                      /lib/x86_64-linux-gnu/libm-2.23.so
7f6af7cd4000-7f6af7e46000 r-xp 00000000 fd:01 70537                      /usr/lib/x86_64-linux-gnu/libstdc++.so.6.0.21
7f6af7e46000-7f6af8046000 ---p 00172000 fd:01 70537                      /usr/lib/x86_64-linux-gnu/libstdc++.so.6.0.21
7f6af8046000-7f6af8050000 r--p 00172000 fd:01 70537                      /usr/lib/x86_64-linux-gnu/libstdc++.so.6.0.21
7f6af8050000-7f6af8052000 rw-p 0017c000 fd:01 70537                      /usr/lib/x86_64-linux-gnu/libstdc++.so.6.0.21
7f6af8052000-7f6af8056000 rw-p 00000000 00:00 0 
7f6af8056000-7f6af8ca8000 r-xp 00000000 fd:01 1046829                    /usr/lib/jvm/java-8-openjdk-amd64/jre/lib/amd64/server/libjvm.so
7f6af8ca8000-7f6af8ea8000 ---p 00c52000 fd:01 1046829                    /usr/lib/jvm/java-8-openjdk-amd64/jre/lib/amd64/server/libjvm.so
7f6af8ea8000-7f6af8f3b000 r--p 00c52000 fd:01 1046829                    /usr/lib/jvm/java-8-openjdk-amd64/jre/lib/amd64/server/libjvm.so
7f6af8f3b000-7f6af8f64000 rw-p 00ce5000 fd:01 1046829                    /usr/lib/jvm/java-8-openjdk-amd64/jre/lib/amd64/server/libjvm.so
7f6af8f64000-7f6af8f94000 rw-p 00000000 00:00 0 
7f6af8f94000-7f6af8fac000 r-xp 00000000 fd:01 21248                      /lib/x86_64-linux-gnu/libpthread-2.23.so
7f6af8fac000-7f6af91ab000 ---p 00018000 fd:01 21248                      /lib/x86_64-linux-gnu/libpthread-2.23.so
7f6af91ab000-7f6af91ac000 r--p 00017000 fd:01 21248                      /lib/x86_64-linux-gnu/libpthread-2.23.so
7f6af91ac000-7f6af91ad000 rw-p 00018000 fd:01 21248                      /lib/x86_64-linux-gnu/libpthread-2.23.so
7f6af91ad000-7f6af91b1000 rw-p 00000000 00:00 0 
7f6af91b1000-7f6af91b4000 r-xp 00000000 fd:01 21251                      /lib/x86_64-linux-gnu/libdl-2.23.so
7f6af91b4000-7f6af93b3000 ---p 00003000 fd:01 21251                      /lib/x86_64-linux-gnu/libdl-2.23.so
7f6af93b3000-7f6af93b4000 r--p 00002000 fd:01 21251                      /lib/x86_64-linux-gnu/libdl-2.23.so
7f6af93b4000-7f6af93b5000 rw-p 00003000 fd:01 21251                      /lib/x86_64-linux-gnu/libdl-2.23.so
7f6af93b5000-7f6af93ce000 r-xp 00000000 fd:01 2193                       /lib/x86_64-linux-gnu/libz.so.1.2.8
7f6af93ce000-7f6af95cd000 ---p 00019000 fd:01 2193                       /lib/x86_64-linux-gnu/libz.so.1.2.8
7f6af95cd000-7f6af95ce000 r--p 00018000 fd:01 2193                       /lib/x86_64-linux-gnu/libz.so.1.2.8
7f6af95ce000-7f6af95cf000 rw-p 00019000 fd:01 2193                       /lib/x86_64-linux-gnu/libz.so.1.2.8
7f6af95cf000-7f6af978f000 r-xp 00000000 fd:01 21249                      /lib/x86_64-linux-gnu/libc-2.23.so
7f6af978f000-7f6af998f000 ---p 001c0000 fd:01 21249                      /lib/x86_64-linux-gnu/libc-2.23.so
7f6af998f000-7f6af9993000 r--p 001c0000 fd:01 21249                      /lib/x86_64-linux-gnu/libc-2.23.so
7f6af9993000-7f6af9995000 rw-p 001c4000 fd:01 21249                      /lib/x86_64-linux-gnu/libc-2.23.so
7f6af9995000-7f6af9999000 rw-p 00000000 00:00 0 
7f6af9999000-7f6af99a6000 r-xp 00000000 fd:01 785235                     /usr/lib/jvm/java-8-openjdk-amd64/jre/lib/amd64/jli/libjli.so
7f6af99a6000-7f6af9ba6000 ---p 0000d000 fd:01 785235                     /usr/lib/jvm/java-8-openjdk-amd64/jre/lib/amd64/jli/libjli.so
7f6af9ba6000-7f6af9ba7000 r--p 0000d000 fd:01 785235                     /usr/lib/jvm/java-8-openjdk-amd64/jre/lib/amd64/jli/libjli.so
7f6af9ba7000-7f6af9ba8000 rw-p 0000e000 fd:01 785235                     /usr/lib/jvm/java-8-openjdk-amd64/jre/lib/amd64/jli/libjli.so
7f6af9ba8000-7f6af9bce000 r-xp 00000000 fd:01 21247                      /lib/x86_64-linux-gnu/ld-2.23.so
7f6af9bce000-7f6af9bd0000 r--s 00001000 fd:01 785214                     /usr/lib/jvm/java-8-openjdk-amd64/jre/lib/ext/dnsns.jar
7f6af9bd0000-7f6af9bd2000 r--s 00008000 fd:01 785210                     /usr/lib/jvm/java-8-openjdk-amd64/jre/lib/ext/sunec.jar
7f6af9bd2000-7f6af9cb7000 rw-p 00000000 00:00 0 
7f6af9cb7000-7f6af9cbf000 rw-s 00000000 fd:01 11644                      /tmp/hsperfdata_root/3604
7f6af9cbf000-7f6af9cc2000 ---p 00000000 00:00 0 
7f6af9cc2000-7f6af9dc4000 rw-p 00000000 00:00 0 
7f6af9dc4000-7f6af9dc5000 r--s 00001000 fd:01 276918                     /opt/OpenbravoTablero/lib/build/YUIAnt.jar
7f6af9dc5000-7f6af9dc6000 r--s 00010000 fd:01 785207                     /usr/lib/jvm/java-8-openjdk-amd64/jre/lib/ext/zipfs.jar
7f6af9dc6000-7f6af9dc9000 r--s 0000f000 fd:01 785205                     /usr/lib/jvm/java-8-openjdk-amd64/jre/lib/ext/icedtea-sound.jar
7f6af9dc9000-7f6af9dca000 r--s 0000a000 fd:01 785213                     /usr/lib/jvm/java-8-openjdk-amd64/jre/lib/ext/jaccess.jar
7f6af9dca000-7f6af9dcb000 rw-p 00000000 00:00 0 
7f6af9dcb000-7f6af9dcc000 ---p 00000000 00:00 0 
7f6af9dcc000-7f6af9dcd000 rw-p 00000000 00:00 0 
7f6af9dcd000-7f6af9dce000 r--p 00025000 fd:01 21247                      /lib/x86_64-linux-gnu/ld-2.23.so
7f6af9dce000-7f6af9dcf000 rw-p 00026000 fd:01 21247                      /lib/x86_64-linux-gnu/ld-2.23.so
7f6af9dcf000-7f6af9dd0000 rw-p 00000000 00:00 0 
7fff100bc000-7fff100e0000 rw-p 00000000 00:00 0                          [stack]
7fff101d9000-7fff101dc000 r--p 00000000 00:00 0                          [vvar]
7fff101dc000-7fff101de000 r-xp 00000000 00:00 0                          [vdso]
ffffffffff600000-ffffffffff601000 r-xp 00000000 00:00 0                  [vsyscall]

VM Arguments:
jvm_args: -Xmx1024M 
java_command: org.openbravo.translate.Translate /opt/OpenbravoTablero/config/Openbravo.properties fo /opt/OpenbravoTablero/src
java_class_path (initial): /opt/OpenbravoTablero/modules/org.openbravo.advpaymentmngt/build/classes:/opt/OpenbravoTablero/modules/org.openbravo.advpaymentmngt/build/classes/org:/opt/OpenbravoTablero/modules/org.openbravo.advpaymentmngt/build/classes/org/openbravo:/opt/OpenbravoTablero/modules/org.openbravo.advpaymentmngt/build/classes/org/openbravo/advpaymentmngt:/opt/OpenbravoTablero/modules/org.openbravo.advpaymentmngt/build/classes/org/openbravo/advpaymentmngt/buildvalidation:/opt/OpenbravoTablero/modules/org.openbravo.advpaymentmngt/build/classes/org/openbravo/advpaymentmngt/modulescript:/opt/OpenbravoTablero/modules/org.openbravo.userinterface.selector/build/classes:/opt/OpenbravoTablero/modules/org.openbravo.userinterface.selector/build/classes/org:/opt/OpenbravoTablero/modules/org.openbravo.userinterface.selector/build/classes/org/openbravo:/opt/OpenbravoTablero/modules/org.openbravo.userinterface.selector/build/classes/org/openbravo/userinterface:/opt/OpenbravoTablero/modules/org.openbravo.userinterface.selector/build/classes/org/openbravo/userinterface/selector:/opt/OpenbravoTablero/modules/org.openbravo.userinterface.skin.250to300Comp/build/classes:/opt/OpenbravoTablero/modules/org.openbravo.userinterface.skin.250to300Comp/build/classes/org:/opt/OpenbravoTablero/modules/org.openbravo.userinterface.skin.250to300Comp/build/classes/org/openbravo:/opt/OpenbravoTablero/modules/org.openbravo.userinterface.skin.250to300Comp/build/classes/org/openbravo/userinterface:/opt/OpenbravoTablero/modules/org.openbravo.userinterface.skin.250to300Comp/build/classes/org/openbravo/userinterface/skin:/opt/OpenbravoTablero/modules/org.openbravo.userinterface.skin.250to300Comp/build/classes/org/openbravo/userinterface/skin/s250to300Comp:/opt/OpenbravoTablero/modules/org.openbravo.userinterface.skin.250to300Comp/build/classes/org/openbravo/userinterface/skin/s250to300Comp/modulescript:/opt/OpenbravoTablero/modules/org.openbravo.v3.datasets/build/classes:/opt/OpenbravoTablero/mod
Launcher Type: SUN_STANDARD

Environment Variables:
JAVA_HOME=/usr/lib/jvm/java-8-openjdk-amd64
PATH=/usr/local/sbin:/usr/local/bin:/usr/sbin:/usr/bin:/sbin:/bin:/usr/games:/usr/local/games:/snap/bin
SHELL=/bin/bash

Signal Handlers:
SIGSEGV: [libjvm.so+0xa69040], sa_mask[0]=11111111011111111101111111111110, sa_flags=SA_RESTART|SA_SIGINFO
SIGBUS: [libjvm.so+0xa69040], sa_mask[0]=11111111011111111101111111111110, sa_flags=SA_RESTART|SA_SIGINFO
SIGFPE: [libjvm.so+0x8b2170], sa_mask[0]=11111111011111111101111111111110, sa_flags=SA_RESTART|SA_SIGINFO
SIGPIPE: [libjvm.so+0x8b2170], sa_mask[0]=11111111011111111101111111111110, sa_flags=SA_RESTART|SA_SIGINFO
SIGXFSZ: [libjvm.so+0x8b2170], sa_mask[0]=11111111011111111101111111111110, sa_flags=SA_RESTART|SA_SIGINFO
SIGILL: [libjvm.so+0x8b2170], sa_mask[0]=11111111011111111101111111111110, sa_flags=SA_RESTART|SA_SIGINFO
SIGUSR1: SIG_DFL, sa_mask[0]=00000000000000000000000000000000, sa_flags=none
SIGUSR2: [libjvm.so+0x8b2020], sa_mask[0]=00100000000000000000000000000000, sa_flags=SA_RESTART|SA_SIGINFO
SIGHUP: [libjvm.so+0x8b24f0], sa_mask[0]=11111111011111111101111111111110, sa_flags=SA_RESTART|SA_SIGINFO
SIGINT: [libjvm.so+0x8b24f0], sa_mask[0]=11111111011111111101111111111110, sa_flags=SA_RESTART|SA_SIGINFO
SIGTERM: [libjvm.so+0x8b24f0], sa_mask[0]=11111111011111111101111111111110, sa_flags=SA_RESTART|SA_SIGINFO
SIGQUIT: [libjvm.so+0x8b24f0], sa_mask[0]=11111111011111111101111111111110, sa_flags=SA_RESTART|SA_SIGINFO


---------------  S Y S T E M  ---------------

OS:DISTRIB_ID=Ubuntu
DISTRIB_RELEASE=16.04
DISTRIB_CODENAME=xenial
DISTRIB_DESCRIPTION="Ubuntu 16.04.3 LTS"

uname:Linux 4.4.0-116-generic #140-Ubuntu SMP Mon Feb 12 21:23:04 UTC 2018 x86_64
libc:glibc 2.23 NPTL 2.23 
rlimit: STACK 8192k, CORE 0k, NPROC 11959, NOFILE 1048576, AS infinity
load average:0.43 0.22 0.16

/proc/meminfo:
MemTotal:        3080304 kB
MemFree:           78048 kB
MemAvailable:       6956 kB
Buffers:             336 kB
Cached:            38252 kB
SwapCached:            0 kB
Active:          2896360 kB
Inactive:          34888 kB
Active(anon):    2895828 kB
Inactive(anon):    33204 kB
Active(file):        532 kB
Inactive(file):     1684 kB
Unevictable:        3652 kB
Mlocked:            3652 kB
SwapTotal:             0 kB
SwapFree:              0 kB
Dirty:               208 kB
Writeback:             0 kB
AnonPages:       2896368 kB
Mapped:             4132 kB
Shmem:             33912 kB
Slab:              31760 kB
SReclaimable:      14544 kB
SUnreclaim:        17216 kB
KernelStack:        4368 kB
PageTables:        10384 kB
NFS_Unstable:          0 kB
Bounce:                0 kB
WritebackTmp:          0 kB
CommitLimit:     1540152 kB
Committed_AS:    3209484 kB
VmallocTotal:   34359738367 kB
VmallocUsed:           0 kB
VmallocChunk:          0 kB
HardwareCorrupted:     0 kB
AnonHugePages:   1902592 kB
CmaTotal:              0 kB
CmaFree:               0 kB
HugePages_Total:       0
HugePages_Free:        0
HugePages_Rsvd:        0
HugePages_Surp:        0
Hugepagesize:       2048 kB
DirectMap4k:       49132 kB
DirectMap2M:     3096576 kB
DirectMap1G:           0 kB


CPU:total 2 (initial active 2) (1 cores per cpu, 1 threads per core) family 6 model 79 stepping 1, cmov, cx8, fxsr, mmx, sse, sse2, sse3, ssse3, sse4.1, sse4.2, popcnt, avx, avx2, aes, clmul, erms, rtm, 3dnowpref, lzcnt, tsc, bmi1, bmi2, adx

/proc/cpuinfo:
processor	: 0
vendor_id	: GenuineIntel
cpu family	: 6
model		: 79
model name	: Intel(R) Xeon(R) CPU E5-2697A v4 @ 2.60GHz
stepping	: 1
microcode	: 0x1
cpu MHz		: 2599.996
cache size	: 40960 KB
physical id	: 0
siblings	: 1
core id		: 0
cpu cores	: 1
apicid		: 0
initial apicid	: 0
fpu		: yes
fpu_exception	: yes
cpuid level	: 13
wp		: yes
flags		: fpu vme de pse tsc msr pae mce cx8 apic sep mtrr pge mca cmov pat pse36 clflush mmx fxsr sse sse2 ss syscall nx pdpe1gb rdtscp lm constant_tsc arch_perfmon rep_good nopl eagerfpu pni pclmulqdq vmx ssse3 fma cx16 pcid sse4_1 sse4_2 x2apic movbe popcnt tsc_deadline_timer aes xsave avx f16c rdrand hypervisor lahf_lm abm 3dnowprefetch invpcid_single retpoline kaiser tpr_shadow vnmi flexpriority ept vpid fsgsbase tsc_adjust bmi1 hle avx2 smep bmi2 erms invpcid rtm rdseed adx smap xsaveopt
bugs		: cpu_meltdown spectre_v1 spectre_v2
bogomips	: 5199.99
clflush size	: 64
cache_alignment	: 64
address sizes	: 40 bits physical, 48 bits virtual
power management:

processor	: 1
vendor_id	: GenuineIntel
cpu family	: 6
model		: 79
model name	: Intel(R) Xeon(R) CPU E5-2697A v4 @ 2.60GHz
stepping	: 1
microcode	: 0x1
cpu MHz		: 2599.996
cache size	: 40960 KB
physical id	: 1
siblings	: 1
core id		: 0
cpu cores	: 1
apicid		: 1
initial apicid	: 1
fpu		: yes
fpu_exception	: yes
cpuid level	: 13
wp		: yes
flags		: fpu vme de pse tsc msr pae mce cx8 apic sep mtrr pge mca cmov pat pse36 clflush mmx fxsr sse sse2 ss syscall nx pdpe1gb rdtscp lm constant_tsc arch_perfmon rep_good nopl eagerfpu pni pclmulqdq vmx ssse3 fma cx16 pcid sse4_1 sse4_2 x2apic movbe popcnt tsc_deadline_timer aes xsave avx f16c rdrand hypervisor lahf_lm abm 3dnowprefetch invpcid_single retpoline kaiser tpr_shadow vnmi flexpriority ept vpid fsgsbase tsc_adjust bmi1 hle avx2 smep bmi2 erms invpcid rtm rdseed adx smap xsaveopt
bugs		: cpu_meltdown spectre_v1 spectre_v2
bogomips	: 5199.99
clflush size	: 64
cache_alignment	: 64
address sizes	: 40 bits physical, 48 bits virtual
power management:



Memory: 4k page, physical 3080304k(78048k free), swap 0k(0k free)

vm_info: OpenJDK 64-Bit Server VM (25.151-b12) for linux-amd64 JRE (1.8.0_151-8u151-b12-0ubuntu0.16.04.2-b12), built on Oct 27 2017 21:59:02 by "buildd" with gcc 5.4.0 20160609

time: Sun Mar  4 18:02:07 2018
elapsed time: 0 seconds (0d 0h 0m 0s)

