#
# There is insufficient memory for the Java Runtime Environment to continue.
# Native memory allocation (mmap) failed to map 6815744 bytes for committing reserved memory.
# Possible reasons:
#   The system is out of physical RAM or swap space
#   In 32 bit mode, the process size limit was hit
# Possible solutions:
#   Reduce memory load on the system
#   Increase physical memory or swap space
#   Check if swap backing store is full
#   Use 64 bit Java on a 64 bit OS
#   Decrease Java heap size (-Xmx/-Xms)
#   Decrease number of Java threads
#   Decrease Java thread stack sizes (-Xss)
#   Set larger code cache with -XX:ReservedCodeCacheSize=
# This output file may be truncated or incomplete.
#
#  Out of Memory Error (os_linux.cpp:2643), pid=29214, tid=0x00007f5e3c4bd700
#
# JRE version: OpenJDK Runtime Environment (8.0_151-b12) (build 1.8.0_151-8u151-b12-0ubuntu0.16.04.2-b12)
# Java VM: OpenJDK 64-Bit Server VM (25.151-b12 mixed mode linux-amd64 compressed oops)
# Failed to write core dump. Core dumps have been disabled. To enable core dumping, try "ulimit -c unlimited" before starting Java again
#

---------------  T H R E A D  ---------------

Current thread (0x00007f5e50078000):  VMThread [stack: 0x00007f5e3c3bd000,0x00007f5e3c4be000] [id=29221]

Stack: [0x00007f5e3c3bd000,0x00007f5e3c4be000],  sp=0x00007f5e3c4bc4c0,  free space=1021k
Native frames: (J=compiled Java code, j=interpreted, Vv=VM code, C=native code)
V  [libjvm.so+0xa684eb]
V  [libjvm.so+0x4c579c]
V  [libjvm.so+0x8b6b50]
V  [libjvm.so+0x8b0fce]
V  [libjvm.so+0x92b806]
V  [libjvm.so+0x92cb33]
V  [libjvm.so+0x9291fb]
V  [libjvm.so+0x9294ac]
V  [libjvm.so+0x8db3c3]
V  [libjvm.so+0xa6a192]
V  [libjvm.so+0xa6f277]
V  [libjvm.so+0xa6ca47]
V  [libjvm.so+0xa6decf]
V  [libjvm.so+0xa6e3c1]
V  [libjvm.so+0x8b4032]

VM_Operation (0x00007f5e56a3ad70): ParallelGCFailedAllocation, mode: safepoint, requested by thread 0x00007f5e5000e800


---------------  P R O C E S S  ---------------

Java Threads: ( => current thread )
  0x00007f5e500b8800 JavaThread "Service Thread" daemon [_thread_blocked, id=29227, stack(0x00007f5e27bfc000,0x00007f5e27cfd000)]
  0x00007f5e500b0800 JavaThread "C1 CompilerThread1" daemon [_thread_blocked, id=29226, stack(0x00007f5e27cfd000,0x00007f5e27dfe000)]
  0x00007f5e500ad800 JavaThread "C2 CompilerThread0" daemon [_thread_blocked, id=29225, stack(0x00007f5e27dfe000,0x00007f5e27eff000)]
  0x00007f5e500ab800 JavaThread "Signal Dispatcher" daemon [_thread_blocked, id=29224, stack(0x00007f5e27eff000,0x00007f5e28000000)]
  0x00007f5e50084000 JavaThread "Finalizer" daemon [_thread_blocked, id=29223, stack(0x00007f5e3c1bb000,0x00007f5e3c2bc000)]
  0x00007f5e5007f800 JavaThread "Reference Handler" daemon [_thread_blocked, id=29222, stack(0x00007f5e3c2bc000,0x00007f5e3c3bd000)]
  0x00007f5e5000e800 JavaThread "main" [_thread_blocked, id=29218, stack(0x00007f5e5693d000,0x00007f5e56a3e000)]

Other Threads:
=>0x00007f5e50078000 VMThread [stack: 0x00007f5e3c3bd000,0x00007f5e3c4be000] [id=29221]
  0x00007f5e500ba000 WatcherThread [stack: 0x00007f5e27afb000,0x00007f5e27bfc000] [id=29228]

VM state:at safepoint (normal execution)

VM Mutex/Monitor currently owned by a thread:  ([mutex/lock_event])
[0x00007f5e5000af90] Threads_lock - owner thread: 0x00007f5e50078000
[0x00007f5e5000b490] Heap_lock - owner thread: 0x00007f5e5000e800

Heap:
 PSYoungGen      total 14336K, used 1872K [0x00000000eab00000, 0x00000000ebc80000, 0x0000000100000000)
  eden space 10752K, 0% used [0x00000000eab00000,0x00000000eab00000,0x00000000eb580000)
  from space 3584K, 52% used [0x00000000eb900000,0x00000000ebad4030,0x00000000ebc80000)
  to   space 2048K, 0% used [0x00000000eb580000,0x00000000eb580000,0x00000000eb780000)
 ParOldGen       total 32768K, used 4680K [0x00000000c0000000, 0x00000000c2000000, 0x00000000eab00000)
  object space 32768K, 14% used [0x00000000c0000000,0x00000000c04923b8,0x00000000c2000000)
 Metaspace       used 8256K, capacity 8434K, committed 8704K, reserved 1056768K
  class space    used 914K, capacity 971K, committed 1024K, reserved 1048576K

Card table byte_map: [0x00007f5e3fdc7000,0x00007f5e3ffc8000] byte_map_base: 0x00007f5e3f7c7000

Marking Bits: (ParMarkBitMap*) 0x00007f5e55bf52c0
 Begin Bits: [0x00007f5e3da6f000, 0x00007f5e3ea6f000)
 End Bits:   [0x00007f5e3ea6f000, 0x00007f5e3fa6f000)

Polling page: 0x00007f5e56a49000

CodeCache: size=245760Kb used=4114Kb max_used=4123Kb free=241645Kb
 bounds [0x00007f5e40388000, 0x00007f5e40798000, 0x00007f5e4f388000]
 total_blobs=1317 nmethods=1030 adapters=202
 compilation: enabled

Compilation events (10 events):
Event: 19.493 Thread 0x00007f5e500b0800 1153       3       org.apache.tools.ant.types.resources.FileResourceIterator::next (5 bytes)
Event: 19.500 Thread 0x00007f5e500b0800 nmethod 1153 0x00007f5e407866d0 code [0x00007f5e40786840, 0x00007f5e407869c8]
Event: 19.502 Thread 0x00007f5e500b0800 1160       3       org.apache.tools.ant.types.DataType::isReference (13 bytes)
Event: 19.514 Thread 0x00007f5e500b0800 nmethod 1160 0x00007f5e4078e650 code [0x00007f5e4078e7c0, 0x00007f5e4078e970]
Event: 19.515 Thread 0x00007f5e500ad800 nmethod 1145 0x00007f5e40793050 code [0x00007f5e40793280, 0x00007f5e40793f50]
Event: 19.516 Thread 0x00007f5e500b0800 1154       3       org.apache.tools.ant.types.resources.FileResourceIterator::nextResource (53 bytes)
Event: 19.516 Thread 0x00007f5e500ad800 1159       4       org.apache.tools.ant.types.selectors.SelectorUtils::matchPath (435 bytes)
Event: 19.526 Thread 0x00007f5e500b0800 nmethod 1154 0x00007f5e4078a6d0 code [0x00007f5e4078a8a0, 0x00007f5e4078afd8]
Event: 19.581 Thread 0x00007f5e500b0800 1161       3       java.util.Vector::grow (57 bytes)
Event: 19.596 Thread 0x00007f5e500b0800 nmethod 1161 0x00007f5e4078dd50 code [0x00007f5e4078df00, 0x00007f5e4078e438]

GC Heap History (10 events):
Event: 6.861 GC heap after
Heap after GC invocations=5 (full 0):
 PSYoungGen      total 14336K, used 2019K [0x00000000eab00000, 0x00000000ebc00000, 0x0000000100000000)
  eden space 12288K, 0% used [0x00000000eab00000,0x00000000eab00000,0x00000000eb700000)
  from space 2048K, 98% used [0x00000000eb700000,0x00000000eb8f8ee8,0x00000000eb900000)
  to   space 2560K, 0% used [0x00000000eb980000,0x00000000eb980000,0x00000000ebc00000)
 ParOldGen       total 32768K, used 894K [0x00000000c0000000, 0x00000000c2000000, 0x00000000eab00000)
  object space 32768K, 2% used [0x00000000c0000000,0x00000000c00df8c8,0x00000000c2000000)
 Metaspace       used 6710K, capacity 6800K, committed 6912K, reserved 1056768K
  class space    used 730K, capacity 752K, committed 768K, reserved 1048576K
}
Event: 11.444 GC heap before
{Heap before GC invocations=6 (full 0):
 PSYoungGen      total 14336K, used 14307K [0x00000000eab00000, 0x00000000ebc00000, 0x0000000100000000)
  eden space 12288K, 100% used [0x00000000eab00000,0x00000000eb700000,0x00000000eb700000)
  from space 2048K, 98% used [0x00000000eb700000,0x00000000eb8f8ee8,0x00000000eb900000)
  to   space 2560K, 0% used [0x00000000eb980000,0x00000000eb980000,0x00000000ebc00000)
 ParOldGen       total 32768K, used 894K [0x00000000c0000000, 0x00000000c2000000, 0x00000000eab00000)
  object space 32768K, 2% used [0x00000000c0000000,0x00000000c00df8c8,0x00000000c2000000)
 Metaspace       used 7413K, capacity 7598K, committed 7808K, reserved 1056768K
  class space    used 826K, capacity 869K, committed 896K, reserved 1048576K
Event: 11.462 GC heap after
Heap after GC invocations=6 (full 0):
 PSYoungGen      total 14336K, used 2532K [0x00000000eab00000, 0x00000000ebd00000, 0x0000000100000000)
  eden space 11776K, 0% used [0x00000000eab00000,0x00000000eab00000,0x00000000eb680000)
  from space 2560K, 98% used [0x00000000eb980000,0x00000000ebbf90c8,0x00000000ebc00000)
  to   space 3072K, 0% used [0x00000000eb680000,0x00000000eb680000,0x00000000eb980000)
 ParOldGen       total 32768K, used 936K [0x00000000c0000000, 0x00000000c2000000, 0x00000000eab00000)
  object space 32768K, 2% used [0x00000000c0000000,0x00000000c00ea1a8,0x00000000c2000000)
 Metaspace       used 7413K, capacity 7598K, committed 7808K, reserved 1056768K
  class space    used 826K, capacity 869K, committed 896K, reserved 1048576K
}
Event: 14.286 GC heap before
{Heap before GC invocations=7 (full 0):
 PSYoungGen      total 14336K, used 14308K [0x00000000eab00000, 0x00000000ebd00000, 0x0000000100000000)
  eden space 11776K, 100% used [0x00000000eab00000,0x00000000eb680000,0x00000000eb680000)
  from space 2560K, 98% used [0x00000000eb980000,0x00000000ebbf90c8,0x00000000ebc00000)
  to   space 3072K, 0% used [0x00000000eb680000,0x00000000eb680000,0x00000000eb980000)
 ParOldGen       total 32768K, used 936K [0x00000000c0000000, 0x00000000c2000000, 0x00000000eab00000)
  object space 32768K, 2% used [0x00000000c0000000,0x00000000c00ea1a8,0x00000000c2000000)
 Metaspace       used 7747K, capacity 7852K, committed 8192K, reserved 1056768K
  class space    used 861K, capacity 906K, committed 1024K, reserved 1048576K
Event: 14.307 GC heap after
Heap after GC invocations=7 (full 0):
 PSYoungGen      total 14848K, used 2240K [0x00000000eab00000, 0x00000000ebc80000, 0x0000000100000000)
  eden space 11776K, 0% used [0x00000000eab00000,0x00000000eab00000,0x00000000eb680000)
  from space 3072K, 72% used [0x00000000eb680000,0x00000000eb8b0010,0x00000000eb980000)
  to   space 3072K, 0% used [0x00000000eb980000,0x00000000eb980000,0x00000000ebc80000)
 ParOldGen       total 32768K, used 1816K [0x00000000c0000000, 0x00000000c2000000, 0x00000000eab00000)
  object space 32768K, 5% used [0x00000000c0000000,0x00000000c01c60e0,0x00000000c2000000)
 Metaspace       used 7747K, capacity 7852K, committed 8192K, reserved 1056768K
  class space    used 861K, capacity 906K, committed 1024K, reserved 1048576K
}
Event: 17.713 GC heap before
{Heap before GC invocations=8 (full 0):
 PSYoungGen      total 14848K, used 14016K [0x00000000eab00000, 0x00000000ebc80000, 0x0000000100000000)
  eden space 11776K, 100% used [0x00000000eab00000,0x00000000eb680000,0x00000000eb680000)
  from space 3072K, 72% used [0x00000000eb680000,0x00000000eb8b0010,0x00000000eb980000)
  to   space 3072K, 0% used [0x00000000eb980000,0x00000000eb980000,0x00000000ebc80000)
 ParOldGen       total 32768K, used 1816K [0x00000000c0000000, 0x00000000c2000000, 0x00000000eab00000)
  object space 32768K, 5% used [0x00000000c0000000,0x00000000c01c60e0,0x00000000c2000000)
 Metaspace       used 8143K, capacity 8274K, committed 8448K, reserved 1056768K
  class space    used 905K, capacity 939K, committed 1024K, reserved 1048576K
Event: 17.740 GC heap after
Heap after GC invocations=8 (full 0):
 PSYoungGen      total 13824K, used 3054K [0x00000000eab00000, 0x00000000ebe80000, 0x0000000100000000)
  eden space 10752K, 0% used [0x00000000eab00000,0x00000000eab00000,0x00000000eb580000)
  from space 3072K, 99% used [0x00000000eb980000,0x00000000ebc7bbc0,0x00000000ebc80000)
  to   space 4096K, 0% used [0x00000000eb580000,0x00000000eb580000,0x00000000eb980000)
 ParOldGen       total 32768K, used 2740K [0x00000000c0000000, 0x00000000c2000000, 0x00000000eab00000)
  object space 32768K, 8% used [0x00000000c0000000,0x00000000c02ad398,0x00000000c2000000)
 Metaspace       used 8143K, capacity 8274K, committed 8448K, reserved 1056768K
  class space    used 905K, capacity 939K, committed 1024K, reserved 1048576K
}
Event: 18.783 GC heap before
{Heap before GC invocations=9 (full 0):
 PSYoungGen      total 13824K, used 13806K [0x00000000eab00000, 0x00000000ebe80000, 0x0000000100000000)
  eden space 10752K, 100% used [0x00000000eab00000,0x00000000eb580000,0x00000000eb580000)
  from space 3072K, 99% used [0x00000000eb980000,0x00000000ebc7bbc0,0x00000000ebc80000)
  to   space 4096K, 0% used [0x00000000eb580000,0x00000000eb580000,0x00000000eb980000)
 ParOldGen       total 32768K, used 2740K [0x00000000c0000000, 0x00000000c2000000, 0x00000000eab00000)
  object space 32768K, 8% used [0x00000000c0000000,0x00000000c02ad398,0x00000000c2000000)
 Metaspace       used 8237K, capacity 8370K, committed 8448K, reserved 1056768K
  class space    used 914K, capacity 971K, committed 1024K, reserved 1048576K
Event: 18.803 GC heap after
Heap after GC invocations=9 (full 0):
 PSYoungGen      total 12800K, used 2007K [0x00000000eab00000, 0x00000000ebc80000, 0x0000000100000000)
  eden space 10752K, 0% used [0x00000000eab00000,0x00000000eab00000,0x00000000eb580000)
  from space 2048K, 98% used [0x00000000eb580000,0x00000000eb775d00,0x00000000eb780000)
  to   space 3584K, 0% used [0x00000000eb900000,0x00000000eb900000,0x00000000ebc80000)
 ParOldGen       total 32768K, used 3884K [0x00000000c0000000, 0x00000000c2000000, 0x00000000eab00000)
  object space 32768K, 11% used [0x00000000c0000000,0x00000000c03cb3a8,0x00000000c2000000)
 Metaspace       used 8237K, capacity 8370K, committed 8448K, reserved 1056768K
  class space    used 914K, capacity 971K, committed 1024K, reserved 1048576K
}
Event: 19.608 GC heap before
{Heap before GC invocations=10 (full 0):
 PSYoungGen      total 12800K, used 12759K [0x00000000eab00000, 0x00000000ebc80000, 0x0000000100000000)
  eden space 10752K, 100% used [0x00000000eab00000,0x00000000eb580000,0x00000000eb580000)
  from space 2048K, 98% used [0x00000000eb580000,0x00000000eb775d00,0x00000000eb780000)
  to   space 3584K, 0% used [0x00000000eb900000,0x00000000eb900000,0x00000000ebc80000)
 ParOldGen       total 32768K, used 3884K [0x00000000c0000000, 0x00000000c2000000, 0x00000000eab00000)
  object space 32768K, 11% used [0x00000000c0000000,0x00000000c03cb3a8,0x00000000c2000000)
 Metaspace       used 8256K, capacity 8434K, committed 8704K, reserved 1056768K
  class space    used 914K, capacity 971K, committed 1024K, reserved 1048576K

Deoptimization events (10 events):
Event: 5.910 Thread 0x00007f5e5000e800 Uncommon trap: reason=unstable_if action=reinterpret pc=0x00007f5e4056a70c method=java.lang.String.indexOf([CII[CIII)I @ 3
Event: 8.952 Thread 0x00007f5e5000e800 Uncommon trap: reason=unstable_if action=reinterpret pc=0x00007f5e405aa7e0 method=java.io.UnixFileSystem.getBooleanAttributes(Ljava/io/File;)I @ 25
Event: 13.501 Thread 0x00007f5e5000e800 Uncommon trap: reason=unstable_if action=reinterpret pc=0x00007f5e406d33f8 method=org.apache.tools.ant.types.selectors.SelectorUtils.match(Ljava/lang/String;Ljava/lang/String;Z)Z @ 244
Event: 13.679 Thread 0x00007f5e5000e800 Uncommon trap: reason=unstable_if action=reinterpret pc=0x00007f5e406881cc method=java.lang.String.substring(I)Ljava/lang/String; @ 35
Event: 14.530 Thread 0x00007f5e5000e800 Uncommon trap: reason=unstable_if action=reinterpret pc=0x00007f5e405d52e0 method=sun.nio.cs.UTF_8$Decoder.decode([BII[C)I @ 30
Event: 16.327 Thread 0x00007f5e5000e800 Uncommon trap: reason=unstable_if action=reinterpret pc=0x00007f5e40707754 method=java.util.StringTokenizer.scanToken(I)I @ 96
Event: 16.333 Thread 0x00007f5e5000e800 Uncommon trap: reason=unstable_if action=reinterpret pc=0x00007f5e406a8c28 method=java.util.StringTokenizer.scanToken(I)I @ 96
Event: 18.149 Thread 0x00007f5e5000e800 Uncommon trap: reason=unstable_if action=reinterpret pc=0x00007f5e406efd8c method=org.apache.tools.ant.types.selectors.SelectorUtils.match(Ljava/lang/String;Ljava/lang/String;Z)Z @ 220
Event: 18.826 Thread 0x00007f5e5000e800 Uncommon trap: reason=unstable_if action=reinterpret pc=0x00007f5e406e7854 method=org.apache.tools.ant.types.selectors.SelectorUtils.matchPath([Ljava/lang/String;[Ljava/lang/String;Z)Z @ 129
Event: 19.306 Thread 0x00007f5e5000e800 Uncommon trap: reason=unstable_if action=reinterpret pc=0x00007f5e406a90f0 method=org.apache.tools.ant.types.DataType.isReference()Z @ 4

Internal exceptions (10 events):
Event: 0.494 Thread 0x00007f5e5000e800 Exception <a 'java/lang/ClassNotFoundException': org/apache/log4j/LayoutBeanInfo> (0x00000000eab9e3b0) thrown at [/build/openjdk-8-W2Qe27/openjdk-8-8u151-b12/src/hotspot/src/share/vm/classfile/systemDictionary.cpp, line 210]
Event: 0.494 Thread 0x00007f5e5000e800 Exception <a 'java/lang/ClassNotFoundException': java/lang/ObjectBeanInfo> (0x00000000eabc11b8) thrown at [/build/openjdk-8-W2Qe27/openjdk-8-8u151-b12/src/hotspot/src/share/vm/classfile/systemDictionary.cpp, line 210]
Event: 0.495 Thread 0x00007f5e5000e800 Exception <a 'java/lang/ClassNotFoundException': java/lang/ObjectCustomizer> (0x00000000eabe4258) thrown at [/build/openjdk-8-W2Qe27/openjdk-8-8u151-b12/src/hotspot/src/share/vm/classfile/systemDictionary.cpp, line 210]
Event: 0.499 Thread 0x00007f5e5000e800 Exception <a 'java/lang/ArrayIndexOutOfBoundsException': 18> (0x00000000eabe6960) thrown at [/build/openjdk-8-W2Qe27/openjdk-8-8u151-b12/src/hotspot/src/share/vm/interpreter/interpreterRuntime.cpp, line 366]
Event: 0.500 Thread 0x00007f5e5000e800 Exception <a 'java/lang/ArrayIndexOutOfBoundsException': 22> (0x00000000eabe9ca8) thrown at [/build/openjdk-8-W2Qe27/openjdk-8-8u151-b12/src/hotspot/src/share/vm/interpreter/interpreterRuntime.cpp, line 366]
Event: 0.503 Thread 0x00007f5e5000e800 Exception <a 'java/lang/ArrayIndexOutOfBoundsException'> (0x00000000eabec0f8) thrown at [/build/openjdk-8-W2Qe27/openjdk-8-8u151-b12/src/hotspot/src/share/vm/runtime/sharedRuntime.cpp, line 605]
Event: 0.511 Thread 0x00007f5e5000e800 Exception <a 'java/lang/ClassNotFoundException': org/apache/log4j/LayoutCustomizer> (0x00000000eac39398) thrown at [/build/openjdk-8-W2Qe27/openjdk-8-8u151-b12/src/hotspot/src/share/vm/classfile/systemDictionary.cpp, line 210]
Event: 0.514 Thread 0x00007f5e5000e800 Exception <a 'java/lang/ClassNotFoundException': org/apache/log4j/PatternLayoutCustomizer> (0x00000000eacb6da8) thrown at [/build/openjdk-8-W2Qe27/openjdk-8-8u151-b12/src/hotspot/src/share/vm/classfile/systemDictionary.cpp, line 210]
Event: 0.524 Thread 0x00007f5e5000e800 Implicit null exception at 0x00007f5e404fe434 to 0x00007f5e404fe831
Event: 15.714 Thread 0x00007f5e5000e800 Exception <a 'java/lang/ClassNotFoundException': org/apache/tools/ant/helper/DefaultExecutor> (0x00000000eb048e38) thrown at [/build/openjdk-8-W2Qe27/openjdk-8-8u151-b12/src/hotspot/src/share/vm/classfile/systemDictionary.cpp, line 210]

Events (10 events):
Event: 18.805 Executing VM operation: ParallelGCFailedAllocation done
Event: 18.825 Thread 0x00007f5e5000e800 Uncommon trap: trap_request=0xffffff65 fr.pc=0x00007f5e406e7854
Event: 18.827 Thread 0x00007f5e5000e800 DEOPT PACKING pc=0x00007f5e406e7854 sp=0x00007f5e56a3b780
Event: 18.828 Thread 0x00007f5e5000e800 DEOPT UNPACKING pc=0x00007f5e4038cf69 sp=0x00007f5e56a3b708 mode 2
Event: 19.280 loading class org/apache/tools/ant/types/Commandline
Event: 19.281 loading class org/apache/tools/ant/types/Commandline done
Event: 19.306 Thread 0x00007f5e5000e800 Uncommon trap: trap_request=0xffffff65 fr.pc=0x00007f5e406a90f0
Event: 19.307 Thread 0x00007f5e5000e800 DEOPT PACKING pc=0x00007f5e406a90f0 sp=0x00007f5e56a3b810
Event: 19.308 Thread 0x00007f5e5000e800 DEOPT UNPACKING pc=0x00007f5e4038cf69 sp=0x00007f5e56a3b7c8 mode 2
Event: 19.606 Executing VM operation: ParallelGCFailedAllocation


Dynamic libraries:
00400000-00401000 r-xp 00000000 fd:01 1046840                            /usr/lib/jvm/java-8-openjdk-amd64/jre/bin/java
00600000-00601000 r--p 00000000 fd:01 1046840                            /usr/lib/jvm/java-8-openjdk-amd64/jre/bin/java
00601000-00602000 rw-p 00001000 fd:01 1046840                            /usr/lib/jvm/java-8-openjdk-amd64/jre/bin/java
018be000-018df000 rw-p 00000000 00:00 0                                  [heap]
c0000000-c2000000 rw-p 00000000 00:00 0 
c2000000-eab00000 ---p 00000000 00:00 0 
eab00000-ebc80000 rw-p 00000000 00:00 0 
ec300000-100000000 ---p 00000000 00:00 0 
100000000-100100000 rw-p 00000000 00:00 0 
100100000-140000000 ---p 00000000 00:00 0 
7f5e10000000-7f5e10021000 rw-p 00000000 00:00 0 
7f5e10021000-7f5e14000000 ---p 00000000 00:00 0 
7f5e14000000-7f5e14021000 rw-p 00000000 00:00 0 
7f5e14021000-7f5e18000000 ---p 00000000 00:00 0 
7f5e18000000-7f5e18507000 rw-p 00000000 00:00 0 
7f5e18507000-7f5e1c000000 ---p 00000000 00:00 0 
7f5e1c000000-7f5e1c3b9000 rw-p 00000000 00:00 0 
7f5e1c3b9000-7f5e20000000 ---p 00000000 00:00 0 
7f5e20000000-7f5e20021000 rw-p 00000000 00:00 0 
7f5e20021000-7f5e24000000 ---p 00000000 00:00 0 
7f5e27721000-7f5e27722000 r--s 00001000 fd:01 522405                     /opt/OpenbravoTablero/modules/org.openbravo.client.kernel/lib/runtime/jsmin.0.2.4.jar
7f5e27722000-7f5e2772e000 r--s 000ee000 fd:01 522406                     /opt/OpenbravoTablero/modules/org.openbravo.client.kernel/lib/runtime/jslint4java-1.4.7.jar
7f5e2772e000-7f5e27730000 r--s 00005000 fd:01 520712                     /opt/OpenbravoTablero/modules/org.openbravo.client.application/lib/runtime/httpmime-4.1.jar
7f5e27730000-7f5e27735000 r--s 00026000 fd:01 520714                     /opt/OpenbravoTablero/modules/org.openbravo.client.application/lib/runtime/httpcore-4.0.1.jar
7f5e27735000-7f5e2773c000 r--s 00040000 fd:01 520713                     /opt/OpenbravoTablero/modules/org.openbravo.client.application/lib/runtime/httpclient-4.0.jar
7f5e2773c000-7f5e2774a000 r--s 00099000 fd:01 520715                     /opt/OpenbravoTablero/modules/org.openbravo.client.application/lib/runtime/guice-2.0.jar
7f5e2774a000-7f5e2774e000 r--s 0000a000 fd:01 518216                     /opt/OpenbravoTablero/modules/org.openbravo.base.weld/lib/runtime/weld-spi.jar
7f5e2774e000-7f5e27751000 r--s 00011000 fd:01 518222                     /opt/OpenbravoTablero/modules/org.openbravo.base.weld/lib/runtime/weld-servlet-core-1.1.24.Final.jar
7f5e27751000-7f5e27763000 r--s 000ce000 fd:01 518212                     /opt/OpenbravoTablero/modules/org.openbravo.base.weld/lib/runtime/weld-core-1.1.24.Final.jar
7f5e27763000-7f5e27765000 r--s 00004000 fd:01 518213                     /opt/OpenbravoTablero/modules/org.openbravo.base.weld/lib/runtime/weld-api.jar
7f5e27765000-7f5e27767000 r--s 00009000 fd:01 518211                     /opt/OpenbravoTablero/modules/org.openbravo.base.weld/lib/runtime/slf4j-ext-1.6.1.jar
7f5e27767000-7f5e27768000 r--s 00001000 fd:01 518214                     /opt/OpenbravoTablero/modules/org.openbravo.base.weld/lib/runtime/jboss-interceptor-spi-2.0.0.CR1.jar
7f5e27768000-7f5e2776b000 r--s 0000c000 fd:01 518220                     /opt/OpenbravoTablero/modules/org.openbravo.base.weld/lib/runtime/jboss-interceptor-core-2.0.0.CR1.jar
7f5e2776b000-7f5e2776d000 r--s 00000000 fd:01 518210                     /opt/OpenbravoTablero/modules/org.openbravo.base.weld/lib/runtime/jboss-interceptor-api-3.1.0-CR3.jar
7f5e2776d000-7f5e2776e000 r--s 00000000 fd:01 518221                     /opt/OpenbravoTablero/modules/org.openbravo.base.weld/lib/runtime/javax.inject.jar
7f5e2776e000-7f5e27799000 r--s 001fc000 fd:01 518217                     /opt/OpenbravoTablero/modules/org.openbravo.base.weld/lib/runtime/guava-18.0.jar
7f5e27799000-7f5e2779c000 r--s 00006000 fd:01 518219                     /opt/OpenbravoTablero/modules/org.openbravo.base.weld/lib/runtime/ejb-api-3.0.jar
7f5e2779c000-7f5e2779f000 r--s 0000a000 fd:01 518218                     /opt/OpenbravoTablero/modules/org.openbravo.base.weld/lib/runtime/cdi-api.jar
7f5e2779f000-7f5e277a1000 r--s 00006000 fd:01 518215                     /opt/OpenbravoTablero/modules/org.openbravo.base.weld/lib/runtime/cal10n-api-0.7.4.jar
7f5e277a1000-7f5e277a2000 r--s 00006000 fd:01 522533                     /opt/OpenbravoTablero/modules/org.openbravo.apachejdbcconnectionpool/lib/runtime/tomcat-juli.jar
7f5e277a2000-7f5e277a4000 r--s 0001d000 fd:01 522532                     /opt/OpenbravoTablero/modules/org.openbravo.apachejdbcconnectionpool/lib/runtime/tomcat-jdbc.jar
7f5e277a4000-7f5e277b0000 r--s 00096000 fd:01 1076806                    /opt/OpenbravoTablero/modules/com.atrums.felectronica/lib/runtime/xmlsec-1.4.2-ADSI-1.1.jar
7f5e277b0000-7f5e277b3000 r--s 00018000 fd:01 1076805                    /opt/OpenbravoTablero/modules/com.atrums.felectronica/lib/runtime/xmlrpc-1.2-b1.jar
7f5e277b3000-7f5e277b4000 r--s 00007000 fd:01 1076804                    /opt/OpenbravoTablero/modules/com.atrums.felectronica/lib/runtime/xmlrpc-1.2-b1-applet.jar
7f5e277b4000-7f5e277b9000 r--s 0002d000 fd:01 1076795                    /opt/OpenbravoTablero/modules/com.atrums.felectronica/lib/runtime/bcmail-jdk15-140.jar
7f5e277b9000-7f5e277bc000 r--s 00014000 fd:01 1076794                    /opt/OpenbravoTablero/modules/com.atrums.felectronica/lib/runtime/barbecue-1.5-beta1.jar
7f5e277bc000-7f5e277c4000 r--s 0007a000 fd:01 1076803                    /opt/OpenbravoTablero/modules/com.atrums.felectronica/lib/runtime/MITyCLibXADES-1.1.7.jar
7f5e277c4000-7f5e277ca000 r--s 00047000 fd:01 1076801                    /opt/OpenbravoTablero/modules/com.atrums.felectronica/lib/runtime/MITyCLibTrust-1.1.7.jar
7f5e277ca000-7f5e277cb000 r--s 00011000 fd:01 1076802                    /opt/OpenbravoTablero/modules/com.atrums.felectronica/lib/runtime/MITyCLibTSA-1.1.7.jar
7f5e277cb000-7f5e277cd000 r--s 00019000 fd:01 1076800                    /opt/OpenbravoTablero/modules/com.atrums.felectronica/lib/runtime/MITyCLibPolicy-1.1.7.jar
7f5e277cd000-7f5e277cf000 r--s 0001c000 fd:01 1076799                    /opt/OpenbravoTablero/modules/com.atrums.felectronica/lib/runtime/MITyCLibOCSP-1.1.7.jar
7f5e277cf000-7f5e277d1000 r--s 0001f000 fd:01 1076798                    /opt/OpenbravoTablero/modules/com.atrums.felectronica/lib/runtime/MITyCLibCrypt-1.1.7.jar
7f5e277d1000-7f5e277d8000 r--s 0044c000 fd:01 1076797                    /opt/OpenbravoTablero/modules/com.atrums.felectronica/lib/runtime/MITyCLibCert-1.1.7.jar
7f5e277d8000-7f5e277dc000 r--s 00029000 fd:01 1076796                    /opt/OpenbravoTablero/modules/com.atrums.felectronica/lib/runtime/MITyCLibAPI-1.1.7.jar
7f5e277dc000-7f5e277e2000 r--s 0006e000 fd:01 278520                     /opt/OpenbravoTablero/src-db/database/lib/wstx-asl-3.0.2.jar
7f5e277e2000-7f5e277e4000 r--s 0000e000 fd:01 278521                     /opt/OpenbravoTablero/src-db/database/lib/jakarta-oro-2.0.8.jar
7f5e277e4000-7f5e277ef000 r--s 000b4000 fd:01 278518                     /opt/OpenbravoTablero/src-db/database/lib/dbsourcemanager.jar
7f5e277ef000-7f5e277f0000 r--s 00001000 fd:01 278522                     /opt/OpenbravoTablero/src-db/database/lib/dbmanager.jar
7f5e277f0000-7f5e277f6000 r--s 00036000 fd:01 278519                     /opt/OpenbravoTablero/src-db/database/lib/commons-betwixt-0.8.jar
7f5e277f6000-7f5e277fb000 r--s 00066000 fd:01 523757                     /opt/OpenbravoTablero/src-wad/lib/openbravo-wad.jar
7f5e277fb000-7f5e277fc000 r--s 00005000 fd:01 522897                     /opt/OpenbravoTablero/src-trl/lib/openbravo-trl.jar
7f5e277fc000-7f5e27800000 r--s 0003d000 fd:01 516417                     /opt/OpenbravoTablero/src-core/lib/openbravo-core.jar
7f5e27800000-7f5e27806000 r--s 00036000 fd:01 276925                     /opt/OpenbravoTablero/lib/test/junit.jar
7f5e27806000-7f5e2780c000 r--s 00045000 fd:01 276926                     /opt/OpenbravoTablero/lib/test/hamcrest-all-1.3.jar
7f5e2780c000-7f5e27817000 r--s 0005f000 fd:01 276970                     /opt/OpenbravoTablero/lib/runtime/xstream-1.3.1.jar
7f5e27817000-7f5e27821000 r--s 00089000 fd:01 276977                     /opt/OpenbravoTablero/lib/runtime/xmlgraphics-commons-1.5.jar
7f5e27821000-7f5e27838000 r--s 00114000 fd:01 276929                     /opt/OpenbravoTablero/lib/runtime/xercesImpl.jar
7f5e27838000-7f5e2783b000 r--s 0001c000 fd:01 276992                     /opt/OpenbravoTablero/lib/runtime/wsdl4j-1.5.1.jar
7f5e2783b000-7f5e27841000 r--s 0004b000 fd:01 276945                     /opt/OpenbravoTablero/lib/runtime/tika-core-0.9.jar
7f5e27841000-7f5e27842000 r--s 00002000 fd:01 276950                     /opt/OpenbravoTablero/lib/runtime/slf4j-log4j12-1.6.1.jar
7f5e27842000-7f5e27844000 r--s 00005000 fd:01 276960                     /opt/OpenbravoTablero/lib/runtime/slf4j-api-1.6.1.jar
7f5e27844000-7f5e27845000 r--s 00001000 fd:01 276954                     /opt/OpenbravoTablero/lib/runtime/renderFoRmi.jar
7f5e27845000-7f5e2784b000 r--s 00067000 fd:01 276989                     /opt/OpenbravoTablero/lib/runtime/quartz-1.6.2.jar
7f5e2784b000-7f5e27852000 r--s 0008e000 fd:01 276936                     /opt/OpenbravoTablero/lib/runtime/postgresql-9.4.1207.jre6.jar
7f5e27852000-7f5e27873000 r--s 001bb000 fd:01 276988                     /opt/OpenbravoTablero/lib/runtime/poi-3.10.1.jar
7f5e27873000-7f5e27877000 r--s 0003d000 fd:01 276967                     /opt/OpenbravoTablero/lib/runtime/openbravo-core.jar
7f5e27877000-7f5e27889000 r--s 001fc000 fd:01 276962                     /opt/OpenbravoTablero/lib/runtime/ojdbc6.jar
7f5e27889000-7f5e2788b000 r--s 00018000 fd:01 276976                     /opt/OpenbravoTablero/lib/runtime/nekohtml.jar
7f5e2788b000-7f5e27892000 r--s 00072000 fd:01 276938                     /opt/OpenbravoTablero/lib/runtime/mail-1.4.4.jar
7f5e27892000-7f5e2789b000 r--s 0006d000 fd:01 276986                     /opt/OpenbravoTablero/lib/runtime/log4j-1.2.16.jar
7f5e2789b000-7f5e278a7000 r--s 000aa000 fd:01 276965                     /opt/OpenbravoTablero/lib/runtime/jxl-2.6.10.jar
7f5e278a7000-7f5e278a9000 r--s 00001000 fd:01 276949                     /opt/OpenbravoTablero/lib/runtime/jta.jar
7f5e278a9000-7f5e278b9000 r--s 0013f000 fd:01 276933                     /opt/OpenbravoTablero/lib/runtime/jfreechart-1.0.12.jar
7f5e278b9000-7f5e278bb000 r--s 00010000 fd:01 276951                     /opt/OpenbravoTablero/lib/runtime/jettison-1.3.jar
7f5e278bb000-7f5e278cd000 r--s 00223000 fd:01 276971                     /opt/OpenbravoTablero/lib/runtime/jdt-compiler-4.4.2.jar
7f5e278cd000-7f5e278d3000 r--s 00046000 fd:01 276952                     /opt/OpenbravoTablero/lib/runtime/jcommon-1.0.15.jar
7f5e278d3000-7f5e278d5000 r--s 00006000 fd:01 276996                     /opt/OpenbravoTablero/lib/runtime/jaxrpc.jar
7f5e278d5000-7f5e278de000 r--s 00095000 fd:01 276953                     /opt/OpenbravoTablero/lib/runtime/javassist-3.14.0-GA.jar
7f5e278de000-7f5e278e0000 r--s 0025c000 fd:01 276930                     /opt/OpenbravoTablero/lib/runtime/jasperreports-fonts-6.0.0.jar
7f5e278e0000-7f5e2793c000 r--s 0048c000 fd:01 276937                     /opt/OpenbravoTablero/lib/runtime/jasperreports-6.0.0.jar
7f5e2793c000-7f5e2794e000 r--s 00105000 fd:01 276987                     /opt/OpenbravoTablero/lib/runtime/jackson-databind-2.5.1.jar
7f5e2794e000-7f5e27952000 r--s 00035000 fd:01 276966                     /opt/OpenbravoTablero/lib/runtime/jackson-core-2.5.1.jar
7f5e27952000-7f5e27954000 r--s 00008000 fd:01 276981                     /opt/OpenbravoTablero/lib/runtime/jackson-annotations-2.5.1.jar
7f5e27954000-7f5e2796a000 r--s 001ef000 fd:01 276956                     /opt/OpenbravoTablero/lib/runtime/itextpdf-5.5.0.jar
7f5e2796a000-7f5e2796c000 r--s 0000c000 fd:01 276955                     /opt/OpenbravoTablero/lib/runtime/itext-pdfa-5.5.0.jar
7f5e2796c000-7f5e27978000 r--s 00108000 fd:01 276978                     /opt/OpenbravoTablero/lib/runtime/iText-2.1.7.jar
7f5e27978000-7f5e279c0000 r--s 003aa000 fd:01 276946                     /opt/OpenbravoTablero/lib/runtime/hibernate3-patched.jar
7f5e279c0000-7f5e279c5000 r--s 00014000 fd:01 276984                     /opt/OpenbravoTablero/lib/runtime/hibernate-jpa-2.0-api-1.0.0.Final.jar
7f5e279c5000-7f5e279d5000 r--s 000c8000 fd:01 276932                     /opt/OpenbravoTablero/lib/runtime/freemarker-2.3.16.jar
7f5e279d5000-7f5e27a0e000 r--s 00329000 fd:01 276998                     /opt/OpenbravoTablero/lib/runtime/fop-1.1.jar
7f5e27a0e000-7f5e27a13000 r--s 00048000 fd:01 276974                     /opt/OpenbravoTablero/lib/runtime/dom4j-1.6.1.jar
7f5e27a13000-7f5e27a16000 r--s 00016000 fd:01 276959                     /opt/OpenbravoTablero/lib/runtime/commons-pool-1.5.6.jar
7f5e27a16000-7f5e27a18000 r--s 0000d000 fd:01 276935                     /opt/OpenbravoTablero/lib/runtime/commons-logging-1.1.1.jar
7f5e27a18000-7f5e27a1d000 r--s 00041000 fd:01 276993                     /opt/OpenbravoTablero/lib/runtime/commons-lang-2.6.jar
7f5e27a1d000-7f5e27a21000 r--s 0002a000 fd:01 276973                     /opt/OpenbravoTablero/lib/runtime/commons-io-2.4.jar
7f5e27a21000-7f5e27a23000 r--s 0000d000 fd:01 276958                     /opt/OpenbravoTablero/lib/runtime/commons-fileupload-1.2.2.jar
7f5e27a23000-7f5e27a26000 r--s 0000f000 fd:01 276972                     /opt/OpenbravoTablero/lib/runtime/commons-discovery-0.2.jar
7f5e27a26000-7f5e27a2a000 r--s 00020000 fd:01 276995                     /opt/OpenbravoTablero/lib/runtime/commons-digester-1.8.1.jar
7f5e27a2a000-7f5e27a2d000 r--s 00025000 fd:01 276982                     /opt/OpenbravoTablero/lib/runtime/commons-dbcp-1.4.jar
7f5e27a2d000-7f5e27a3b000 r--s 0007f000 fd:01 276944                     /opt/OpenbravoTablero/lib/runtime/commons-collections-3.2.1.jar
7f5e27a3b000-7f5e27a3d000 r--s 00010000 fd:01 276994                     /opt/OpenbravoTablero/lib/runtime/commons-codec-1.5.jar
7f5e27a3d000-7f5e27a42000 r--s 00034000 fd:01 276979                     /opt/OpenbravoTablero/lib/runtime/commons-beanutils-1.8.3.jar
7f5e27a42000-7f5e27a44000 r--s 00005000 fd:01 276941                     /opt/OpenbravoTablero/lib/runtime/catalina-ant.jar
7f5e27a44000-7f5e27a45000 r--s 00007000 fd:01 276990                     /opt/OpenbravoTablero/lib/runtime/batik-xml.jar
7f5e27a45000-7f5e27a48000 r--s 0001d000 fd:01 276969                     /opt/OpenbravoTablero/lib/runtime/batik-util.jar
7f5e27a48000-7f5e27a4d000 r--s 00030000 fd:01 276980                     /opt/OpenbravoTablero/lib/runtime/batik-svggen.jar
7f5e27a4d000-7f5e27a5a000 r--s 00087000 fd:01 276975                     /opt/OpenbravoTablero/lib/runtime/batik-svg-dom.jar
7f5e27a5a000-7f5e27a5d000 r--s 0000d000 fd:01 276943                     /opt/OpenbravoTablero/lib/runtime/batik-script.jar
7f5e27a5d000-7f5e27a5f000 r--s 00010000 fd:01 276983                     /opt/OpenbravoTablero/lib/runtime/batik-parser.jar
7f5e27a5f000-7f5e27a63000 r--s 00038000 fd:01 276963                     /opt/OpenbravoTablero/lib/runtime/batik-gvt.jar
7f5e27a63000-7f5e27a67000 r--s 00027000 fd:01 276942                     /opt/OpenbravoTablero/lib/runtime/batik-dom.jar
7f5e27a67000-7f5e27a6f000 r--s 00045000 fd:01 276940                     /opt/OpenbravoTablero/lib/runtime/batik-css.jar
7f5e27a6f000-7f5e27a79000 r--s 00080000 fd:01 276968                     /opt/OpenbravoTablero/lib/runtime/batik-bridge.jar
7f5e27a79000-7f5e27a80000 r--s 0005c000 fd:01 276997                     /opt/OpenbravoTablero/lib/runtime/batik-awt-util.jar
7f5e27a80000-7f5e27a83000 r--s 00015000 fd:01 276928                     /opt/OpenbravoTablero/lib/runtime/batik-anim.jar
7f5e27a83000-7f5e27a89000 r--s 00043000 fd:01 276957                     /opt/OpenbravoTablero/lib/runtime/barcode4j-fop-ext-complete.jar
7f5e27a89000-7f5e27a9d000 r--s 00173000 fd:01 276985                     /opt/OpenbravoTablero/lib/runtime/axis.jar
7f5e27a9d000-7f5e27a9f000 r--s 00007000 fd:01 276964                     /opt/OpenbravoTablero/lib/runtime/axis-ant.jar
7f5e27a9f000-7f5e27aa2000 r--s 0000f000 fd:01 276947                     /opt/OpenbravoTablero/lib/runtime/avalon-framework-4.1.5.jar
7f5e27aa2000-7f5e27aa7000 r--s 00068000 fd:01 276934                     /opt/OpenbravoTablero/lib/runtime/antlr-2.7.7.jar
7f5e27aa7000-7f5e27ac5000 r--s 001cb000 fd:01 276939                     /opt/OpenbravoTablero/lib/runtime/ant-1.9.2.jar
7f5e27ac5000-7f5e27ace000 r--s 000c7000 fd:01 276919                     /opt/OpenbravoTablero/lib/build/yuicompressor-2.4.2.jar
7f5e27ace000-7f5e27ad7000 r--s 000be000 fd:01 276922                     /opt/OpenbravoTablero/lib/build/ob-rhino-1.6R7.jar
7f5e27ad7000-7f5e27ae0000 r--s 000cc000 fd:01 276921                     /opt/OpenbravoTablero/lib/build/js.jar
7f5e27ae0000-7f5e27afb000 r--s 00394000 fd:01 785206                     /usr/lib/jvm/java-8-openjdk-amd64/jre/lib/ext/cldrdata.jar
7f5e27afb000-7f5e27afc000 ---p 00000000 00:00 0 
7f5e27afc000-7f5e27bfc000 rw-p 00000000 00:00 0 
7f5e27bfc000-7f5e27bff000 ---p 00000000 00:00 0 
7f5e27bff000-7f5e27cfd000 rw-p 00000000 00:00 0 
7f5e27cfd000-7f5e27d00000 ---p 00000000 00:00 0 
7f5e27d00000-7f5e27dfe000 rw-p 00000000 00:00 0 
7f5e27dfe000-7f5e27e01000 ---p 00000000 00:00 0 
7f5e27e01000-7f5e27eff000 rw-p 00000000 00:00 0 
7f5e27eff000-7f5e27f02000 ---p 00000000 00:00 0 
7f5e27f02000-7f5e28000000 rw-p 00000000 00:00 0 
7f5e28000000-7f5e28021000 rw-p 00000000 00:00 0 
7f5e28021000-7f5e2c000000 ---p 00000000 00:00 0 
7f5e2c000000-7f5e2c021000 rw-p 00000000 00:00 0 
7f5e2c021000-7f5e30000000 ---p 00000000 00:00 0 
7f5e30000000-7f5e30021000 rw-p 00000000 00:00 0 
7f5e30021000-7f5e34000000 ---p 00000000 00:00 0 
7f5e34000000-7f5e34021000 rw-p 00000000 00:00 0 
7f5e34021000-7f5e38000000 ---p 00000000 00:00 0 
7f5e38000000-7f5e38021000 rw-p 00000000 00:00 0 
7f5e38021000-7f5e3c000000 ---p 00000000 00:00 0 
7f5e3c000000-7f5e3c008000 r--s 00063000 fd:01 276948                     /opt/OpenbravoTablero/lib/runtime/ant-nodeps.jar
7f5e3c008000-7f5e3c023000 r--s 001d6000 fd:01 785208                     /usr/lib/jvm/java-8-openjdk-amd64/jre/lib/ext/nashorn.jar
7f5e3c023000-7f5e3c1bb000 r--p 00000000 fd:01 2061                       /usr/lib/locale/locale-archive
7f5e3c1bb000-7f5e3c1be000 ---p 00000000 00:00 0 
7f5e3c1be000-7f5e3c2bc000 rw-p 00000000 00:00 0 
7f5e3c2bc000-7f5e3c2bf000 ---p 00000000 00:00 0 
7f5e3c2bf000-7f5e3c3bd000 rw-p 00000000 00:00 0 
7f5e3c3bd000-7f5e3c3be000 ---p 00000000 00:00 0 
7f5e3c3be000-7f5e3ce2a000 rw-p 00000000 00:00 0 
7f5e3ce2a000-7f5e3cff9000 r--s 03c21000 fd:01 533088                     /usr/lib/jvm/java-8-openjdk-amd64/jre/lib/rt.jar
7f5e3cff9000-7f5e3d7ef000 rw-p 00000000 00:00 0 
7f5e3d7ef000-7f5e3d86f000 ---p 00000000 00:00 0 
7f5e3d86f000-7f5e3fa6f000 rw-p 00000000 00:00 0 
7f5e3fa6f000-7f5e3fa70000 ---p 00000000 00:00 0 
7f5e3fa70000-7f5e3fb70000 rw-p 00000000 00:00 0 
7f5e3fb70000-7f5e3fb71000 ---p 00000000 00:00 0 
7f5e3fb71000-7f5e3fc81000 rw-p 00000000 00:00 0 
7f5e3fc81000-7f5e3fdc7000 ---p 00000000 00:00 0 
7f5e3fdc7000-7f5e3fdd7000 rw-p 00000000 00:00 0 
7f5e3fdd7000-7f5e3ff1c000 ---p 00000000 00:00 0 
7f5e3ff1c000-7f5e3ff26000 rw-p 00000000 00:00 0 
7f5e3ff26000-7f5e3ffc7000 ---p 00000000 00:00 0 
7f5e3ffc7000-7f5e3ffd9000 rw-p 00000000 00:00 0 
7f5e3ffd9000-7f5e40388000 ---p 00000000 00:00 0 
7f5e40388000-7f5e40798000 rwxp 00000000 00:00 0 
7f5e40798000-7f5e4f388000 ---p 00000000 00:00 0 
7f5e4f388000-7f5e4f390000 r-xp 00000000 fd:01 785239                     /usr/lib/jvm/java-8-openjdk-amd64/jre/lib/amd64/libzip.so
7f5e4f390000-7f5e4f58f000 ---p 00008000 fd:01 785239                     /usr/lib/jvm/java-8-openjdk-amd64/jre/lib/amd64/libzip.so
7f5e4f58f000-7f5e4f590000 r--p 00007000 fd:01 785239                     /usr/lib/jvm/java-8-openjdk-amd64/jre/lib/amd64/libzip.so
7f5e4f590000-7f5e4f591000 rw-p 00008000 fd:01 785239                     /usr/lib/jvm/java-8-openjdk-amd64/jre/lib/amd64/libzip.so
7f5e4f591000-7f5e4f59c000 r-xp 00000000 fd:01 21329                      /lib/x86_64-linux-gnu/libnss_files-2.23.so
7f5e4f59c000-7f5e4f79b000 ---p 0000b000 fd:01 21329                      /lib/x86_64-linux-gnu/libnss_files-2.23.so
7f5e4f79b000-7f5e4f79c000 r--p 0000a000 fd:01 21329                      /lib/x86_64-linux-gnu/libnss_files-2.23.so
7f5e4f79c000-7f5e4f79d000 rw-p 0000b000 fd:01 21329                      /lib/x86_64-linux-gnu/libnss_files-2.23.so
7f5e4f79d000-7f5e4f7a3000 rw-p 00000000 00:00 0 
7f5e4f7a3000-7f5e4f7ae000 r-xp 00000000 fd:01 21341                      /lib/x86_64-linux-gnu/libnss_nis-2.23.so
7f5e4f7ae000-7f5e4f9ad000 ---p 0000b000 fd:01 21341                      /lib/x86_64-linux-gnu/libnss_nis-2.23.so
7f5e4f9ad000-7f5e4f9ae000 r--p 0000a000 fd:01 21341                      /lib/x86_64-linux-gnu/libnss_nis-2.23.so
7f5e4f9ae000-7f5e4f9af000 rw-p 0000b000 fd:01 21341                      /lib/x86_64-linux-gnu/libnss_nis-2.23.so
7f5e4f9af000-7f5e4f9c5000 r-xp 00000000 fd:01 21246                      /lib/x86_64-linux-gnu/libnsl-2.23.so
7f5e4f9c5000-7f5e4fbc4000 ---p 00016000 fd:01 21246                      /lib/x86_64-linux-gnu/libnsl-2.23.so
7f5e4fbc4000-7f5e4fbc5000 r--p 00015000 fd:01 21246                      /lib/x86_64-linux-gnu/libnsl-2.23.so
7f5e4fbc5000-7f5e4fbc6000 rw-p 00016000 fd:01 21246                      /lib/x86_64-linux-gnu/libnsl-2.23.so
7f5e4fbc6000-7f5e4fbc8000 rw-p 00000000 00:00 0 
7f5e4fbc8000-7f5e4fbd0000 r-xp 00000000 fd:01 21298                      /lib/x86_64-linux-gnu/libnss_compat-2.23.so
7f5e4fbd0000-7f5e4fdcf000 ---p 00008000 fd:01 21298                      /lib/x86_64-linux-gnu/libnss_compat-2.23.so
7f5e4fdcf000-7f5e4fdd0000 r--p 00007000 fd:01 21298                      /lib/x86_64-linux-gnu/libnss_compat-2.23.so
7f5e4fdd0000-7f5e4fdd1000 rw-p 00008000 fd:01 21298                      /lib/x86_64-linux-gnu/libnss_compat-2.23.so
7f5e4fdd1000-7f5e4fdfe000 r-xp 00000000 fd:01 785224                     /usr/lib/jvm/java-8-openjdk-amd64/jre/lib/amd64/libjava.so
7f5e4fdfe000-7f5e4fffd000 ---p 0002d000 fd:01 785224                     /usr/lib/jvm/java-8-openjdk-amd64/jre/lib/amd64/libjava.so
7f5e4fffd000-7f5e4fffe000 r--p 0002c000 fd:01 785224                     /usr/lib/jvm/java-8-openjdk-amd64/jre/lib/amd64/libjava.so
7f5e4fffe000-7f5e50000000 rw-p 0002d000 fd:01 785224                     /usr/lib/jvm/java-8-openjdk-amd64/jre/lib/amd64/libjava.so
7f5e50000000-7f5e507e9000 rw-p 00000000 00:00 0 
7f5e507e9000-7f5e54000000 ---p 00000000 00:00 0 
7f5e54000000-7f5e54001000 r--s 00002000 fd:01 276961                     /opt/OpenbravoTablero/lib/runtime/batik-ext.jar
7f5e54001000-7f5e54002000 r--s 00004000 fd:01 276931                     /opt/OpenbravoTablero/lib/runtime/ant-launcher-1.9.2.jar
7f5e54002000-7f5e54004000 r--s 00001000 fd:01 276991                     /opt/OpenbravoTablero/lib/runtime/ant-apache-log4j-1.9.2.jar
7f5e54004000-7f5e54006000 r--s 00014000 fd:01 276920                     /opt/OpenbravoTablero/lib/build/servlet-api.jar
7f5e54006000-7f5e5400c000 r--s 0003a000 fd:01 785209                     /usr/lib/jvm/java-8-openjdk-amd64/jre/lib/ext/sunjce_provider.jar
7f5e5400c000-7f5e54016000 r--s 00116000 fd:01 785211                     /usr/lib/jvm/java-8-openjdk-amd64/jre/lib/ext/localedata.jar
7f5e54016000-7f5e5401a000 r--s 00037000 fd:01 785212                     /usr/lib/jvm/java-8-openjdk-amd64/jre/lib/ext/sunpkcs11.jar
7f5e5401a000-7f5e54029000 r-xp 00000000 fd:01 785237                     /usr/lib/jvm/java-8-openjdk-amd64/jre/lib/amd64/libverify.so
7f5e54029000-7f5e54228000 ---p 0000f000 fd:01 785237                     /usr/lib/jvm/java-8-openjdk-amd64/jre/lib/amd64/libverify.so
7f5e54228000-7f5e5422a000 r--p 0000e000 fd:01 785237                     /usr/lib/jvm/java-8-openjdk-amd64/jre/lib/amd64/libverify.so
7f5e5422a000-7f5e5422b000 rw-p 00010000 fd:01 785237                     /usr/lib/jvm/java-8-openjdk-amd64/jre/lib/amd64/libverify.so
7f5e5422b000-7f5e54232000 r-xp 00000000 fd:01 21343                      /lib/x86_64-linux-gnu/librt-2.23.so
7f5e54232000-7f5e54431000 ---p 00007000 fd:01 21343                      /lib/x86_64-linux-gnu/librt-2.23.so
7f5e54431000-7f5e54432000 r--p 00006000 fd:01 21343                      /lib/x86_64-linux-gnu/librt-2.23.so
7f5e54432000-7f5e54433000 rw-p 00007000 fd:01 21343                      /lib/x86_64-linux-gnu/librt-2.23.so
7f5e54433000-7f5e54449000 r-xp 00000000 fd:01 2039                       /lib/x86_64-linux-gnu/libgcc_s.so.1
7f5e54449000-7f5e54648000 ---p 00016000 fd:01 2039                       /lib/x86_64-linux-gnu/libgcc_s.so.1
7f5e54648000-7f5e54649000 rw-p 00015000 fd:01 2039                       /lib/x86_64-linux-gnu/libgcc_s.so.1
7f5e54649000-7f5e54751000 r-xp 00000000 fd:01 21243                      /lib/x86_64-linux-gnu/libm-2.23.so
7f5e54751000-7f5e54950000 ---p 00108000 fd:01 21243                      /lib/x86_64-linux-gnu/libm-2.23.so
7f5e54950000-7f5e54951000 r--p 00107000 fd:01 21243                      /lib/x86_64-linux-gnu/libm-2.23.so
7f5e54951000-7f5e54952000 rw-p 00108000 fd:01 21243                      /lib/x86_64-linux-gnu/libm-2.23.so
7f5e54952000-7f5e54ac4000 r-xp 00000000 fd:01 25804                      /usr/lib/x86_64-linux-gnu/libstdc++.so.6.0.21
7f5e54ac4000-7f5e54cc4000 ---p 00172000 fd:01 25804                      /usr/lib/x86_64-linux-gnu/libstdc++.so.6.0.21
7f5e54cc4000-7f5e54cce000 r--p 00172000 fd:01 25804                      /usr/lib/x86_64-linux-gnu/libstdc++.so.6.0.21
7f5e54cce000-7f5e54cd0000 rw-p 0017c000 fd:01 25804                      /usr/lib/x86_64-linux-gnu/libstdc++.so.6.0.21
7f5e54cd0000-7f5e54cd4000 rw-p 00000000 00:00 0 
7f5e54cd4000-7f5e55926000 r-xp 00000000 fd:01 1046829                    /usr/lib/jvm/java-8-openjdk-amd64/jre/lib/amd64/server/libjvm.so
7f5e55926000-7f5e55b26000 ---p 00c52000 fd:01 1046829                    /usr/lib/jvm/java-8-openjdk-amd64/jre/lib/amd64/server/libjvm.so
7f5e55b26000-7f5e55bb9000 r--p 00c52000 fd:01 1046829                    /usr/lib/jvm/java-8-openjdk-amd64/jre/lib/amd64/server/libjvm.so
7f5e55bb9000-7f5e55be2000 rw-p 00ce5000 fd:01 1046829                    /usr/lib/jvm/java-8-openjdk-amd64/jre/lib/amd64/server/libjvm.so
7f5e55be2000-7f5e55c12000 rw-p 00000000 00:00 0 
7f5e55c12000-7f5e55c2a000 r-xp 00000000 fd:01 21248                      /lib/x86_64-linux-gnu/libpthread-2.23.so
7f5e55c2a000-7f5e55e29000 ---p 00018000 fd:01 21248                      /lib/x86_64-linux-gnu/libpthread-2.23.so
7f5e55e29000-7f5e55e2a000 r--p 00017000 fd:01 21248                      /lib/x86_64-linux-gnu/libpthread-2.23.so
7f5e55e2a000-7f5e55e2b000 rw-p 00018000 fd:01 21248                      /lib/x86_64-linux-gnu/libpthread-2.23.so
7f5e55e2b000-7f5e55e2f000 rw-p 00000000 00:00 0 
7f5e55e2f000-7f5e55e32000 r-xp 00000000 fd:01 21251                      /lib/x86_64-linux-gnu/libdl-2.23.so
7f5e55e32000-7f5e56031000 ---p 00003000 fd:01 21251                      /lib/x86_64-linux-gnu/libdl-2.23.so
7f5e56031000-7f5e56032000 r--p 00002000 fd:01 21251                      /lib/x86_64-linux-gnu/libdl-2.23.so
7f5e56032000-7f5e56033000 rw-p 00003000 fd:01 21251                      /lib/x86_64-linux-gnu/libdl-2.23.so
7f5e56033000-7f5e5604c000 r-xp 00000000 fd:01 2193                       /lib/x86_64-linux-gnu/libz.so.1.2.8
7f5e5604c000-7f5e5624b000 ---p 00019000 fd:01 2193                       /lib/x86_64-linux-gnu/libz.so.1.2.8
7f5e5624b000-7f5e5624c000 r--p 00018000 fd:01 2193                       /lib/x86_64-linux-gnu/libz.so.1.2.8
7f5e5624c000-7f5e5624d000 rw-p 00019000 fd:01 2193                       /lib/x86_64-linux-gnu/libz.so.1.2.8
7f5e5624d000-7f5e5640d000 r-xp 00000000 fd:01 21249                      /lib/x86_64-linux-gnu/libc-2.23.so
7f5e5640d000-7f5e5660d000 ---p 001c0000 fd:01 21249                      /lib/x86_64-linux-gnu/libc-2.23.so
7f5e5660d000-7f5e56611000 r--p 001c0000 fd:01 21249                      /lib/x86_64-linux-gnu/libc-2.23.so
7f5e56611000-7f5e56613000 rw-p 001c4000 fd:01 21249                      /lib/x86_64-linux-gnu/libc-2.23.so
7f5e56613000-7f5e56617000 rw-p 00000000 00:00 0 
7f5e56617000-7f5e56624000 r-xp 00000000 fd:01 785235                     /usr/lib/jvm/java-8-openjdk-amd64/jre/lib/amd64/jli/libjli.so
7f5e56624000-7f5e56824000 ---p 0000d000 fd:01 785235                     /usr/lib/jvm/java-8-openjdk-amd64/jre/lib/amd64/jli/libjli.so
7f5e56824000-7f5e56825000 r--p 0000d000 fd:01 785235                     /usr/lib/jvm/java-8-openjdk-amd64/jre/lib/amd64/jli/libjli.so
7f5e56825000-7f5e56826000 rw-p 0000e000 fd:01 785235                     /usr/lib/jvm/java-8-openjdk-amd64/jre/lib/amd64/jli/libjli.so
7f5e56826000-7f5e5684c000 r-xp 00000000 fd:01 21247                      /lib/x86_64-linux-gnu/ld-2.23.so
7f5e5684c000-7f5e5684e000 r--s 00001000 fd:01 785214                     /usr/lib/jvm/java-8-openjdk-amd64/jre/lib/ext/dnsns.jar
7f5e5684e000-7f5e56850000 r--s 00008000 fd:01 785210                     /usr/lib/jvm/java-8-openjdk-amd64/jre/lib/ext/sunec.jar
7f5e56850000-7f5e56935000 rw-p 00000000 00:00 0 
7f5e56935000-7f5e5693d000 rw-s 00000000 fd:01 2470                       /tmp/hsperfdata_root/29214
7f5e5693d000-7f5e56940000 ---p 00000000 00:00 0 
7f5e56940000-7f5e56a42000 rw-p 00000000 00:00 0 
7f5e56a42000-7f5e56a43000 r--s 00001000 fd:01 276918                     /opt/OpenbravoTablero/lib/build/YUIAnt.jar
7f5e56a43000-7f5e56a44000 r--s 00010000 fd:01 785207                     /usr/lib/jvm/java-8-openjdk-amd64/jre/lib/ext/zipfs.jar
7f5e56a44000-7f5e56a47000 r--s 0000f000 fd:01 785205                     /usr/lib/jvm/java-8-openjdk-amd64/jre/lib/ext/icedtea-sound.jar
7f5e56a47000-7f5e56a48000 r--s 0000a000 fd:01 785213                     /usr/lib/jvm/java-8-openjdk-amd64/jre/lib/ext/jaccess.jar
7f5e56a48000-7f5e56a49000 rw-p 00000000 00:00 0 
7f5e56a49000-7f5e56a4a000 ---p 00000000 00:00 0 
7f5e56a4a000-7f5e56a4b000 rw-p 00000000 00:00 0 
7f5e56a4b000-7f5e56a4c000 r--p 00025000 fd:01 21247                      /lib/x86_64-linux-gnu/ld-2.23.so
7f5e56a4c000-7f5e56a4d000 rw-p 00026000 fd:01 21247                      /lib/x86_64-linux-gnu/ld-2.23.so
7f5e56a4d000-7f5e56a4e000 rw-p 00000000 00:00 0 
7ffd38321000-7ffd38345000 rw-p 00000000 00:00 0                          [stack]
7ffd383ea000-7ffd383ed000 r--p 00000000 00:00 0                          [vvar]
7ffd383ed000-7ffd383ef000 r-xp 00000000 00:00 0                          [vdso]
ffffffffff600000-ffffffffff601000 r-xp 00000000 00:00 0                  [vsyscall]

VM Arguments:
jvm_args: -Xmx1024M 
java_command: org.openbravo.base.gen.GenerateEntitiesTask /opt/OpenbravoTablero/src false
java_class_path (initial): /opt/OpenbravoTablero/modules/org.openbravo.advpaymentmngt/build/classes:/opt/OpenbravoTablero/modules/org.openbravo.advpaymentmngt/build/classes/org:/opt/OpenbravoTablero/modules/org.openbravo.advpaymentmngt/build/classes/org/openbravo:/opt/OpenbravoTablero/modules/org.openbravo.advpaymentmngt/build/classes/org/openbravo/advpaymentmngt:/opt/OpenbravoTablero/modules/org.openbravo.advpaymentmngt/build/classes/org/openbravo/advpaymentmngt/buildvalidation:/opt/OpenbravoTablero/modules/org.openbravo.advpaymentmngt/build/classes/org/openbravo/advpaymentmngt/modulescript:/opt/OpenbravoTablero/modules/org.openbravo.userinterface.selector/build/classes:/opt/OpenbravoTablero/modules/org.openbravo.userinterface.selector/build/classes/org:/opt/OpenbravoTablero/modules/org.openbravo.userinterface.selector/build/classes/org/openbravo:/opt/OpenbravoTablero/modules/org.openbravo.userinterface.selector/build/classes/org/openbravo/userinterface:/opt/OpenbravoTablero/modules/org.openbravo.userinterface.selector/build/classes/org/openbravo/userinterface/selector:/opt/OpenbravoTablero/modules/org.openbravo.userinterface.skin.250to300Comp/build/classes:/opt/OpenbravoTablero/modules/org.openbravo.userinterface.skin.250to300Comp/build/classes/org:/opt/OpenbravoTablero/modules/org.openbravo.userinterface.skin.250to300Comp/build/classes/org/openbravo:/opt/OpenbravoTablero/modules/org.openbravo.userinterface.skin.250to300Comp/build/classes/org/openbravo/userinterface:/opt/OpenbravoTablero/modules/org.openbravo.userinterface.skin.250to300Comp/build/classes/org/openbravo/userinterface/skin:/opt/OpenbravoTablero/modules/org.openbravo.userinterface.skin.250to300Comp/build/classes/org/openbravo/userinterface/skin/s250to300Comp:/opt/OpenbravoTablero/modules/org.openbravo.userinterface.skin.250to300Comp/build/classes/org/openbravo/userinterface/skin/s250to300Comp/modulescript:/opt/OpenbravoTablero/modules/org.openbravo.v3.datasets/build/classes:/opt/OpenbravoTablero/mod
Launcher Type: SUN_STANDARD

Environment Variables:
JAVA_HOME=/usr/lib/jvm/java-8-openjdk-amd64
PATH=/usr/local/sbin:/usr/local/bin:/usr/sbin:/usr/bin:/sbin:/bin:/usr/games:/usr/local/games:/snap/bin
SHELL=/bin/bash

Signal Handlers:
SIGSEGV: [libjvm.so+0xa69040], sa_mask[0]=11111111011111111101111111111110, sa_flags=SA_RESTART|SA_SIGINFO
SIGBUS: [libjvm.so+0xa69040], sa_mask[0]=11111111011111111101111111111110, sa_flags=SA_RESTART|SA_SIGINFO
SIGFPE: [libjvm.so+0x8b2170], sa_mask[0]=11111111011111111101111111111110, sa_flags=SA_RESTART|SA_SIGINFO
SIGPIPE: [libjvm.so+0x8b2170], sa_mask[0]=11111111011111111101111111111110, sa_flags=SA_RESTART|SA_SIGINFO
SIGXFSZ: [libjvm.so+0x8b2170], sa_mask[0]=11111111011111111101111111111110, sa_flags=SA_RESTART|SA_SIGINFO
SIGILL: [libjvm.so+0x8b2170], sa_mask[0]=11111111011111111101111111111110, sa_flags=SA_RESTART|SA_SIGINFO
SIGUSR1: SIG_DFL, sa_mask[0]=00000000000000000000000000000000, sa_flags=none
SIGUSR2: [libjvm.so+0x8b2020], sa_mask[0]=00100000000000000000000000000000, sa_flags=SA_RESTART|SA_SIGINFO
SIGHUP: [libjvm.so+0x8b24f0], sa_mask[0]=11111111011111111101111111111110, sa_flags=SA_RESTART|SA_SIGINFO
SIGINT: [libjvm.so+0x8b24f0], sa_mask[0]=11111111011111111101111111111110, sa_flags=SA_RESTART|SA_SIGINFO
SIGTERM: [libjvm.so+0x8b24f0], sa_mask[0]=11111111011111111101111111111110, sa_flags=SA_RESTART|SA_SIGINFO
SIGQUIT: [libjvm.so+0x8b24f0], sa_mask[0]=11111111011111111101111111111110, sa_flags=SA_RESTART|SA_SIGINFO


---------------  S Y S T E M  ---------------

OS:DISTRIB_ID=Ubuntu
DISTRIB_RELEASE=16.04
DISTRIB_CODENAME=xenial
DISTRIB_DESCRIPTION="Ubuntu 16.04.3 LTS"

uname:Linux 4.4.0-112-generic #135-Ubuntu SMP Fri Jan 19 11:48:36 UTC 2018 x86_64
libc:glibc 2.23 NPTL 2.23 
rlimit: STACK 8192k, CORE 0k, NPROC 11959, NOFILE 1048576, AS infinity
load average:1.21 0.34 0.11

/proc/meminfo:
MemTotal:        3080336 kB
MemFree:           64780 kB
MemAvailable:          0 kB
Buffers:             296 kB
Cached:            37424 kB
SwapCached:            0 kB
Active:          2911236 kB
Inactive:          33844 kB
Active(anon):    2910476 kB
Inactive(anon):    33200 kB
Active(file):        760 kB
Inactive(file):      644 kB
Unevictable:        3652 kB
Mlocked:            3652 kB
SwapTotal:             0 kB
SwapFree:              0 kB
Dirty:                 0 kB
Writeback:             0 kB
AnonPages:       2910944 kB
Mapped:             5360 kB
Shmem:             33884 kB
Slab:              31756 kB
SReclaimable:      15352 kB
SUnreclaim:        16404 kB
KernelStack:        4256 kB
PageTables:        10080 kB
NFS_Unstable:          0 kB
Bounce:                0 kB
WritebackTmp:          0 kB
CommitLimit:     1540168 kB
Committed_AS:    3301040 kB
VmallocTotal:   34359738367 kB
VmallocUsed:           0 kB
VmallocChunk:          0 kB
HardwareCorrupted:     0 kB
AnonHugePages:   2086912 kB
CmaTotal:              0 kB
CmaFree:               0 kB
HugePages_Total:       0
HugePages_Free:        0
HugePages_Rsvd:        0
HugePages_Surp:        0
Hugepagesize:       2048 kB
DirectMap4k:       47084 kB
DirectMap2M:     2050048 kB
DirectMap1G:     1048576 kB


CPU:total 2 (initial active 2) (1 cores per cpu, 1 threads per core) family 6 model 79 stepping 1, cmov, cx8, fxsr, mmx, sse, sse2, sse3, ssse3, sse4.1, sse4.2, popcnt, avx, avx2, aes, clmul, erms, rtm, 3dnowpref, lzcnt, tsc, bmi1, bmi2, adx

/proc/cpuinfo:
processor	: 0
vendor_id	: GenuineIntel
cpu family	: 6
model		: 79
model name	: Intel(R) Xeon(R) CPU E5-2697A v4 @ 2.60GHz
stepping	: 1
microcode	: 0x1
cpu MHz		: 2599.996
cache size	: 40960 KB
physical id	: 0
siblings	: 1
core id		: 0
cpu cores	: 1
apicid		: 0
initial apicid	: 0
fpu		: yes
fpu_exception	: yes
cpuid level	: 13
wp		: yes
flags		: fpu vme de pse tsc msr pae mce cx8 apic sep mtrr pge mca cmov pat pse36 clflush mmx fxsr sse sse2 ss syscall nx pdpe1gb rdtscp lm constant_tsc arch_perfmon rep_good nopl eagerfpu pni pclmulqdq vmx ssse3 fma cx16 pcid sse4_1 sse4_2 x2apic movbe popcnt tsc_deadline_timer aes xsave avx f16c rdrand hypervisor lahf_lm abm 3dnowprefetch invpcid_single kaiser tpr_shadow vnmi flexpriority ept vpid fsgsbase tsc_adjust bmi1 hle avx2 smep bmi2 erms invpcid rtm rdseed adx smap xsaveopt
bugs		:
bogomips	: 5199.99
clflush size	: 64
cache_alignment	: 64
address sizes	: 40 bits physical, 48 bits virtual
power management:

processor	: 1
vendor_id	: GenuineIntel
cpu family	: 6
model		: 79
model name	: Intel(R) Xeon(R) CPU E5-2697A v4 @ 2.60GHz
stepping	: 1
microcode	: 0x1
cpu MHz		: 2599.996
cache size	: 40960 KB
physical id	: 1
siblings	: 1
core id		: 0
cpu cores	: 1
apicid		: 1
initial apicid	: 1
fpu		: yes
fpu_exception	: yes
cpuid level	: 13
wp		: yes
flags		: fpu vme de pse tsc msr pae mce cx8 apic sep mtrr pge mca cmov pat pse36 clflush mmx fxsr sse sse2 ss syscall nx pdpe1gb rdtscp lm constant_tsc arch_perfmon rep_good nopl eagerfpu pni pclmulqdq vmx ssse3 fma cx16 pcid sse4_1 sse4_2 x2apic movbe popcnt tsc_deadline_timer aes xsave avx f16c rdrand hypervisor lahf_lm abm 3dnowprefetch invpcid_single kaiser tpr_shadow vnmi flexpriority ept vpid fsgsbase tsc_adjust bmi1 hle avx2 smep bmi2 erms invpcid rtm rdseed adx smap xsaveopt
bugs		:
bogomips	: 5199.99
clflush size	: 64
cache_alignment	: 64
address sizes	: 40 bits physical, 48 bits virtual
power management:



Memory: 4k page, physical 3080336k(65180k free), swap 0k(0k free)

vm_info: OpenJDK 64-Bit Server VM (25.151-b12) for linux-amd64 JRE (1.8.0_151-8u151-b12-0ubuntu0.16.04.2-b12), built on Oct 27 2017 21:59:02 by "buildd" with gcc 5.4.0 20160609

time: Thu Feb 15 12:17:48 2018
elapsed time: 19 seconds (0d 0h 0m 19s)

