#
# There is insufficient memory for the Java Runtime Environment to continue.
# Native memory allocation (mmap) failed to map 65536 bytes for committing reserved memory.
# Possible reasons:
#   The system is out of physical RAM or swap space
#   In 32 bit mode, the process size limit was hit
# Possible solutions:
#   Reduce memory load on the system
#   Increase physical memory or swap space
#   Check if swap backing store is full
#   Use 64 bit Java on a 64 bit OS
#   Decrease Java heap size (-Xmx/-Xms)
#   Decrease number of Java threads
#   Decrease Java thread stack sizes (-Xss)
#   Set larger code cache with -XX:ReservedCodeCacheSize=
# This output file may be truncated or incomplete.
#
#  Out of Memory Error (os_linux.cpp:2643), pid=30287, tid=0x00007fac8f65f700
#
# JRE version: OpenJDK Runtime Environment (8.0_151-b12) (build 1.8.0_151-8u151-b12-0ubuntu0.16.04.2-b12)
# Java VM: OpenJDK 64-Bit Server VM (25.151-b12 mixed mode linux-amd64 compressed oops)
# Failed to write core dump. Core dumps have been disabled. To enable core dumping, try "ulimit -c unlimited" before starting Java again
#

---------------  T H R E A D  ---------------

Current thread (0x00007faca40b0800):  JavaThread "C1 CompilerThread1" daemon [_thread_in_vm, id=30299, stack(0x00007fac8f55f000,0x00007fac8f660000)]

Stack: [0x00007fac8f55f000,0x00007fac8f660000],  sp=0x00007fac8f65e010,  free space=1020k
Native frames: (J=compiled Java code, j=interpreted, Vv=VM code, C=native code)
V  [libjvm.so+0xa684eb]
V  [libjvm.so+0x4c579c]
V  [libjvm.so+0x8b6b50]
V  [libjvm.so+0x8b0fce]
V  [libjvm.so+0xa64de4]
V  [libjvm.so+0x5e6cad]
V  [libjvm.so+0x446d96]
V  [libjvm.so+0x886ba8]
V  [libjvm.so+0x3dee6f]
V  [libjvm.so+0x323424]
V  [libjvm.so+0x323772]
V  [libjvm.so+0x324457]
V  [libjvm.so+0x4756cc]
V  [libjvm.so+0x477507]
V  [libjvm.so+0xa0cba7]
V  [libjvm.so+0xa0d06c]
V  [libjvm.so+0x8b4032]
C  [libpthread.so.0+0x76ba]  start_thread+0xca


Current CompileTask:
C1:   9779 4408       3       java.util.ComparableTimSort::mergeHi (729 bytes)


---------------  P R O C E S S  ---------------

Java Threads: ( => current thread )
  0x00007faca4c7e800 JavaThread "PoolCleaner[1028566121:1519278236181]" daemon [_thread_blocked, id=30319, stack(0x00007fac8ebb8000,0x00007fac8ecb9000)]
  0x00007faca487e800 JavaThread "process reaper" daemon [_thread_blocked, id=30303, stack(0x00007fac8edba000,0x00007fac8edf3000)]
  0x00007faca40b8800 JavaThread "Service Thread" daemon [_thread_blocked, id=30300, stack(0x00007fac8f45e000,0x00007fac8f55f000)]
=>0x00007faca40b0800 JavaThread "C1 CompilerThread1" daemon [_thread_in_vm, id=30299, stack(0x00007fac8f55f000,0x00007fac8f660000)]
  0x00007faca40ad800 JavaThread "C2 CompilerThread0" daemon [_thread_blocked, id=30298, stack(0x00007fac8f660000,0x00007fac8f761000)]
  0x00007faca40ab800 JavaThread "Signal Dispatcher" daemon [_thread_blocked, id=30297, stack(0x00007fac8f761000,0x00007fac8f862000)]
  0x00007faca4084000 JavaThread "Finalizer" daemon [_thread_blocked, id=30296, stack(0x00007fac8f9fa000,0x00007fac8fafb000)]
  0x00007faca407f800 JavaThread "Reference Handler" daemon [_thread_blocked, id=30295, stack(0x00007fac8fafb000,0x00007fac8fbfc000)]
  0x00007faca400e800 JavaThread "main" [_thread_blocked, id=30289, stack(0x00007facae214000,0x00007facae315000)]

Other Threads:
  0x00007faca4078000 VMThread [stack: 0x00007fac8fbfc000,0x00007fac8fcfd000] [id=30294]
  0x00007faca40ba800 WatcherThread [stack: 0x00007fac8f35d000,0x00007fac8f45e000] [id=30301]

VM state:not at safepoint (normal execution)

VM Mutex/Monitor currently owned by a thread:  ([mutex/lock_event])
[0x00007faca400a310] CodeCache_lock - owner thread: 0x00007faca40b0800
[0x00007faca400b990] Compile_lock - owner thread: 0x00007faca40b0800
[0x00007faca400ba90] MethodCompileQueue_lock - owner thread: 0x00007faca40b0800

Heap:
 PSYoungGen      total 320512K, used 319710K [0x00000000eab00000, 0x0000000100000000, 0x0000000100000000)
  eden space 311296K, 99% used [0x00000000eab00000,0x00000000fda3ab70,0x00000000fdb00000)
  from space 9216K, 99% used [0x00000000fdb00000,0x00000000fe3fcea8,0x00000000fe400000)
  to   space 14848K, 0% used [0x00000000ff180000,0x00000000ff180000,0x0000000100000000)
 ParOldGen       total 29184K, used 19208K [0x00000000c0000000, 0x00000000c1c80000, 0x00000000eab00000)
  object space 29184K, 65% used [0x00000000c0000000,0x00000000c12c2358,0x00000000c1c80000)
 Metaspace       used 32292K, capacity 33010K, committed 33072K, reserved 1079296K
  class space    used 3668K, capacity 3839K, committed 3888K, reserved 1048576K

Card table byte_map: [0x00007facaa6b8000,0x00007facaa8b9000] byte_map_base: 0x00007facaa0b8000

Marking Bits: (ParMarkBitMap*) 0x00007facad4cc2c0
 Begin Bits: [0x00007faca8360000, 0x00007faca9360000)
 End Bits:   [0x00007faca9360000, 0x00007facaa360000)

Polling page: 0x00007facae320000

CodeCache: size=245760Kb used=12833Kb max_used=12844Kb free=232926Kb
 bounds [0x00007fac95000000, 0x00007fac95ca0000, 0x00007faca4000000]
 total_blobs=4401 nmethods=3949 adapters=364
 compilation: enabled

Compilation events (10 events):
Event: 8.504 Thread 0x00007faca40b0800 nmethod 4401 0x00007fac95c94d10 code [0x00007fac95c94fe0, 0x00007fac95c965c8]
Event: 8.507 Thread 0x00007faca40b0800 4408       3       java.util.ComparableTimSort::mergeHi (729 bytes)
Event: 8.648 Thread 0x00007faca40ad800 nmethod 4379 0x00007fac95c9a450 code [0x00007fac95c9a600, 0x00007fac95c9ac68]
Event: 8.651 Thread 0x00007faca40ad800 4380   !   4       java.lang.Class::getSimpleBinaryName (38 bytes)
Event: 8.708 Thread 0x00007faca40ad800 nmethod 4380 0x00007fac95c973d0 code [0x00007fac95c97540, 0x00007fac95c97618]
Event: 8.709 Thread 0x00007faca40ad800 4407       4       java.util.AbstractList::<init> (10 bytes)
Event: 8.743 Thread 0x00007faca40ad800 nmethod 4407 0x00007fac95366450 code [0x00007fac953665a0, 0x00007fac953665f8]
Event: 8.744 Thread 0x00007faca40ad800 4395       4       freemarker.core.Environment::popElement (18 bytes)
Event: 9.114 Thread 0x00007faca40ad800 nmethod 4395 0x00007fac95c98990 code [0x00007fac95c98b00, 0x00007fac95c98cf8]
Event: 9.164 Thread 0x00007faca40ad800 4420   !   4       freemarker.core.Environment::visit (38 bytes)

GC Heap History (10 events):
Event: 3.280 GC heap before
{Heap before GC invocations=8 (full 0):
 PSYoungGen      total 104960K, used 104385K [0x00000000eab00000, 0x00000000f7a00000, 0x0000000100000000)
  eden space 98304K, 100% used [0x00000000eab00000,0x00000000f0b00000,0x00000000f0b00000)
  from space 6656K, 91% used [0x00000000f0b00000,0x00000000f10f0650,0x00000000f1180000)
  to   space 7680K, 0% used [0x00000000f7280000,0x00000000f7280000,0x00000000f7a00000)
 ParOldGen       total 32768K, used 6809K [0x00000000c0000000, 0x00000000c2000000, 0x00000000eab00000)
  object space 32768K, 20% used [0x00000000c0000000,0x00000000c06a64b0,0x00000000c2000000)
 Metaspace       used 18699K, capacity 18962K, committed 19200K, reserved 1067008K
  class space    used 2210K, capacity 2303K, committed 2304K, reserved 1048576K
Event: 3.290 GC heap after
Heap after GC invocations=8 (full 0):
 PSYoungGen      total 203264K, used 7193K [0x00000000eab00000, 0x00000000f7c00000, 0x0000000100000000)
  eden space 195584K, 0% used [0x00000000eab00000,0x00000000eab00000,0x00000000f6a00000)
  from space 7680K, 93% used [0x00000000f7280000,0x00000000f7986560,0x00000000f7a00000)
  to   space 8704K, 0% used [0x00000000f6a00000,0x00000000f6a00000,0x00000000f7280000)
 ParOldGen       total 32768K, used 7297K [0x00000000c0000000, 0x00000000c2000000, 0x00000000eab00000)
  object space 32768K, 22% used [0x00000000c0000000,0x00000000c07204c0,0x00000000c2000000)
 Metaspace       used 18699K, capacity 18962K, committed 19200K, reserved 1067008K
  class space    used 2210K, capacity 2303K, committed 2304K, reserved 1048576K
}
Event: 3.879 GC heap before
{Heap before GC invocations=9 (full 0):
 PSYoungGen      total 203264K, used 104484K [0x00000000eab00000, 0x00000000f7c00000, 0x0000000100000000)
  eden space 195584K, 49% used [0x00000000eab00000,0x00000000f0a02c88,0x00000000f6a00000)
  from space 7680K, 93% used [0x00000000f7280000,0x00000000f7986560,0x00000000f7a00000)
  to   space 8704K, 0% used [0x00000000f6a00000,0x00000000f6a00000,0x00000000f7280000)
 ParOldGen       total 32768K, used 7297K [0x00000000c0000000, 0x00000000c2000000, 0x00000000eab00000)
  object space 32768K, 22% used [0x00000000c0000000,0x00000000c07204c0,0x00000000c2000000)
 Metaspace       used 20847K, capacity 21232K, committed 21296K, reserved 1069056K
  class space    used 2463K, capacity 2580K, committed 2608K, reserved 1048576K
Event: 3.886 GC heap after
Heap after GC invocations=9 (full 0):
 PSYoungGen      total 204288K, used 3639K [0x00000000eab00000, 0x00000000fed00000, 0x0000000100000000)
  eden space 195584K, 0% used [0x00000000eab00000,0x00000000eab00000,0x00000000f6a00000)
  from space 8704K, 41% used [0x00000000f6a00000,0x00000000f6d8de00,0x00000000f7280000)
  to   space 8192K, 0% used [0x00000000fe500000,0x00000000fe500000,0x00000000fed00000)
 ParOldGen       total 32768K, used 9309K [0x00000000c0000000, 0x00000000c2000000, 0x00000000eab00000)
  object space 32768K, 28% used [0x00000000c0000000,0x00000000c09177c8,0x00000000c2000000)
 Metaspace       used 20847K, capacity 21232K, committed 21296K, reserved 1069056K
  class space    used 2463K, capacity 2580K, committed 2608K, reserved 1048576K
}
Event: 3.886 GC heap before
{Heap before GC invocations=10 (full 1):
 PSYoungGen      total 204288K, used 3639K [0x00000000eab00000, 0x00000000fed00000, 0x0000000100000000)
  eden space 195584K, 0% used [0x00000000eab00000,0x00000000eab00000,0x00000000f6a00000)
  from space 8704K, 41% used [0x00000000f6a00000,0x00000000f6d8de00,0x00000000f7280000)
  to   space 8192K, 0% used [0x00000000fe500000,0x00000000fe500000,0x00000000fed00000)
 ParOldGen       total 32768K, used 9309K [0x00000000c0000000, 0x00000000c2000000, 0x00000000eab00000)
  object space 32768K, 28% used [0x00000000c0000000,0x00000000c09177c8,0x00000000c2000000)
 Metaspace       used 20847K, capacity 21232K, committed 21296K, reserved 1069056K
  class space    used 2463K, capacity 2580K, committed 2608K, reserved 1048576K
Event: 3.932 GC heap after
Heap after GC invocations=10 (full 1):
 PSYoungGen      total 204288K, used 0K [0x00000000eab00000, 0x00000000fed00000, 0x0000000100000000)
  eden space 195584K, 0% used [0x00000000eab00000,0x00000000eab00000,0x00000000f6a00000)
  from space 8704K, 0% used [0x00000000f6a00000,0x00000000f6a00000,0x00000000f7280000)
  to   space 8192K, 0% used [0x00000000fe500000,0x00000000fe500000,0x00000000fed00000)
 ParOldGen       total 29184K, used 8080K [0x00000000c0000000, 0x00000000c1c80000, 0x00000000eab00000)
  object space 29184K, 27% used [0x00000000c0000000,0x00000000c07e4128,0x00000000c1c80000)
 Metaspace       used 20847K, capacity 21232K, committed 21296K, reserved 1069056K
  class space    used 2463K, capacity 2580K, committed 2608K, reserved 1048576K
}
Event: 5.127 GC heap before
{Heap before GC invocations=11 (full 1):
 PSYoungGen      total 204288K, used 195584K [0x00000000eab00000, 0x00000000fed00000, 0x0000000100000000)
  eden space 195584K, 100% used [0x00000000eab00000,0x00000000f6a00000,0x00000000f6a00000)
  from space 8704K, 0% used [0x00000000f6a00000,0x00000000f6a00000,0x00000000f7280000)
  to   space 8192K, 0% used [0x00000000fe500000,0x00000000fe500000,0x00000000fed00000)
 ParOldGen       total 29184K, used 8080K [0x00000000c0000000, 0x00000000c1c80000, 0x00000000eab00000)
  object space 29184K, 27% used [0x00000000c0000000,0x00000000c07e4128,0x00000000c1c80000)
 Metaspace       used 22475K, capacity 22984K, committed 23088K, reserved 1069056K
  class space    used 2638K, capacity 2776K, committed 2864K, reserved 1048576K
Event: 5.146 GC heap after
Heap after GC invocations=11 (full 1):
 PSYoungGen      total 272896K, used 8049K [0x00000000eab00000, 0x00000000fed00000, 0x0000000100000000)
  eden space 264704K, 0% used [0x00000000eab00000,0x00000000eab00000,0x00000000fad80000)
  from space 8192K, 98% used [0x00000000fe500000,0x00000000fecdc5c0,0x00000000fed00000)
  to   space 9216K, 0% used [0x00000000fdb00000,0x00000000fdb00000,0x00000000fe400000)
 ParOldGen       total 29184K, used 8088K [0x00000000c0000000, 0x00000000c1c80000, 0x00000000eab00000)
  object space 29184K, 27% used [0x00000000c0000000,0x00000000c07e6128,0x00000000c1c80000)
 Metaspace       used 22475K, capacity 22984K, committed 23088K, reserved 1069056K
  class space    used 2638K, capacity 2776K, committed 2864K, reserved 1048576K
}
Event: 6.448 GC heap before
{Heap before GC invocations=12 (full 1):
 PSYoungGen      total 272896K, used 272753K [0x00000000eab00000, 0x00000000fed00000, 0x0000000100000000)
  eden space 264704K, 100% used [0x00000000eab00000,0x00000000fad80000,0x00000000fad80000)
  from space 8192K, 98% used [0x00000000fe500000,0x00000000fecdc5c0,0x00000000fed00000)
  to   space 9216K, 0% used [0x00000000fdb00000,0x00000000fdb00000,0x00000000fe400000)
 ParOldGen       total 29184K, used 8088K [0x00000000c0000000, 0x00000000c1c80000, 0x00000000eab00000)
  object space 29184K, 27% used [0x00000000c0000000,0x00000000c07e6128,0x00000000c1c80000)
 Metaspace       used 22608K, capacity 23136K, committed 23344K, reserved 1069056K
  class space    used 2644K, capacity 2780K, committed 2864K, reserved 1048576K
Event: 6.485 GC heap after
Heap after GC invocations=12 (full 1):
 PSYoungGen      total 320512K, used 9203K [0x00000000eab00000, 0x0000000100000000, 0x0000000100000000)
  eden space 311296K, 0% used [0x00000000eab00000,0x00000000eab00000,0x00000000fdb00000)
  from space 9216K, 99% used [0x00000000fdb00000,0x00000000fe3fcea8,0x00000000fe400000)
  to   space 14848K, 0% used [0x00000000ff180000,0x00000000ff180000,0x0000000100000000)
 ParOldGen       total 29184K, used 19208K [0x00000000c0000000, 0x00000000c1c80000, 0x00000000eab00000)
  object space 29184K, 65% used [0x00000000c0000000,0x00000000c12c2358,0x00000000c1c80000)
 Metaspace       used 22608K, capacity 23136K, committed 23344K, reserved 1069056K
  class space    used 2644K, capacity 2780K, committed 2864K, reserved 1048576K
}

Deoptimization events (10 events):
Event: 7.274 Thread 0x00007faca400e800 Uncommon trap: reason=unstable_if action=reinterpret pc=0x00007fac952072a4 method=java.lang.Class.searchFields([Ljava/lang/reflect/Field;Ljava/lang/String;)Ljava/lang/reflect/Field; @ 10
Event: 7.479 Thread 0x00007faca400e800 Uncommon trap: reason=unstable_if action=reinterpret pc=0x00007fac953f9cf0 method=org.openbravo.base.model.NamingUtil.camelCaseIt(Ljava/lang/String;Ljava/lang/String;)Ljava/lang/String; @ 30
Event: 7.669 Thread 0x00007faca400e800 Uncommon trap: reason=unstable_if action=reinterpret pc=0x00007fac9535cf54 method=org.openbravo.base.model.NamingUtil.getPropertyMappingName(Lorg/openbravo/base/model/Property;)Ljava/lang/String; @ 89
Event: 7.736 Thread 0x00007faca400e800 Uncommon trap: reason=unstable_if action=reinterpret pc=0x00007fac955e20a0 method=java.lang.Class.privateGetDeclaredFields(Z)[Ljava/lang/reflect/Field; @ 13
Event: 7.763 Thread 0x00007faca400e800 Uncommon trap: reason=unstable_if action=reinterpret pc=0x00007fac955108ec method=java.util.HashMap.getNode(ILjava/lang/Object;)Ljava/util/HashMap$Node; @ 62
Event: 7.763 Thread 0x00007faca400e800 Uncommon trap: reason=unstable_if action=reinterpret pc=0x00007fac95434dc0 method=java.util.HashMap.getNode(ILjava/lang/Object;)Ljava/util/HashMap$Node; @ 62
Event: 7.779 Thread 0x00007faca400e800 Uncommon trap: reason=unstable_if action=reinterpret pc=0x00007fac95a7d7d0 method=java.lang.Boolean.equals(Ljava/lang/Object;)Z @ 18
Event: 7.799 Thread 0x00007faca400e800 Uncommon trap: reason=unstable_if action=reinterpret pc=0x00007fac955a4d7c method=sun.misc.URLClassPath$JarLoader.getResource(Ljava/lang/String;Z)Lsun/misc/Resource; @ 15
Event: 7.827 Thread 0x00007faca400e800 Uncommon trap: reason=unstable_if action=reinterpret pc=0x00007fac955852a0 method=java.lang.Character.isHighSurrogate(C)Z @ 3
Event: 7.827 Thread 0x00007faca400e800 Uncommon trap: reason=unstable_if action=reinterpret pc=0x00007fac955952cc method=java.lang.Character.isHighSurrogate(C)Z @ 3

Internal exceptions (10 events):
Event: 7.767 Thread 0x00007faca400e800 Exception <a 'java/lang/ArrayIndexOutOfBoundsException'> (0x00000000fb432858) thrown at [/build/openjdk-8-W2Qe27/openjdk-8-8u151-b12/src/hotspot/src/share/vm/runtime/sharedRuntime.cpp, line 605]
Event: 7.767 Thread 0x00007faca400e800 Exception <a 'java/lang/ArrayIndexOutOfBoundsException'> (0x00000000fb439988) thrown at [/build/openjdk-8-W2Qe27/openjdk-8-8u151-b12/src/hotspot/src/share/vm/runtime/sharedRuntime.cpp, line 605]
Event: 7.767 Thread 0x00007faca400e800 Exception <a 'java/lang/ArrayIndexOutOfBoundsException'> (0x00000000fb43c8b8) thrown at [/build/openjdk-8-W2Qe27/openjdk-8-8u151-b12/src/hotspot/src/share/vm/runtime/sharedRuntime.cpp, line 605]
Event: 7.767 Thread 0x00007faca400e800 Exception <a 'java/lang/ArrayIndexOutOfBoundsException'> (0x00000000fb43fe88) thrown at [/build/openjdk-8-W2Qe27/openjdk-8-8u151-b12/src/hotspot/src/share/vm/runtime/sharedRuntime.cpp, line 605]
Event: 7.778 Thread 0x00007faca400e800 Exception <a 'java/lang/ArrayIndexOutOfBoundsException'> (0x00000000fb4a9200) thrown at [/build/openjdk-8-W2Qe27/openjdk-8-8u151-b12/src/hotspot/src/share/vm/runtime/sharedRuntime.cpp, line 605]
Event: 7.778 Thread 0x00007faca400e800 Exception <a 'java/lang/ArrayIndexOutOfBoundsException'> (0x00000000fb4ab6e0) thrown at [/build/openjdk-8-W2Qe27/openjdk-8-8u151-b12/src/hotspot/src/share/vm/runtime/sharedRuntime.cpp, line 605]
Event: 7.778 Thread 0x00007faca400e800 Exception <a 'java/lang/ArrayIndexOutOfBoundsException'> (0x00000000fb4bd9c8) thrown at [/build/openjdk-8-W2Qe27/openjdk-8-8u151-b12/src/hotspot/src/share/vm/runtime/sharedRuntime.cpp, line 605]
Event: 7.778 Thread 0x00007faca400e800 Exception <a 'java/lang/ArrayIndexOutOfBoundsException'> (0x00000000fb4c17b8) thrown at [/build/openjdk-8-W2Qe27/openjdk-8-8u151-b12/src/hotspot/src/share/vm/runtime/sharedRuntime.cpp, line 605]
Event: 7.779 Thread 0x00007faca400e800 Exception <a 'java/lang/ArrayIndexOutOfBoundsException'> (0x00000000fb4d0508) thrown at [/build/openjdk-8-W2Qe27/openjdk-8-8u151-b12/src/hotspot/src/share/vm/runtime/sharedRuntime.cpp, line 605]
Event: 7.779 Thread 0x00007faca400e800 Exception <a 'java/lang/ArrayIndexOutOfBoundsException'> (0x00000000fb4d55f0) thrown at [/build/openjdk-8-W2Qe27/openjdk-8-8u151-b12/src/hotspot/src/share/vm/runtime/sharedRuntime.cpp, line 605]

Events (10 events):
Event: 7.831 loading class sun/text/normalizer/UCharacterIterator
Event: 7.831 loading class sun/text/normalizer/UCharacterIterator done
Event: 7.831 loading class sun/text/normalizer/ReplaceableUCharacterIterator
Event: 7.831 loading class sun/text/normalizer/ReplaceableUCharacterIterator done
Event: 7.831 loading class sun/text/normalizer/ReplaceableString
Event: 7.831 loading class sun/text/normalizer/Replaceable
Event: 7.831 loading class sun/text/normalizer/Replaceable done
Event: 7.831 loading class sun/text/normalizer/ReplaceableString done
Event: 7.917 loading class java/lang/Class$EnclosingMethodInfo
Event: 7.920 loading class java/lang/Class$EnclosingMethodInfo done


Dynamic libraries:
00400000-00401000 r-xp 00000000 fd:01 1046840                            /usr/lib/jvm/java-8-openjdk-amd64/jre/bin/java
00600000-00601000 r--p 00000000 fd:01 1046840                            /usr/lib/jvm/java-8-openjdk-amd64/jre/bin/java
00601000-00602000 rw-p 00001000 fd:01 1046840                            /usr/lib/jvm/java-8-openjdk-amd64/jre/bin/java
00f0b000-00f2c000 rw-p 00000000 00:00 0                                  [heap]
c0000000-c1c80000 rw-p 00000000 00:00 0 
c1c80000-eab00000 ---p 00000000 00:00 0 
eab00000-100000000 rw-p 00000000 00:00 0 
100000000-1003cc000 rw-p 00000000 00:00 0 
1003cc000-140000000 ---p 00000000 00:00 0 
7fac58000000-7fac58021000 rw-p 00000000 00:00 0 
7fac58021000-7fac5c000000 ---p 00000000 00:00 0 
7fac5cfff000-7fac60000000 rw-p 00000000 00:00 0 
7fac60000000-7fac60021000 rw-p 00000000 00:00 0 
7fac60021000-7fac64000000 ---p 00000000 00:00 0 
7fac64000000-7fac64021000 rw-p 00000000 00:00 0 
7fac64021000-7fac68000000 ---p 00000000 00:00 0 
7fac68000000-7fac68021000 rw-p 00000000 00:00 0 
7fac68021000-7fac6c000000 ---p 00000000 00:00 0 
7fac6c000000-7fac6c021000 rw-p 00000000 00:00 0 
7fac6c021000-7fac70000000 ---p 00000000 00:00 0 
7fac70000000-7fac71662000 rw-p 00000000 00:00 0 
7fac71662000-7fac74000000 ---p 00000000 00:00 0 
7fac74000000-7fac75502000 rw-p 00000000 00:00 0 
7fac75502000-7fac78000000 ---p 00000000 00:00 0 
7fac78000000-7fac78021000 rw-p 00000000 00:00 0 
7fac78021000-7fac7c000000 ---p 00000000 00:00 0 
7fac7c000000-7fac7c021000 rw-p 00000000 00:00 0 
7fac7c021000-7fac80000000 ---p 00000000 00:00 0 
7fac80000000-7fac80021000 rw-p 00000000 00:00 0 
7fac80021000-7fac84000000 ---p 00000000 00:00 0 
7fac84000000-7fac84021000 rw-p 00000000 00:00 0 
7fac84021000-7fac88000000 ---p 00000000 00:00 0 
7fac88000000-7fac88021000 rw-p 00000000 00:00 0 
7fac88021000-7fac8c000000 ---p 00000000 00:00 0 
7fac8d170000-7fac8d183000 r--s 00346000 fd:01 533094                     /usr/lib/jvm/java-8-openjdk-amd64/jre/lib/resources.jar
7fac8d183000-7fac8d203000 rw-p 00000000 00:00 0 
7fac8d203000-7fac8d383000 ---p 00000000 00:00 0 
7fac8d383000-7fac8d583000 rw-p 00000000 00:00 0 
7fac8d583000-7fac8d783000 rw-p 00000000 00:00 0 
7fac8d783000-7fac8d983000 rw-p 00000000 00:00 0 
7fac8d983000-7fac8db83000 rw-p 00000000 00:00 0 
7fac8db83000-7fac8dd83000 rw-p 00000000 00:00 0 
7fac8dd83000-7fac8df83000 rw-p 00000000 00:00 0 
7fac8df83000-7fac8e183000 rw-p 00000000 00:00 0 
7fac8e183000-7fac8e194000 r-xp 00000000 fd:01 785245                     /usr/lib/jvm/java-8-openjdk-amd64/jre/lib/amd64/libnio.so
7fac8e194000-7fac8e394000 ---p 00011000 fd:01 785245                     /usr/lib/jvm/java-8-openjdk-amd64/jre/lib/amd64/libnio.so
7fac8e394000-7fac8e395000 r--p 00011000 fd:01 785245                     /usr/lib/jvm/java-8-openjdk-amd64/jre/lib/amd64/libnio.so
7fac8e395000-7fac8e396000 rw-p 00012000 fd:01 785245                     /usr/lib/jvm/java-8-openjdk-amd64/jre/lib/amd64/libnio.so
7fac8e396000-7fac8e3ad000 r-xp 00000000 fd:01 785233                     /usr/lib/jvm/java-8-openjdk-amd64/jre/lib/amd64/libnet.so
7fac8e3ad000-7fac8e5ac000 ---p 00017000 fd:01 785233                     /usr/lib/jvm/java-8-openjdk-amd64/jre/lib/amd64/libnet.so
7fac8e5ac000-7fac8e5ad000 r--p 00016000 fd:01 785233                     /usr/lib/jvm/java-8-openjdk-amd64/jre/lib/amd64/libnet.so
7fac8e5ad000-7fac8e5ae000 rw-p 00017000 fd:01 785233                     /usr/lib/jvm/java-8-openjdk-amd64/jre/lib/amd64/libnet.so
7fac8e5ae000-7fac8e5b7000 r-xp 00000000 fd:01 785219                     /usr/lib/jvm/java-8-openjdk-amd64/jre/lib/amd64/libmanagement.so
7fac8e5b7000-7fac8e7b6000 ---p 00009000 fd:01 785219                     /usr/lib/jvm/java-8-openjdk-amd64/jre/lib/amd64/libmanagement.so
7fac8e7b6000-7fac8e7b7000 r--p 00008000 fd:01 785219                     /usr/lib/jvm/java-8-openjdk-amd64/jre/lib/amd64/libmanagement.so
7fac8e7b7000-7fac8e7b8000 rw-p 00009000 fd:01 785219                     /usr/lib/jvm/java-8-openjdk-amd64/jre/lib/amd64/libmanagement.so
7fac8e7b8000-7fac8e9b8000 rw-p 00000000 00:00 0 
7fac8e9b8000-7fac8ebb8000 rw-p 00000000 00:00 0 
7fac8ebb8000-7fac8ebbb000 ---p 00000000 00:00 0 
7fac8ebbb000-7fac8ecb9000 rw-p 00000000 00:00 0 
7fac8ecb9000-7fac8ecbc000 ---p 00000000 00:00 0 
7fac8ecbc000-7fac8edba000 rw-p 00000000 00:00 0 
7fac8edba000-7fac8edbd000 ---p 00000000 00:00 0 
7fac8edbd000-7fac8eff3000 rw-p 00000000 00:00 0 
7fac8eff3000-7fac8eff8000 r--s 0009a000 fd:01 533095                     /usr/lib/jvm/java-8-openjdk-amd64/jre/lib/jsse.jar
7fac8eff8000-7fac8eff9000 r--s 00001000 fd:01 522405                     /opt/OpenbravoTablero/modules/org.openbravo.client.kernel/lib/runtime/jsmin.0.2.4.jar
7fac8eff9000-7fac8f005000 r--s 000ee000 fd:01 522406                     /opt/OpenbravoTablero/modules/org.openbravo.client.kernel/lib/runtime/jslint4java-1.4.7.jar
7fac8f005000-7fac8f007000 r--s 00005000 fd:01 520712                     /opt/OpenbravoTablero/modules/org.openbravo.client.application/lib/runtime/httpmime-4.1.jar
7fac8f007000-7fac8f00c000 r--s 00026000 fd:01 520714                     /opt/OpenbravoTablero/modules/org.openbravo.client.application/lib/runtime/httpcore-4.0.1.jar
7fac8f00c000-7fac8f013000 r--s 00040000 fd:01 520713                     /opt/OpenbravoTablero/modules/org.openbravo.client.application/lib/runtime/httpclient-4.0.jar
7fac8f013000-7fac8f021000 r--s 00099000 fd:01 520715                     /opt/OpenbravoTablero/modules/org.openbravo.client.application/lib/runtime/guice-2.0.jar
7fac8f021000-7fac8f025000 r--s 0000a000 fd:01 518216                     /opt/OpenbravoTablero/modules/org.openbravo.base.weld/lib/runtime/weld-spi.jar
7fac8f025000-7fac8f028000 r--s 00011000 fd:01 518222                     /opt/OpenbravoTablero/modules/org.openbravo.base.weld/lib/runtime/weld-servlet-core-1.1.24.Final.jar
7fac8f028000-7fac8f03a000 r--s 000ce000 fd:01 518212                     /opt/OpenbravoTablero/modules/org.openbravo.base.weld/lib/runtime/weld-core-1.1.24.Final.jar
7fac8f03a000-7fac8f03c000 r--s 00004000 fd:01 518213                     /opt/OpenbravoTablero/modules/org.openbravo.base.weld/lib/runtime/weld-api.jar
7fac8f03c000-7fac8f03e000 r--s 00009000 fd:01 518211                     /opt/OpenbravoTablero/modules/org.openbravo.base.weld/lib/runtime/slf4j-ext-1.6.1.jar
7fac8f03e000-7fac8f03f000 r--s 00001000 fd:01 518214                     /opt/OpenbravoTablero/modules/org.openbravo.base.weld/lib/runtime/jboss-interceptor-spi-2.0.0.CR1.jar
7fac8f03f000-7fac8f042000 r--s 0000c000 fd:01 518220                     /opt/OpenbravoTablero/modules/org.openbravo.base.weld/lib/runtime/jboss-interceptor-core-2.0.0.CR1.jar
7fac8f042000-7fac8f044000 r--s 00000000 fd:01 518210                     /opt/OpenbravoTablero/modules/org.openbravo.base.weld/lib/runtime/jboss-interceptor-api-3.1.0-CR3.jar
7fac8f044000-7fac8f045000 r--s 00000000 fd:01 518221                     /opt/OpenbravoTablero/modules/org.openbravo.base.weld/lib/runtime/javax.inject.jar
7fac8f045000-7fac8f070000 r--s 001fc000 fd:01 518217                     /opt/OpenbravoTablero/modules/org.openbravo.base.weld/lib/runtime/guava-18.0.jar
7fac8f070000-7fac8f073000 r--s 00006000 fd:01 518219                     /opt/OpenbravoTablero/modules/org.openbravo.base.weld/lib/runtime/ejb-api-3.0.jar
7fac8f073000-7fac8f076000 r--s 0000a000 fd:01 518218                     /opt/OpenbravoTablero/modules/org.openbravo.base.weld/lib/runtime/cdi-api.jar
7fac8f076000-7fac8f078000 r--s 00006000 fd:01 518215                     /opt/OpenbravoTablero/modules/org.openbravo.base.weld/lib/runtime/cal10n-api-0.7.4.jar
7fac8f078000-7fac8f079000 r--s 00006000 fd:01 522533                     /opt/OpenbravoTablero/modules/org.openbravo.apachejdbcconnectionpool/lib/runtime/tomcat-juli.jar
7fac8f079000-7fac8f07b000 r--s 0001d000 fd:01 522532                     /opt/OpenbravoTablero/modules/org.openbravo.apachejdbcconnectionpool/lib/runtime/tomcat-jdbc.jar
7fac8f07b000-7fac8f087000 r--s 00096000 fd:01 1076806                    /opt/OpenbravoTablero/modules/com.atrums.felectronica/lib/runtime/xmlsec-1.4.2-ADSI-1.1.jar
7fac8f087000-7fac8f08a000 r--s 00018000 fd:01 1076805                    /opt/OpenbravoTablero/modules/com.atrums.felectronica/lib/runtime/xmlrpc-1.2-b1.jar
7fac8f08a000-7fac8f08b000 r--s 00007000 fd:01 1076804                    /opt/OpenbravoTablero/modules/com.atrums.felectronica/lib/runtime/xmlrpc-1.2-b1-applet.jar
7fac8f08b000-7fac8f090000 r--s 0002d000 fd:01 1076795                    /opt/OpenbravoTablero/modules/com.atrums.felectronica/lib/runtime/bcmail-jdk15-140.jar
7fac8f090000-7fac8f093000 r--s 00014000 fd:01 1076794                    /opt/OpenbravoTablero/modules/com.atrums.felectronica/lib/runtime/barbecue-1.5-beta1.jar
7fac8f093000-7fac8f09b000 r--s 0007a000 fd:01 1076803                    /opt/OpenbravoTablero/modules/com.atrums.felectronica/lib/runtime/MITyCLibXADES-1.1.7.jar
7fac8f09b000-7fac8f0a1000 r--s 00047000 fd:01 1076801                    /opt/OpenbravoTablero/modules/com.atrums.felectronica/lib/runtime/MITyCLibTrust-1.1.7.jar
7fac8f0a1000-7fac8f0a2000 r--s 00011000 fd:01 1076802                    /opt/OpenbravoTablero/modules/com.atrums.felectronica/lib/runtime/MITyCLibTSA-1.1.7.jar
7fac8f0a2000-7fac8f0a4000 r--s 00019000 fd:01 1076800                    /opt/OpenbravoTablero/modules/com.atrums.felectronica/lib/runtime/MITyCLibPolicy-1.1.7.jar
7fac8f0a4000-7fac8f0a6000 r--s 0001c000 fd:01 1076799                    /opt/OpenbravoTablero/modules/com.atrums.felectronica/lib/runtime/MITyCLibOCSP-1.1.7.jar
7fac8f0a6000-7fac8f0a8000 r--s 0001f000 fd:01 1076798                    /opt/OpenbravoTablero/modules/com.atrums.felectronica/lib/runtime/MITyCLibCrypt-1.1.7.jar
7fac8f0a8000-7fac8f0af000 r--s 0044c000 fd:01 1076797                    /opt/OpenbravoTablero/modules/com.atrums.felectronica/lib/runtime/MITyCLibCert-1.1.7.jar
7fac8f0af000-7fac8f0b3000 r--s 00029000 fd:01 1076796                    /opt/OpenbravoTablero/modules/com.atrums.felectronica/lib/runtime/MITyCLibAPI-1.1.7.jar
7fac8f0b3000-7fac8f0b9000 r--s 0006e000 fd:01 278520                     /opt/OpenbravoTablero/src-db/database/lib/wstx-asl-3.0.2.jar
7fac8f0b9000-7fac8f0bb000 r--s 0000e000 fd:01 278521                     /opt/OpenbravoTablero/src-db/database/lib/jakarta-oro-2.0.8.jar
7fac8f0bb000-7fac8f0c6000 r--s 000b4000 fd:01 278518                     /opt/OpenbravoTablero/src-db/database/lib/dbsourcemanager.jar
7fac8f0c6000-7fac8f0c7000 r--s 00001000 fd:01 278522                     /opt/OpenbravoTablero/src-db/database/lib/dbmanager.jar
7fac8f0c7000-7fac8f0cd000 r--s 00036000 fd:01 278519                     /opt/OpenbravoTablero/src-db/database/lib/commons-betwixt-0.8.jar
7fac8f0cd000-7fac8f0d2000 r--s 00066000 fd:01 523757                     /opt/OpenbravoTablero/src-wad/lib/openbravo-wad.jar
7fac8f0d2000-7fac8f0d3000 r--s 00005000 fd:01 522897                     /opt/OpenbravoTablero/src-trl/lib/openbravo-trl.jar
7fac8f0d3000-7fac8f0d7000 r--s 0003d000 fd:01 516417                     /opt/OpenbravoTablero/src-core/lib/openbravo-core.jar
7fac8f0d7000-7fac8f0dd000 r--s 00036000 fd:01 276925                     /opt/OpenbravoTablero/lib/test/junit.jar
7fac8f0dd000-7fac8f0e3000 r--s 00045000 fd:01 276926                     /opt/OpenbravoTablero/lib/test/hamcrest-all-1.3.jar
7fac8f0e3000-7fac8f0ee000 r--s 0005f000 fd:01 276970                     /opt/OpenbravoTablero/lib/runtime/xstream-1.3.1.jar
7fac8f0ee000-7fac8f0f8000 r--s 00089000 fd:01 276977                     /opt/OpenbravoTablero/lib/runtime/xmlgraphics-commons-1.5.jar
7fac8f0f8000-7fac8f10f000 r--s 00114000 fd:01 276929                     /opt/OpenbravoTablero/lib/runtime/xercesImpl.jar
7fac8f10f000-7fac8f112000 r--s 0001c000 fd:01 276992                     /opt/OpenbravoTablero/lib/runtime/wsdl4j-1.5.1.jar
7fac8f112000-7fac8f118000 r--s 0004b000 fd:01 276945                     /opt/OpenbravoTablero/lib/runtime/tika-core-0.9.jar
7fac8f118000-7fac8f119000 r--s 00002000 fd:01 276950                     /opt/OpenbravoTablero/lib/runtime/slf4j-log4j12-1.6.1.jar
7fac8f119000-7fac8f11b000 r--s 00005000 fd:01 276960                     /opt/OpenbravoTablero/lib/runtime/slf4j-api-1.6.1.jar
7fac8f11b000-7fac8f11c000 r--s 00001000 fd:01 276954                     /opt/OpenbravoTablero/lib/runtime/renderFoRmi.jar
7fac8f11c000-7fac8f122000 r--s 00067000 fd:01 276989                     /opt/OpenbravoTablero/lib/runtime/quartz-1.6.2.jar
7fac8f122000-7fac8f129000 r--s 0008e000 fd:01 276936                     /opt/OpenbravoTablero/lib/runtime/postgresql-9.4.1207.jre6.jar
7fac8f129000-7fac8f14a000 r--s 001bb000 fd:01 276988                     /opt/OpenbravoTablero/lib/runtime/poi-3.10.1.jar
7fac8f14a000-7fac8f14e000 r--s 0003d000 fd:01 276967                     /opt/OpenbravoTablero/lib/runtime/openbravo-core.jar
7fac8f14e000-7fac8f160000 r--s 001fc000 fd:01 276962                     /opt/OpenbravoTablero/lib/runtime/ojdbc6.jar
7fac8f160000-7fac8f162000 r--s 00018000 fd:01 276976                     /opt/OpenbravoTablero/lib/runtime/nekohtml.jar
7fac8f162000-7fac8f169000 r--s 00072000 fd:01 276938                     /opt/OpenbravoTablero/lib/runtime/mail-1.4.4.jar
7fac8f169000-7fac8f172000 r--s 0006d000 fd:01 276986                     /opt/OpenbravoTablero/lib/runtime/log4j-1.2.16.jar
7fac8f172000-7fac8f17e000 r--s 000aa000 fd:01 276965                     /opt/OpenbravoTablero/lib/runtime/jxl-2.6.10.jar
7fac8f17e000-7fac8f180000 r--s 00001000 fd:01 276949                     /opt/OpenbravoTablero/lib/runtime/jta.jar
7fac8f180000-7fac8f190000 r--s 0013f000 fd:01 276933                     /opt/OpenbravoTablero/lib/runtime/jfreechart-1.0.12.jar
7fac8f190000-7fac8f192000 r--s 00010000 fd:01 276951                     /opt/OpenbravoTablero/lib/runtime/jettison-1.3.jar
7fac8f192000-7fac8f1a4000 r--s 00223000 fd:01 276971                     /opt/OpenbravoTablero/lib/runtime/jdt-compiler-4.4.2.jar
7fac8f1a4000-7fac8f1aa000 r--s 00046000 fd:01 276952                     /opt/OpenbravoTablero/lib/runtime/jcommon-1.0.15.jar
7fac8f1aa000-7fac8f1ac000 r--s 00006000 fd:01 276996                     /opt/OpenbravoTablero/lib/runtime/jaxrpc.jar
7fac8f1ac000-7fac8f1b5000 r--s 00095000 fd:01 276953                     /opt/OpenbravoTablero/lib/runtime/javassist-3.14.0-GA.jar
7fac8f1b5000-7fac8f1b7000 r--s 0025c000 fd:01 276930                     /opt/OpenbravoTablero/lib/runtime/jasperreports-fonts-6.0.0.jar
7fac8f1b7000-7fac8f213000 r--s 0048c000 fd:01 276937                     /opt/OpenbravoTablero/lib/runtime/jasperreports-6.0.0.jar
7fac8f213000-7fac8f225000 r--s 00105000 fd:01 276987                     /opt/OpenbravoTablero/lib/runtime/jackson-databind-2.5.1.jar
7fac8f225000-7fac8f229000 r--s 00035000 fd:01 276966                     /opt/OpenbravoTablero/lib/runtime/jackson-core-2.5.1.jar
7fac8f229000-7fac8f22b000 r--s 00008000 fd:01 276981                     /opt/OpenbravoTablero/lib/runtime/jackson-annotations-2.5.1.jar
7fac8f22b000-7fac8f241000 r--s 001ef000 fd:01 276956                     /opt/OpenbravoTablero/lib/runtime/itextpdf-5.5.0.jar
7fac8f241000-7fac8f243000 r--s 0000c000 fd:01 276955                     /opt/OpenbravoTablero/lib/runtime/itext-pdfa-5.5.0.jar
7fac8f243000-7fac8f24f000 r--s 00108000 fd:01 276978                     /opt/OpenbravoTablero/lib/runtime/iText-2.1.7.jar
7fac8f24f000-7fac8f297000 r--s 003aa000 fd:01 276946                     /opt/OpenbravoTablero/lib/runtime/hibernate3-patched.jar
7fac8f297000-7fac8f29c000 r--s 00014000 fd:01 276984                     /opt/OpenbravoTablero/lib/runtime/hibernate-jpa-2.0-api-1.0.0.Final.jar
7fac8f29c000-7fac8f2ac000 r--s 000c8000 fd:01 276932                     /opt/OpenbravoTablero/lib/runtime/freemarker-2.3.16.jar
7fac8f2ac000-7fac8f2e5000 r--s 00329000 fd:01 276998                     /opt/OpenbravoTablero/lib/runtime/fop-1.1.jar
7fac8f2e5000-7fac8f2ea000 r--s 00048000 fd:01 276974                     /opt/OpenbravoTablero/lib/runtime/dom4j-1.6.1.jar
7fac8f2ea000-7fac8f2ed000 r--s 00016000 fd:01 276959                     /opt/OpenbravoTablero/lib/runtime/commons-pool-1.5.6.jar
7fac8f2ed000-7fac8f2ef000 r--s 0000d000 fd:01 276935                     /opt/OpenbravoTablero/lib/runtime/commons-logging-1.1.1.jar
7fac8f2ef000-7fac8f2f4000 r--s 00041000 fd:01 276993                     /opt/OpenbravoTablero/lib/runtime/commons-lang-2.6.jar
7fac8f2f4000-7fac8f2f8000 r--s 0002a000 fd:01 276973                     /opt/OpenbravoTablero/lib/runtime/commons-io-2.4.jar
7fac8f2f8000-7fac8f2fa000 r--s 0000d000 fd:01 276958                     /opt/OpenbravoTablero/lib/runtime/commons-fileupload-1.2.2.jar
7fac8f2fa000-7fac8f2fd000 r--s 0000f000 fd:01 276972                     /opt/OpenbravoTablero/lib/runtime/commons-discovery-0.2.jar
7fac8f2fd000-7fac8f301000 r--s 00020000 fd:01 276995                     /opt/OpenbravoTablero/lib/runtime/commons-digester-1.8.1.jar
7fac8f301000-7fac8f304000 r--s 00025000 fd:01 276982                     /opt/OpenbravoTablero/lib/runtime/commons-dbcp-1.4.jar
7fac8f304000-7fac8f312000 r--s 0007f000 fd:01 276944                     /opt/OpenbravoTablero/lib/runtime/commons-collections-3.2.1.jar
7fac8f312000-7fac8f314000 r--s 00010000 fd:01 276994                     /opt/OpenbravoTablero/lib/runtime/commons-codec-1.5.jar
7fac8f314000-7fac8f319000 r--s 00034000 fd:01 276979                     /opt/OpenbravoTablero/lib/runtime/commons-beanutils-1.8.3.jar
7fac8f319000-7fac8f31b000 r--s 00005000 fd:01 276941                     /opt/OpenbravoTablero/lib/runtime/catalina-ant.jar
7fac8f31b000-7fac8f31c000 r--s 00007000 fd:01 276990                     /opt/OpenbravoTablero/lib/runtime/batik-xml.jar
7fac8f31c000-7fac8f31f000 r--s 0001d000 fd:01 276969                     /opt/OpenbravoTablero/lib/runtime/batik-util.jar
7fac8f31f000-7fac8f324000 r--s 00030000 fd:01 276980                     /opt/OpenbravoTablero/lib/runtime/batik-svggen.jar
7fac8f324000-7fac8f331000 r--s 00087000 fd:01 276975                     /opt/OpenbravoTablero/lib/runtime/batik-svg-dom.jar
7fac8f331000-7fac8f334000 r--s 0000d000 fd:01 276943                     /opt/OpenbravoTablero/lib/runtime/batik-script.jar
7fac8f334000-7fac8f336000 r--s 00010000 fd:01 276983                     /opt/OpenbravoTablero/lib/runtime/batik-parser.jar
7fac8f336000-7fac8f33a000 r--s 00038000 fd:01 276963                     /opt/OpenbravoTablero/lib/runtime/batik-gvt.jar
7fac8f33a000-7fac8f33e000 r--s 00027000 fd:01 276942                     /opt/OpenbravoTablero/lib/runtime/batik-dom.jar
7fac8f33e000-7fac8f346000 r--s 00045000 fd:01 276940                     /opt/OpenbravoTablero/lib/runtime/batik-css.jar
7fac8f346000-7fac8f350000 r--s 00080000 fd:01 276968                     /opt/OpenbravoTablero/lib/runtime/batik-bridge.jar
7fac8f350000-7fac8f357000 r--s 0005c000 fd:01 276997                     /opt/OpenbravoTablero/lib/runtime/batik-awt-util.jar
7fac8f357000-7fac8f35d000 r--s 00043000 fd:01 276957                     /opt/OpenbravoTablero/lib/runtime/barcode4j-fop-ext-complete.jar
7fac8f35d000-7fac8f35e000 ---p 00000000 00:00 0 
7fac8f35e000-7fac8f45e000 rw-p 00000000 00:00 0 
7fac8f45e000-7fac8f461000 ---p 00000000 00:00 0 
7fac8f461000-7fac8f55f000 rw-p 00000000 00:00 0 
7fac8f55f000-7fac8f562000 ---p 00000000 00:00 0 
7fac8f562000-7fac8f660000 rw-p 00000000 00:00 0 
7fac8f660000-7fac8f663000 ---p 00000000 00:00 0 
7fac8f663000-7fac8f761000 rw-p 00000000 00:00 0 
7fac8f761000-7fac8f764000 ---p 00000000 00:00 0 
7fac8f764000-7fac8f862000 rw-p 00000000 00:00 0 
7fac8f862000-7fac8f9fa000 r--p 00000000 fd:01 2061                       /usr/lib/locale/locale-archive
7fac8f9fa000-7fac8f9fd000 ---p 00000000 00:00 0 
7fac8f9fd000-7fac8fafb000 rw-p 00000000 00:00 0 
7fac8fafb000-7fac8fafe000 ---p 00000000 00:00 0 
7fac8fafe000-7fac8fbfc000 rw-p 00000000 00:00 0 
7fac8fbfc000-7fac8fbfd000 ---p 00000000 00:00 0 
7fac8fbfd000-7fac90000000 rw-p 00000000 00:00 0 
7fac90000000-7fac90021000 rw-p 00000000 00:00 0 
7fac90021000-7fac94000000 ---p 00000000 00:00 0 
7fac94000000-7fac94001000 r--s 00002000 fd:01 276961                     /opt/OpenbravoTablero/lib/runtime/batik-ext.jar
7fac94001000-7fac94004000 r--s 00015000 fd:01 276928                     /opt/OpenbravoTablero/lib/runtime/batik-anim.jar
7fac94004000-7fac94018000 r--s 00173000 fd:01 276985                     /opt/OpenbravoTablero/lib/runtime/axis.jar
7fac94018000-7fac9401a000 r--s 00007000 fd:01 276964                     /opt/OpenbravoTablero/lib/runtime/axis-ant.jar
7fac9401a000-7fac9401d000 r--s 0000f000 fd:01 276947                     /opt/OpenbravoTablero/lib/runtime/avalon-framework-4.1.5.jar
7fac9401d000-7fac94022000 r--s 00068000 fd:01 276934                     /opt/OpenbravoTablero/lib/runtime/antlr-2.7.7.jar
7fac94022000-7fac9402a000 r--s 00063000 fd:01 276948                     /opt/OpenbravoTablero/lib/runtime/ant-nodeps.jar
7fac9402a000-7fac9402b000 r--s 00004000 fd:01 276931                     /opt/OpenbravoTablero/lib/runtime/ant-launcher-1.9.2.jar
7fac9402b000-7fac94631000 rw-p 00000000 00:00 0 
7fac94631000-7fac94800000 r--s 03c21000 fd:01 533088                     /usr/lib/jvm/java-8-openjdk-amd64/jre/lib/rt.jar
7fac94800000-7fac95000000 rw-p 00000000 00:00 0 
7fac95000000-7fac95ca0000 rwxp 00000000 00:00 0 
7fac95cb0000-7faca4000000 ---p 00000000 00:00 0 
7faca4000000-7faca4e8d000 rw-p 00000000 00:00 0 
7faca4e8d000-7faca8000000 ---p 00000000 00:00 0 
7faca8000000-7faca8002000 r--s 00001000 fd:01 276991                     /opt/OpenbravoTablero/lib/runtime/ant-apache-log4j-1.9.2.jar
7faca8002000-7faca8020000 r--s 001cb000 fd:01 276939                     /opt/OpenbravoTablero/lib/runtime/ant-1.9.2.jar
7faca8020000-7faca8029000 r--s 000c7000 fd:01 276919                     /opt/OpenbravoTablero/lib/build/yuicompressor-2.4.2.jar
7faca8029000-7faca802b000 r--s 00014000 fd:01 276920                     /opt/OpenbravoTablero/lib/build/servlet-api.jar
7faca802b000-7faca8034000 r--s 000be000 fd:01 276922                     /opt/OpenbravoTablero/lib/build/ob-rhino-1.6R7.jar
7faca8034000-7faca803d000 r--s 000cc000 fd:01 276921                     /opt/OpenbravoTablero/lib/build/js.jar
7faca803d000-7faca8058000 r--s 00394000 fd:01 785206                     /usr/lib/jvm/java-8-openjdk-amd64/jre/lib/ext/cldrdata.jar
7faca8058000-7faca805e000 r--s 0003a000 fd:01 785209                     /usr/lib/jvm/java-8-openjdk-amd64/jre/lib/ext/sunjce_provider.jar
7faca805e000-7faca8068000 r--s 00116000 fd:01 785211                     /usr/lib/jvm/java-8-openjdk-amd64/jre/lib/ext/localedata.jar
7faca8068000-7faca806c000 r--s 00037000 fd:01 785212                     /usr/lib/jvm/java-8-openjdk-amd64/jre/lib/ext/sunpkcs11.jar
7faca806c000-7faca8087000 r--s 001d6000 fd:01 785208                     /usr/lib/jvm/java-8-openjdk-amd64/jre/lib/ext/nashorn.jar
7faca8087000-7facaa360000 rw-p 00000000 00:00 0 
7facaa360000-7facaa361000 ---p 00000000 00:00 0 
7facaa361000-7facaa461000 rw-p 00000000 00:00 0 
7facaa461000-7facaa462000 ---p 00000000 00:00 0 
7facaa462000-7facaa571000 rw-p 00000000 00:00 0 
7facaa571000-7facaa6b8000 ---p 00000000 00:00 0 
7facaa6b8000-7facaa6c7000 rw-p 00000000 00:00 0 
7facaa6c7000-7facaa80d000 ---p 00000000 00:00 0 
7facaa80d000-7facaa8b8000 rw-p 00000000 00:00 0 
7facaa8b8000-7facaa8ec000 rw-p 00000000 00:00 0 
7facaa8ec000-7facaac79000 ---p 00000000 00:00 0 
7facaac79000-7facaac81000 r-xp 00000000 fd:01 785239                     /usr/lib/jvm/java-8-openjdk-amd64/jre/lib/amd64/libzip.so
7facaac81000-7facaae80000 ---p 00008000 fd:01 785239                     /usr/lib/jvm/java-8-openjdk-amd64/jre/lib/amd64/libzip.so
7facaae80000-7facaae81000 r--p 00007000 fd:01 785239                     /usr/lib/jvm/java-8-openjdk-amd64/jre/lib/amd64/libzip.so
7facaae81000-7facaae82000 rw-p 00008000 fd:01 785239                     /usr/lib/jvm/java-8-openjdk-amd64/jre/lib/amd64/libzip.so
7facaae82000-7facaae8d000 r-xp 00000000 fd:01 21329                      /lib/x86_64-linux-gnu/libnss_files-2.23.so
7facaae8d000-7facab08c000 ---p 0000b000 fd:01 21329                      /lib/x86_64-linux-gnu/libnss_files-2.23.so
7facab08c000-7facab08d000 r--p 0000a000 fd:01 21329                      /lib/x86_64-linux-gnu/libnss_files-2.23.so
7facab08d000-7facab08e000 rw-p 0000b000 fd:01 21329                      /lib/x86_64-linux-gnu/libnss_files-2.23.so
7facab08e000-7facab094000 rw-p 00000000 00:00 0 
7facab094000-7facab09f000 r-xp 00000000 fd:01 21341                      /lib/x86_64-linux-gnu/libnss_nis-2.23.so
7facab09f000-7facab29e000 ---p 0000b000 fd:01 21341                      /lib/x86_64-linux-gnu/libnss_nis-2.23.so
7facab29e000-7facab29f000 r--p 0000a000 fd:01 21341                      /lib/x86_64-linux-gnu/libnss_nis-2.23.so
7facab29f000-7facab2a0000 rw-p 0000b000 fd:01 21341                      /lib/x86_64-linux-gnu/libnss_nis-2.23.so
7facab2a0000-7facab2b6000 r-xp 00000000 fd:01 21246                      /lib/x86_64-linux-gnu/libnsl-2.23.so
7facab2b6000-7facab4b5000 ---p 00016000 fd:01 21246                      /lib/x86_64-linux-gnu/libnsl-2.23.so
7facab4b5000-7facab4b6000 r--p 00015000 fd:01 21246                      /lib/x86_64-linux-gnu/libnsl-2.23.so
7facab4b6000-7facab4b7000 rw-p 00016000 fd:01 21246                      /lib/x86_64-linux-gnu/libnsl-2.23.so
7facab4b7000-7facab4b9000 rw-p 00000000 00:00 0 
7facab4b9000-7facab4c1000 r-xp 00000000 fd:01 21298                      /lib/x86_64-linux-gnu/libnss_compat-2.23.so
7facab4c1000-7facab6c0000 ---p 00008000 fd:01 21298                      /lib/x86_64-linux-gnu/libnss_compat-2.23.so
7facab6c0000-7facab6c1000 r--p 00007000 fd:01 21298                      /lib/x86_64-linux-gnu/libnss_compat-2.23.so
7facab6c1000-7facab6c2000 rw-p 00008000 fd:01 21298                      /lib/x86_64-linux-gnu/libnss_compat-2.23.so
7facab6c2000-7facab6ef000 r-xp 00000000 fd:01 785224                     /usr/lib/jvm/java-8-openjdk-amd64/jre/lib/amd64/libjava.so
7facab6ef000-7facab8ee000 ---p 0002d000 fd:01 785224                     /usr/lib/jvm/java-8-openjdk-amd64/jre/lib/amd64/libjava.so
7facab8ee000-7facab8ef000 r--p 0002c000 fd:01 785224                     /usr/lib/jvm/java-8-openjdk-amd64/jre/lib/amd64/libjava.so
7facab8ef000-7facab8f1000 rw-p 0002d000 fd:01 785224                     /usr/lib/jvm/java-8-openjdk-amd64/jre/lib/amd64/libjava.so
7facab8f1000-7facab900000 r-xp 00000000 fd:01 785237                     /usr/lib/jvm/java-8-openjdk-amd64/jre/lib/amd64/libverify.so
7facab900000-7facabaff000 ---p 0000f000 fd:01 785237                     /usr/lib/jvm/java-8-openjdk-amd64/jre/lib/amd64/libverify.so
7facabaff000-7facabb01000 r--p 0000e000 fd:01 785237                     /usr/lib/jvm/java-8-openjdk-amd64/jre/lib/amd64/libverify.so
7facabb01000-7facabb02000 rw-p 00010000 fd:01 785237                     /usr/lib/jvm/java-8-openjdk-amd64/jre/lib/amd64/libverify.so
7facabb02000-7facabb09000 r-xp 00000000 fd:01 21343                      /lib/x86_64-linux-gnu/librt-2.23.so
7facabb09000-7facabd08000 ---p 00007000 fd:01 21343                      /lib/x86_64-linux-gnu/librt-2.23.so
7facabd08000-7facabd09000 r--p 00006000 fd:01 21343                      /lib/x86_64-linux-gnu/librt-2.23.so
7facabd09000-7facabd0a000 rw-p 00007000 fd:01 21343                      /lib/x86_64-linux-gnu/librt-2.23.so
7facabd0a000-7facabd20000 r-xp 00000000 fd:01 2039                       /lib/x86_64-linux-gnu/libgcc_s.so.1
7facabd20000-7facabf1f000 ---p 00016000 fd:01 2039                       /lib/x86_64-linux-gnu/libgcc_s.so.1
7facabf1f000-7facabf20000 rw-p 00015000 fd:01 2039                       /lib/x86_64-linux-gnu/libgcc_s.so.1
7facabf20000-7facac028000 r-xp 00000000 fd:01 21243                      /lib/x86_64-linux-gnu/libm-2.23.so
7facac028000-7facac227000 ---p 00108000 fd:01 21243                      /lib/x86_64-linux-gnu/libm-2.23.so
7facac227000-7facac228000 r--p 00107000 fd:01 21243                      /lib/x86_64-linux-gnu/libm-2.23.so
7facac228000-7facac229000 rw-p 00108000 fd:01 21243                      /lib/x86_64-linux-gnu/libm-2.23.so
7facac229000-7facac39b000 r-xp 00000000 fd:01 70537                      /usr/lib/x86_64-linux-gnu/libstdc++.so.6.0.21
7facac39b000-7facac59b000 ---p 00172000 fd:01 70537                      /usr/lib/x86_64-linux-gnu/libstdc++.so.6.0.21
7facac59b000-7facac5a5000 r--p 00172000 fd:01 70537                      /usr/lib/x86_64-linux-gnu/libstdc++.so.6.0.21
7facac5a5000-7facac5a7000 rw-p 0017c000 fd:01 70537                      /usr/lib/x86_64-linux-gnu/libstdc++.so.6.0.21
7facac5a7000-7facac5ab000 rw-p 00000000 00:00 0 
7facac5ab000-7facad1fd000 r-xp 00000000 fd:01 1046829                    /usr/lib/jvm/java-8-openjdk-amd64/jre/lib/amd64/server/libjvm.so
7facad1fd000-7facad3fd000 ---p 00c52000 fd:01 1046829                    /usr/lib/jvm/java-8-openjdk-amd64/jre/lib/amd64/server/libjvm.so
7facad3fd000-7facad490000 r--p 00c52000 fd:01 1046829                    /usr/lib/jvm/java-8-openjdk-amd64/jre/lib/amd64/server/libjvm.so
7facad490000-7facad4b9000 rw-p 00ce5000 fd:01 1046829                    /usr/lib/jvm/java-8-openjdk-amd64/jre/lib/amd64/server/libjvm.so
7facad4b9000-7facad4e9000 rw-p 00000000 00:00 0 
7facad4e9000-7facad501000 r-xp 00000000 fd:01 21248                      /lib/x86_64-linux-gnu/libpthread-2.23.so
7facad501000-7facad700000 ---p 00018000 fd:01 21248                      /lib/x86_64-linux-gnu/libpthread-2.23.so
7facad700000-7facad701000 r--p 00017000 fd:01 21248                      /lib/x86_64-linux-gnu/libpthread-2.23.so
7facad701000-7facad702000 rw-p 00018000 fd:01 21248                      /lib/x86_64-linux-gnu/libpthread-2.23.so
7facad702000-7facad706000 rw-p 00000000 00:00 0 
7facad706000-7facad709000 r-xp 00000000 fd:01 21251                      /lib/x86_64-linux-gnu/libdl-2.23.so
7facad709000-7facad908000 ---p 00003000 fd:01 21251                      /lib/x86_64-linux-gnu/libdl-2.23.so
7facad908000-7facad909000 r--p 00002000 fd:01 21251                      /lib/x86_64-linux-gnu/libdl-2.23.so
7facad909000-7facad90a000 rw-p 00003000 fd:01 21251                      /lib/x86_64-linux-gnu/libdl-2.23.so
7facad90a000-7facad923000 r-xp 00000000 fd:01 2193                       /lib/x86_64-linux-gnu/libz.so.1.2.8
7facad923000-7facadb22000 ---p 00019000 fd:01 2193                       /lib/x86_64-linux-gnu/libz.so.1.2.8
7facadb22000-7facadb23000 r--p 00018000 fd:01 2193                       /lib/x86_64-linux-gnu/libz.so.1.2.8
7facadb23000-7facadb24000 rw-p 00019000 fd:01 2193                       /lib/x86_64-linux-gnu/libz.so.1.2.8
7facadb24000-7facadce4000 r-xp 00000000 fd:01 21249                      /lib/x86_64-linux-gnu/libc-2.23.so
7facadce4000-7facadee4000 ---p 001c0000 fd:01 21249                      /lib/x86_64-linux-gnu/libc-2.23.so
7facadee4000-7facadee8000 r--p 001c0000 fd:01 21249                      /lib/x86_64-linux-gnu/libc-2.23.so
7facadee8000-7facadeea000 rw-p 001c4000 fd:01 21249                      /lib/x86_64-linux-gnu/libc-2.23.so
7facadeea000-7facadeee000 rw-p 00000000 00:00 0 
7facadeee000-7facadefb000 r-xp 00000000 fd:01 785235                     /usr/lib/jvm/java-8-openjdk-amd64/jre/lib/amd64/jli/libjli.so
7facadefb000-7facae0fb000 ---p 0000d000 fd:01 785235                     /usr/lib/jvm/java-8-openjdk-amd64/jre/lib/amd64/jli/libjli.so
7facae0fb000-7facae0fc000 r--p 0000d000 fd:01 785235                     /usr/lib/jvm/java-8-openjdk-amd64/jre/lib/amd64/jli/libjli.so
7facae0fc000-7facae0fd000 rw-p 0000e000 fd:01 785235                     /usr/lib/jvm/java-8-openjdk-amd64/jre/lib/amd64/jli/libjli.so
7facae0fd000-7facae123000 r-xp 00000000 fd:01 21247                      /lib/x86_64-linux-gnu/ld-2.23.so
7facae123000-7facae125000 r--s 00001000 fd:01 785214                     /usr/lib/jvm/java-8-openjdk-amd64/jre/lib/ext/dnsns.jar
7facae125000-7facae127000 r--s 00008000 fd:01 785210                     /usr/lib/jvm/java-8-openjdk-amd64/jre/lib/ext/sunec.jar
7facae127000-7facae20c000 rw-p 00000000 00:00 0 
7facae20c000-7facae214000 rw-s 00000000 fd:01 70483                      /tmp/hsperfdata_root/30287
7facae214000-7facae217000 ---p 00000000 00:00 0 
7facae217000-7facae319000 rw-p 00000000 00:00 0 
7facae319000-7facae31a000 r--s 00001000 fd:01 276918                     /opt/OpenbravoTablero/lib/build/YUIAnt.jar
7facae31a000-7facae31b000 r--s 00010000 fd:01 785207                     /usr/lib/jvm/java-8-openjdk-amd64/jre/lib/ext/zipfs.jar
7facae31b000-7facae31e000 r--s 0000f000 fd:01 785205                     /usr/lib/jvm/java-8-openjdk-amd64/jre/lib/ext/icedtea-sound.jar
7facae31e000-7facae31f000 r--s 0000a000 fd:01 785213                     /usr/lib/jvm/java-8-openjdk-amd64/jre/lib/ext/jaccess.jar
7facae31f000-7facae320000 rw-p 00000000 00:00 0 
7facae320000-7facae321000 r--p 00000000 00:00 0 
7facae321000-7facae322000 rw-p 00000000 00:00 0 
7facae322000-7facae323000 r--p 00025000 fd:01 21247                      /lib/x86_64-linux-gnu/ld-2.23.so
7facae323000-7facae324000 rw-p 00026000 fd:01 21247                      /lib/x86_64-linux-gnu/ld-2.23.so
7facae324000-7facae325000 rw-p 00000000 00:00 0 
7ffd2a009000-7ffd2a02d000 rw-p 00000000 00:00 0                          [stack]
7ffd2a0db000-7ffd2a0de000 r--p 00000000 00:00 0                          [vvar]
7ffd2a0de000-7ffd2a0e0000 r-xp 00000000 00:00 0                          [vdso]
ffffffffff600000-ffffffffff601000 r-xp 00000000 00:00 0                  [vsyscall]

VM Arguments:
jvm_args: -Xmx1024M 
java_command: org.openbravo.base.gen.GenerateEntitiesTask /opt/OpenbravoTablero/src false
java_class_path (initial): /opt/OpenbravoTablero/modules/org.openbravo.advpaymentmngt/build/classes:/opt/OpenbravoTablero/modules/org.openbravo.advpaymentmngt/build/classes/org:/opt/OpenbravoTablero/modules/org.openbravo.advpaymentmngt/build/classes/org/openbravo:/opt/OpenbravoTablero/modules/org.openbravo.advpaymentmngt/build/classes/org/openbravo/advpaymentmngt:/opt/OpenbravoTablero/modules/org.openbravo.advpaymentmngt/build/classes/org/openbravo/advpaymentmngt/buildvalidation:/opt/OpenbravoTablero/modules/org.openbravo.advpaymentmngt/build/classes/org/openbravo/advpaymentmngt/modulescript:/opt/OpenbravoTablero/modules/org.openbravo.userinterface.selector/build/classes:/opt/OpenbravoTablero/modules/org.openbravo.userinterface.selector/build/classes/org:/opt/OpenbravoTablero/modules/org.openbravo.userinterface.selector/build/classes/org/openbravo:/opt/OpenbravoTablero/modules/org.openbravo.userinterface.selector/build/classes/org/openbravo/userinterface:/opt/OpenbravoTablero/modules/org.openbravo.userinterface.selector/build/classes/org/openbravo/userinterface/selector:/opt/OpenbravoTablero/modules/org.openbravo.userinterface.skin.250to300Comp/build/classes:/opt/OpenbravoTablero/modules/org.openbravo.userinterface.skin.250to300Comp/build/classes/org:/opt/OpenbravoTablero/modules/org.openbravo.userinterface.skin.250to300Comp/build/classes/org/openbravo:/opt/OpenbravoTablero/modules/org.openbravo.userinterface.skin.250to300Comp/build/classes/org/openbravo/userinterface:/opt/OpenbravoTablero/modules/org.openbravo.userinterface.skin.250to300Comp/build/classes/org/openbravo/userinterface/skin:/opt/OpenbravoTablero/modules/org.openbravo.userinterface.skin.250to300Comp/build/classes/org/openbravo/userinterface/skin/s250to300Comp:/opt/OpenbravoTablero/modules/org.openbravo.userinterface.skin.250to300Comp/build/classes/org/openbravo/userinterface/skin/s250to300Comp/modulescript:/opt/OpenbravoTablero/modules/org.openbravo.v3.datasets/build/classes:/opt/OpenbravoTablero/mod
Launcher Type: SUN_STANDARD

Environment Variables:
JAVA_HOME=/usr/lib/jvm/java-8-openjdk-amd64
PATH=/usr/local/sbin:/usr/local/bin:/usr/sbin:/usr/bin:/sbin:/bin:/usr/games:/usr/local/games:/snap/bin
SHELL=/bin/bash

Signal Handlers:
SIGSEGV: [libjvm.so+0xa69040], sa_mask[0]=11111111011111111101111111111110, sa_flags=SA_RESTART|SA_SIGINFO
SIGBUS: [libjvm.so+0xa69040], sa_mask[0]=11111111011111111101111111111110, sa_flags=SA_RESTART|SA_SIGINFO
SIGFPE: [libjvm.so+0x8b2170], sa_mask[0]=11111111011111111101111111111110, sa_flags=SA_RESTART|SA_SIGINFO
SIGPIPE: [libjvm.so+0x8b2170], sa_mask[0]=11111111011111111101111111111110, sa_flags=SA_RESTART|SA_SIGINFO
SIGXFSZ: [libjvm.so+0x8b2170], sa_mask[0]=11111111011111111101111111111110, sa_flags=SA_RESTART|SA_SIGINFO
SIGILL: [libjvm.so+0x8b2170], sa_mask[0]=11111111011111111101111111111110, sa_flags=SA_RESTART|SA_SIGINFO
SIGUSR1: SIG_DFL, sa_mask[0]=00000000000000000000000000000000, sa_flags=none
SIGUSR2: [libjvm.so+0x8b2020], sa_mask[0]=00100000000000000000000000000000, sa_flags=SA_RESTART|SA_SIGINFO
SIGHUP: [libjvm.so+0x8b24f0], sa_mask[0]=11111111011111111101111111111110, sa_flags=SA_RESTART|SA_SIGINFO
SIGINT: [libjvm.so+0x8b24f0], sa_mask[0]=11111111011111111101111111111110, sa_flags=SA_RESTART|SA_SIGINFO
SIGTERM: [libjvm.so+0x8b24f0], sa_mask[0]=11111111011111111101111111111110, sa_flags=SA_RESTART|SA_SIGINFO
SIGQUIT: [libjvm.so+0x8b24f0], sa_mask[0]=11111111011111111101111111111110, sa_flags=SA_RESTART|SA_SIGINFO


---------------  S Y S T E M  ---------------

OS:DISTRIB_ID=Ubuntu
DISTRIB_RELEASE=16.04
DISTRIB_CODENAME=xenial
DISTRIB_DESCRIPTION="Ubuntu 16.04.3 LTS"

uname:Linux 4.4.0-112-generic #135-Ubuntu SMP Fri Jan 19 11:48:36 UTC 2018 x86_64
libc:glibc 2.23 NPTL 2.23 
rlimit: STACK 8192k, CORE 0k, NPROC 11959, NOFILE 1048576, AS infinity
load average:0.36 0.08 0.03

/proc/meminfo:
MemTotal:        3080336 kB
MemFree:           59544 kB
MemAvailable:          0 kB
Buffers:             280 kB
Cached:            37088 kB
SwapCached:            0 kB
Active:          2914136 kB
Inactive:          33784 kB
Active(anon):    2913760 kB
Inactive(anon):    33192 kB
Active(file):        376 kB
Inactive(file):      592 kB
Unevictable:        3652 kB
Mlocked:            3652 kB
SwapTotal:             0 kB
SwapFree:              0 kB
Dirty:                 8 kB
Writeback:             0 kB
AnonPages:       2914352 kB
Mapped:             4732 kB
Shmem:             33828 kB
Slab:              31176 kB
SReclaimable:      14092 kB
SUnreclaim:        17084 kB
KernelStack:        5328 kB
PageTables:         9824 kB
NFS_Unstable:          0 kB
Bounce:                0 kB
WritebackTmp:          0 kB
CommitLimit:     1540168 kB
Committed_AS:    3616804 kB
VmallocTotal:   34359738367 kB
VmallocUsed:           0 kB
VmallocChunk:          0 kB
HardwareCorrupted:     0 kB
AnonHugePages:   2068480 kB
CmaTotal:              0 kB
CmaFree:               0 kB
HugePages_Total:       0
HugePages_Free:        0
HugePages_Rsvd:        0
HugePages_Surp:        0
Hugepagesize:       2048 kB
DirectMap4k:       47084 kB
DirectMap2M:     3098624 kB
DirectMap1G:           0 kB


CPU:total 2 (initial active 2) (1 cores per cpu, 1 threads per core) family 6 model 79 stepping 1, cmov, cx8, fxsr, mmx, sse, sse2, sse3, ssse3, sse4.1, sse4.2, popcnt, avx, avx2, aes, clmul, erms, rtm, 3dnowpref, lzcnt, tsc, bmi1, bmi2, adx

/proc/cpuinfo:
processor	: 0
vendor_id	: GenuineIntel
cpu family	: 6
model		: 79
model name	: Intel(R) Xeon(R) CPU E5-2697A v4 @ 2.60GHz
stepping	: 1
microcode	: 0x1
cpu MHz		: 2599.996
cache size	: 40960 KB
physical id	: 0
siblings	: 1
core id		: 0
cpu cores	: 1
apicid		: 0
initial apicid	: 0
fpu		: yes
fpu_exception	: yes
cpuid level	: 13
wp		: yes
flags		: fpu vme de pse tsc msr pae mce cx8 apic sep mtrr pge mca cmov pat pse36 clflush mmx fxsr sse sse2 ss syscall nx pdpe1gb rdtscp lm constant_tsc arch_perfmon rep_good nopl eagerfpu pni pclmulqdq vmx ssse3 fma cx16 pcid sse4_1 sse4_2 x2apic movbe popcnt tsc_deadline_timer aes xsave avx f16c rdrand hypervisor lahf_lm abm 3dnowprefetch invpcid_single kaiser tpr_shadow vnmi flexpriority ept vpid fsgsbase tsc_adjust bmi1 hle avx2 smep bmi2 erms invpcid rtm rdseed adx smap xsaveopt
bugs		:
bogomips	: 5199.99
clflush size	: 64
cache_alignment	: 64
address sizes	: 40 bits physical, 48 bits virtual
power management:

processor	: 1
vendor_id	: GenuineIntel
cpu family	: 6
model		: 79
model name	: Intel(R) Xeon(R) CPU E5-2697A v4 @ 2.60GHz
stepping	: 1
microcode	: 0x1
cpu MHz		: 2599.996
cache size	: 40960 KB
physical id	: 1
siblings	: 1
core id		: 0
cpu cores	: 1
apicid		: 1
initial apicid	: 1
fpu		: yes
fpu_exception	: yes
cpuid level	: 13
wp		: yes
flags		: fpu vme de pse tsc msr pae mce cx8 apic sep mtrr pge mca cmov pat pse36 clflush mmx fxsr sse sse2 ss syscall nx pdpe1gb rdtscp lm constant_tsc arch_perfmon rep_good nopl eagerfpu pni pclmulqdq vmx ssse3 fma cx16 pcid sse4_1 sse4_2 x2apic movbe popcnt tsc_deadline_timer aes xsave avx f16c rdrand hypervisor lahf_lm abm 3dnowprefetch invpcid_single kaiser tpr_shadow vnmi flexpriority ept vpid fsgsbase tsc_adjust bmi1 hle avx2 smep bmi2 erms invpcid rtm rdseed adx smap xsaveopt
bugs		:
bogomips	: 5199.99
clflush size	: 64
cache_alignment	: 64
address sizes	: 40 bits physical, 48 bits virtual
power management:



Memory: 4k page, physical 3080336k(59920k free), swap 0k(0k free)

vm_info: OpenJDK 64-Bit Server VM (25.151-b12) for linux-amd64 JRE (1.8.0_151-8u151-b12-0ubuntu0.16.04.2-b12), built on Oct 27 2017 21:59:02 by "buildd" with gcc 5.4.0 20160609

time: Thu Feb 22 00:43:58 2018
elapsed time: 9 seconds (0d 0h 0m 9s)

