#
# There is insufficient memory for the Java Runtime Environment to continue.
# Native memory allocation (malloc) failed to allocate 131072000 bytes for committing reserved memory.
# Possible reasons:
#   The system is out of physical RAM or swap space
#   In 32 bit mode, the process size limit was hit
# Possible solutions:
#   Reduce memory load on the system
#   Increase physical memory or swap space
#   Check if swap backing store is full
#   Use 64 bit Java on a 64 bit OS
#   Decrease Java heap size (-Xmx/-Xms)
#   Decrease number of Java threads
#   Decrease Java thread stack sizes (-Xss)
#   Set larger code cache with -XX:ReservedCodeCacheSize=
# This output file may be truncated or incomplete.
#
#  Out of Memory Error (os_linux.cpp:2756), pid=5318, tid=139712001701632
#
# JRE version: Java(TM) SE Runtime Environment (7.0_80-b15) (build 1.7.0_80-b15)
# Java VM: Java HotSpot(TM) 64-Bit Server VM (24.80-b11 mixed mode linux-amd64 compressed oops)
# Failed to write core dump. Core dumps have been disabled. To enable core dumping, try "ulimit -c unlimited" before starting Java again
#

---------------  T H R E A D  ---------------

Current thread (0x00007f1140068800):  VMThread [stack: 0x00007f113c2b7000,0x00007f113c3b8000] [id=5325]

Stack: [0x00007f113c2b7000,0x00007f113c3b8000],  sp=0x00007f113c3b6180,  free space=1020k
Native frames: (J=compiled Java code, j=interpreted, Vv=VM code, C=native code)
V  [libjvm.so+0x9a320a]  VMError::report_and_die()+0x2ea
V  [libjvm.so+0x498d3b]  report_vm_out_of_memory(char const*, int, unsigned long, char const*)+0x9b
V  [libjvm.so+0x82191e]  os::Linux::commit_memory_impl(char*, unsigned long, bool)+0xfe
V  [libjvm.so+0x821e69]  os::pd_commit_memory(char*, unsigned long, unsigned long, bool)+0x29
V  [libjvm.so+0x81bb6a]  os::commit_memory(char*, unsigned long, unsigned long, bool)+0x2a
V  [libjvm.so+0x88d623]  PSVirtualSpace::expand_by(unsigned long)+0x53
V  [libjvm.so+0x88e9f8]  PSYoungGen::resize_generation(unsigned long, unsigned long)+0xf8
V  [libjvm.so+0x88db62]  PSYoungGen::resize(unsigned long, unsigned long)+0x22
V  [libjvm.so+0x88af1d]  PSScavenge::invoke_no_policy()+0xf3d
V  [libjvm.so+0x88b761]  PSScavenge::invoke()+0x41
V  [libjvm.so+0x843f40]  ParallelScavengeHeap::failed_mem_allocate(unsigned long)+0x70
V  [libjvm.so+0x9a4a97]  VM_ParallelGCFailedAllocation::doit()+0x97
V  [libjvm.so+0x9abf35]  VM_Operation::evaluate()+0x55
V  [libjvm.so+0x9aa2fa]  VMThread::evaluate_operation(VM_Operation*)+0xba
V  [libjvm.so+0x9aa67e]  VMThread::loop()+0x1ce
V  [libjvm.so+0x9aaaf0]  VMThread::run()+0x70
V  [libjvm.so+0x8238c8]  java_start(Thread*)+0x108

VM_Operation (0x00007f114762f390): ParallelGCFailedAllocation, mode: safepoint, requested by thread 0x00007f114000d000


---------------  P R O C E S S  ---------------

Java Threads: ( => current thread )
  0x00007f1140097000 JavaThread "Service Thread" daemon [_thread_blocked, id=5331, stack(0x00007f112d64b000,0x00007f112d74c000)]
  0x00007f1140094800 JavaThread "C2 CompilerThread1" daemon [_thread_blocked, id=5330, stack(0x00007f112d74c000,0x00007f112d84d000)]
  0x00007f1140092000 JavaThread "C2 CompilerThread0" daemon [_thread_blocked, id=5329, stack(0x00007f112d84d000,0x00007f112d94e000)]
  0x00007f114008f800 JavaThread "Signal Dispatcher" daemon [_thread_blocked, id=5328, stack(0x00007f112d94e000,0x00007f112da4f000)]
  0x00007f114006f000 JavaThread "Finalizer" daemon [_thread_blocked, id=5327, stack(0x00007f113c0b5000,0x00007f113c1b6000)]
  0x00007f114006d000 JavaThread "Reference Handler" daemon [_thread_blocked, id=5326, stack(0x00007f113c1b6000,0x00007f113c2b7000)]
  0x00007f114000d000 JavaThread "main" [_thread_blocked, id=5322, stack(0x00007f1147530000,0x00007f1147631000)]

Other Threads:
=>0x00007f1140068800 VMThread [stack: 0x00007f113c2b7000,0x00007f113c3b8000] [id=5325]
  0x00007f11400a2000 WatcherThread [stack: 0x00007f112d54a000,0x00007f112d64b000] [id=5332]

VM state:at safepoint (normal execution)

VM Mutex/Monitor currently owned by a thread:  ([mutex/lock_event])
[0x00007f1140009730] Threads_lock - owner thread: 0x00007f1140068800
[0x00007f1140009c30] Heap_lock - owner thread: 0x00007f114000d000

Heap
 PSYoungGen      total 138752K, used 11277K [0x00000000eaa80000, 0x00000000f4180000, 0x0000000100000000)
  eden space 126976K, 0% used [0x00000000eaa80000,0x00000000eaa80000,0x00000000f2680000)
  from space 11776K, 95% used [0x00000000f2680000,0x00000000f3183578,0x00000000f3200000)
  to   space 7680K, 0% used [0x00000000f3200000,0x00000000f3200000,0x00000000f3980000)
 ParOldGen       total 41984K, used 11275K [0x00000000c0000000, 0x00000000c2900000, 0x00000000eaa80000)
  object space 41984K, 26% used [0x00000000c0000000,0x00000000c0b02fc0,0x00000000c2900000)
 PSPermGen       total 21504K, used 12930K [0x00000000bae00000, 0x00000000bc300000, 0x00000000c0000000)
  object space 21504K, 60% used [0x00000000bae00000,0x00000000bbaa0818,0x00000000bc300000)

Card table byte_map: [0x00007f11445d4000,0x00007f11447fe000] byte_map_base: 0x00007f1143ffd000

Polling page: 0x00007f114763b000

Code Cache  [0x00007f113d000000, 0x00007f113d270000, 0x00007f1140000000)
 total_blobs=836 nmethods=504 adapters=285 free_code_cache=47456Kb largest_free_block=48491648

Compilation events (10 events):
Event: 37.334 Thread 0x00007f1140092000 nmethod 544 0x00007f113d1b4310 code [0x00007f113d1b4440, 0x00007f113d1b4498]
Event: 37.335 Thread 0x00007f1140092000  545             java.util.regex.ASCII::isUpper (18 bytes)
Event: 37.335 Thread 0x00007f1140092000 nmethod 545 0x00007f113d1a64d0 code [0x00007f113d1a6600, 0x00007f113d1a6658]
Event: 37.335 Thread 0x00007f1140092000  546             java.util.regex.Matcher::find (69 bytes)
Event: 37.340 Thread 0x00007f1140092000 nmethod 546 0x00007f113d0806d0 code [0x00007f113d080820, 0x00007f113d0809f8]
Event: 37.340 Thread 0x00007f1140092000  547             java.util.regex.Pattern::sequence (553 bytes)
Event: 37.366 Thread 0x00007f1140092000 nmethod 547 0x00007f113d1b9350 code [0x00007f113d1b9560, 0x00007f113d1b9d90]
Event: 37.369 Thread 0x00007f1140094800 nmethod 542 0x00007f113d1bac50 code [0x00007f113d1bae40, 0x00007f113d1bb878]
Event: 37.383 Thread 0x00007f1140092000  548   !         java.util.regex.Pattern::matcher (44 bytes)
Event: 37.399 Thread 0x00007f1140092000 nmethod 548 0x00007f113d0c7750 code [0x00007f113d0c78c0, 0x00007f113d0c7cd8]

GC Heap History (10 events):
Event: 1.636 GC heap after
Heap after GC invocations=2 (full 0):
 PSYoungGen      total 35328K, used 1293K [0x00000000eaa80000, 0x00000000ecf80000, 0x0000000100000000)
  eden space 32768K, 0% used [0x00000000eaa80000,0x00000000eaa80000,0x00000000eca80000)
  from space 2560K, 50% used [0x00000000ecd00000,0x00000000ece435b8,0x00000000ecf80000)
  to   space 2560K, 0% used [0x00000000eca80000,0x00000000eca80000,0x00000000ecd00000)
 ParOldGen       total 41984K, used 8K [0x00000000c0000000, 0x00000000c2900000, 0x00000000eaa80000)
  object space 41984K, 0% used [0x00000000c0000000,0x00000000c0002000,0x00000000c2900000)
 PSPermGen       total 21504K, used 5380K [0x00000000bae00000, 0x00000000bc300000, 0x00000000c0000000)
  object space 21504K, 25% used [0x00000000bae00000,0x00000000bb341220,0x00000000bc300000)
}
Event: 2.798 GC heap before
{Heap before GC invocations=3 (full 0):
 PSYoungGen      total 35328K, used 34061K [0x00000000eaa80000, 0x00000000ecf80000, 0x0000000100000000)
  eden space 32768K, 100% used [0x00000000eaa80000,0x00000000eca80000,0x00000000eca80000)
  from space 2560K, 50% used [0x00000000ecd00000,0x00000000ece435b8,0x00000000ecf80000)
  to   space 2560K, 0% used [0x00000000eca80000,0x00000000eca80000,0x00000000ecd00000)
 ParOldGen       total 41984K, used 8K [0x00000000c0000000, 0x00000000c2900000, 0x00000000eaa80000)
  object space 41984K, 0% used [0x00000000c0000000,0x00000000c0002000,0x00000000c2900000)
 PSPermGen       total 21504K, used 6660K [0x00000000bae00000, 0x00000000bc300000, 0x00000000c0000000)
  object space 21504K, 30% used [0x00000000bae00000,0x00000000bb481098,0x00000000bc300000)
Event: 2.808 GC heap after
Heap after GC invocations=3 (full 0):
 PSYoungGen      total 35328K, used 2306K [0x00000000eaa80000, 0x00000000eef80000, 0x0000000100000000)
  eden space 32768K, 0% used [0x00000000eaa80000,0x00000000eaa80000,0x00000000eca80000)
  from space 2560K, 90% used [0x00000000eca80000,0x00000000eccc0ac8,0x00000000ecd00000)
  to   space 2560K, 0% used [0x00000000eed00000,0x00000000eed00000,0x00000000eef80000)
 ParOldGen       total 41984K, used 8K [0x00000000c0000000, 0x00000000c2900000, 0x00000000eaa80000)
  object space 41984K, 0% used [0x00000000c0000000,0x00000000c0002000,0x00000000c2900000)
 PSPermGen       total 21504K, used 6660K [0x00000000bae00000, 0x00000000bc300000, 0x00000000c0000000)
  object space 21504K, 30% used [0x00000000bae00000,0x00000000bb481098,0x00000000bc300000)
}
Event: 3.682 GC heap before
{Heap before GC invocations=4 (full 0):
 PSYoungGen      total 35328K, used 35074K [0x00000000eaa80000, 0x00000000eef80000, 0x0000000100000000)
  eden space 32768K, 100% used [0x00000000eaa80000,0x00000000eca80000,0x00000000eca80000)
  from space 2560K, 90% used [0x00000000eca80000,0x00000000eccc0ac8,0x00000000ecd00000)
  to   space 2560K, 0% used [0x00000000eed00000,0x00000000eed00000,0x00000000eef80000)
 ParOldGen       total 41984K, used 8K [0x00000000c0000000, 0x00000000c2900000, 0x00000000eaa80000)
  object space 41984K, 0% used [0x00000000c0000000,0x00000000c0002000,0x00000000c2900000)
 PSPermGen       total 21504K, used 9185K [0x00000000bae00000, 0x00000000bc300000, 0x00000000c0000000)
  object space 21504K, 42% used [0x00000000bae00000,0x00000000bb6f8658,0x00000000bc300000)
Event: 3.721 GC heap after
Heap after GC invocations=4 (full 0):
 PSYoungGen      total 68096K, used 2536K [0x00000000eaa80000, 0x00000000eef80000, 0x0000000100000000)
  eden space 65536K, 0% used [0x00000000eaa80000,0x00000000eaa80000,0x00000000eea80000)
  from space 2560K, 99% used [0x00000000eed00000,0x00000000eef7a208,0x00000000eef80000)
  to   space 2560K, 0% used [0x00000000eea80000,0x00000000eea80000,0x00000000eed00000)
 ParOldGen       total 41984K, used 371K [0x00000000c0000000, 0x00000000c2900000, 0x00000000eaa80000)
  object space 41984K, 0% used [0x00000000c0000000,0x00000000c005cc78,0x00000000c2900000)
 PSPermGen       total 21504K, used 9185K [0x00000000bae00000, 0x00000000bc300000, 0x00000000c0000000)
  object space 21504K, 42% used [0x00000000bae00000,0x00000000bb6f8658,0x00000000bc300000)
}
Event: 26.130 GC heap before
{Heap before GC invocations=5 (full 0):
 PSYoungGen      total 68096K, used 68072K [0x00000000eaa80000, 0x00000000eef80000, 0x0000000100000000)
  eden space 65536K, 100% used [0x00000000eaa80000,0x00000000eea80000,0x00000000eea80000)
  from space 2560K, 99% used [0x00000000eed00000,0x00000000eef7a208,0x00000000eef80000)
  to   space 2560K, 0% used [0x00000000eea80000,0x00000000eea80000,0x00000000eed00000)
 ParOldGen       total 41984K, used 371K [0x00000000c0000000, 0x00000000c2900000, 0x00000000eaa80000)
  object space 41984K, 0% used [0x00000000c0000000,0x00000000c005cc78,0x00000000c2900000)
 PSPermGen       total 21504K, used 12499K [0x00000000bae00000, 0x00000000bc300000, 0x00000000c0000000)
  object space 21504K, 58% used [0x00000000bae00000,0x00000000bba34d10,0x00000000bc300000)
Event: 26.264 GC heap after
Heap after GC invocations=5 (full 0):
 PSYoungGen      total 68096K, used 2528K [0x00000000eaa80000, 0x00000000f3980000, 0x0000000100000000)
  eden space 65536K, 0% used [0x00000000eaa80000,0x00000000eaa80000,0x00000000eea80000)
  from space 2560K, 98% used [0x00000000eea80000,0x00000000eecf8040,0x00000000eed00000)
  to   space 7680K, 0% used [0x00000000f3200000,0x00000000f3200000,0x00000000f3980000)
 ParOldGen       total 41984K, used 6505K [0x00000000c0000000, 0x00000000c2900000, 0x00000000eaa80000)
  object space 41984K, 15% used [0x00000000c0000000,0x00000000c065a440,0x00000000c2900000)
 PSPermGen       total 21504K, used 12499K [0x00000000bae00000, 0x00000000bc300000, 0x00000000c0000000)
  object space 21504K, 58% used [0x00000000bae00000,0x00000000bba34d10,0x00000000bc300000)
}
Event: 36.106 GC heap before
{Heap before GC invocations=6 (full 0):
 PSYoungGen      total 68096K, used 68064K [0x00000000eaa80000, 0x00000000f3980000, 0x0000000100000000)
  eden space 65536K, 100% used [0x00000000eaa80000,0x00000000eea80000,0x00000000eea80000)
  from space 2560K, 98% used [0x00000000eea80000,0x00000000eecf8040,0x00000000eed00000)
  to   space 7680K, 0% used [0x00000000f3200000,0x00000000f3200000,0x00000000f3980000)
 ParOldGen       total 41984K, used 6505K [0x00000000c0000000, 0x00000000c2900000, 0x00000000eaa80000)
  object space 41984K, 15% used [0x00000000c0000000,0x00000000c065a440,0x00000000c2900000)
 PSPermGen       total 21504K, used 12607K [0x00000000bae00000, 0x00000000bc300000, 0x00000000c0000000)
  object space 21504K, 58% used [0x00000000bae00000,0x00000000bba4ffc0,0x00000000bc300000)
Event: 36.276 GC heap after
Heap after GC invocations=6 (full 0):
 PSYoungGen      total 134656K, used 7666K [0x00000000eaa80000, 0x00000000f4180000, 0x0000000100000000)
  eden space 126976K, 0% used [0x00000000eaa80000,0x00000000eaa80000,0x00000000f2680000)
  from space 7680K, 99% used [0x00000000f3200000,0x00000000f397c8e8,0x00000000f3980000)
  to   space 11776K, 0% used [0x00000000f2680000,0x00000000f2680000,0x00000000f3200000)
 ParOldGen       total 41984K, used 10758K [0x00000000c0000000, 0x00000000c2900000, 0x00000000eaa80000)
  object space 41984K, 25% used [0x00000000c0000000,0x00000000c0a819e8,0x00000000c2900000)
 PSPermGen       total 21504K, used 12607K [0x00000000bae00000, 0x00000000bc300000, 0x00000000c0000000)
  object space 21504K, 58% used [0x00000000bae00000,0x00000000bba4ffc0,0x00000000bc300000)
}
Event: 37.576 GC heap before
{Heap before GC invocations=7 (full 0):
 PSYoungGen      total 134656K, used 134642K [0x00000000eaa80000, 0x00000000f4180000, 0x0000000100000000)
  eden space 126976K, 100% used [0x00000000eaa80000,0x00000000f2680000,0x00000000f2680000)
  from space 7680K, 99% used [0x00000000f3200000,0x00000000f397c8e8,0x00000000f3980000)
  to   space 11776K, 0% used [0x00000000f2680000,0x00000000f2680000,0x00000000f3200000)
 ParOldGen       total 41984K, used 10758K [0x00000000c0000000, 0x00000000c2900000, 0x00000000eaa80000)
  object space 41984K, 25% used [0x00000000c0000000,0x00000000c0a819e8,0x00000000c2900000)
 PSPermGen       total 21504K, used 12930K [0x00000000bae00000, 0x00000000bc300000, 0x00000000c0000000)
  object space 21504K, 60% used [0x00000000bae00000,0x00000000bbaa0818,0x00000000bc300000)

Deoptimization events (10 events):
Event: 37.094 Thread 0x00007f114000d000 Uncommon trap: reason=class_check action=maybe_recompile pc=0x00007f113d0ec0e0 method=java.util.regex.Pattern$CharProperty.match(Ljava/util/regex/Matcher;ILjava/lang/CharSequence;)Z @ 37
Event: 37.094 Thread 0x00007f114000d000 Uncommon trap: reason=class_check action=maybe_recompile pc=0x00007f113d0ec0e0 method=java.util.regex.Pattern$CharProperty.match(Ljava/util/regex/Matcher;ILjava/lang/CharSequence;)Z @ 37
Event: 37.094 Thread 0x00007f114000d000 Uncommon trap: reason=class_check action=maybe_recompile pc=0x00007f113d0ec0e0 method=java.util.regex.Pattern$CharProperty.match(Ljava/util/regex/Matcher;ILjava/lang/CharSequence;)Z @ 37
Event: 37.118 Thread 0x00007f114000d000 Uncommon trap: reason=class_check action=maybe_recompile pc=0x00007f113d108560 method=java.util.regex.Pattern$Curly.match(Ljava/util/regex/Matcher;ILjava/lang/CharSequence;)Z @ 19
Event: 37.118 Thread 0x00007f114000d000 Uncommon trap: reason=class_check action=maybe_recompile pc=0x00007f113d108560 method=java.util.regex.Pattern$Curly.match(Ljava/util/regex/Matcher;ILjava/lang/CharSequence;)Z @ 19
Event: 37.118 Thread 0x00007f114000d000 Uncommon trap: reason=class_check action=maybe_recompile pc=0x00007f113d108560 method=java.util.regex.Pattern$Curly.match(Ljava/util/regex/Matcher;ILjava/lang/CharSequence;)Z @ 19
Event: 37.118 Thread 0x00007f114000d000 Uncommon trap: reason=class_check action=maybe_recompile pc=0x00007f113d108560 method=java.util.regex.Pattern$Curly.match(Ljava/util/regex/Matcher;ILjava/lang/CharSequence;)Z @ 19
Event: 37.119 Thread 0x00007f114000d000 Uncommon trap: reason=bimorphic action=maybe_recompile pc=0x00007f113d098780 method=java.util.regex.Pattern$BnM.match(Ljava/util/regex/Matcher;ILjava/lang/CharSequence;)Z @ 111
Event: 37.155 Thread 0x00007f114000d000 Uncommon trap: reason=unstable_if action=reinterpret pc=0x00007f113d163e9c method=java.lang.String.trim()Ljava/lang/String; @ 63
Event: 37.156 Thread 0x00007f114000d000 Uncommon trap: reason=unstable_if action=reinterpret pc=0x00007f113d183cc4 method=java.util.regex.Pattern.compile()V @ 320

Internal exceptions (10 events):
Event: 34.559 Thread 0x00007f114000d000 Threw 0x00000000ed1cbd70 at /HUDSON/workspace/7u-2-build-linux-amd64/jdk7u80/2329/hotspot/src/share/vm/prims/jvm.cpp:1319
Event: 34.570 Thread 0x00007f114000d000 Threw 0x00000000ed1ebf88 at /HUDSON/workspace/7u-2-build-linux-amd64/jdk7u80/2329/hotspot/src/share/vm/prims/jvm.cpp:1319
Event: 34.576 Thread 0x00007f114000d000 Threw 0x00000000ed20b710 at /HUDSON/workspace/7u-2-build-linux-amd64/jdk7u80/2329/hotspot/src/share/vm/prims/jvm.cpp:1319
Event: 34.614 Thread 0x00007f114000d000 Threw 0x00000000ed334918 at /HUDSON/workspace/7u-2-build-linux-amd64/jdk7u80/2329/hotspot/src/share/vm/prims/jvm.cpp:1319
Event: 36.684 Thread 0x00007f114000d000 Threw 0x00000000eafcbc40 at /HUDSON/workspace/7u-2-build-linux-amd64/jdk7u80/2329/hotspot/src/share/vm/prims/jvm.cpp:1319
Event: 36.698 Thread 0x00007f114000d000 Threw 0x00000000eafe5ce8 at /HUDSON/workspace/7u-2-build-linux-amd64/jdk7u80/2329/hotspot/src/share/vm/prims/jvm.cpp:1319
Event: 36.699 Thread 0x00007f114000d000 Threw 0x00000000eaffe4b8 at /HUDSON/workspace/7u-2-build-linux-amd64/jdk7u80/2329/hotspot/src/share/vm/prims/jvm.cpp:1319
Event: 36.995 Thread 0x00007f114000d000 Threw 0x00000000eb697ac0 at /HUDSON/workspace/7u-2-build-linux-amd64/jdk7u80/2329/hotspot/src/share/vm/prims/jvm.cpp:1319
Event: 37.089 Thread 0x00007f114000d000 Threw 0x00000000ebbc0718 at /HUDSON/workspace/7u-2-build-linux-amd64/jdk7u80/2329/hotspot/src/share/vm/prims/jvm.cpp:1319
Event: 37.090 Thread 0x00007f114000d000 Threw 0x00000000ebbdae00 at /HUDSON/workspace/7u-2-build-linux-amd64/jdk7u80/2329/hotspot/src/share/vm/prims/jvm.cpp:1319

Events (10 events):
Event: 37.319 Thread 0x00007f1140092000 flushing nmethod 0x00007f113d0806d0
Event: 37.334 Thread 0x00007f1140092000 flushing nmethod 0x00007f113d087ad0
Event: 37.340 Thread 0x00007f1140092000 flushing nmethod 0x00007f113d0c7650
Event: 37.340 Thread 0x00007f1140092000 flushing nmethod 0x00007f113d0c9b10
Event: 37.366 Thread 0x00007f1140092000 flushing nmethod 0x00007f113d0e32d0
Event: 37.369 Thread 0x00007f1140094800 flushing nmethod 0x00007f113d0edd50
Event: 37.369 Thread 0x00007f1140094800 flushing nmethod 0x00007f113d0efe90
Event: 37.369 Thread 0x00007f1140094800 flushing nmethod 0x00007f113d0ff890
Event: 37.399 Thread 0x00007f1140092000 flushing nmethod 0x00007f113d112650
Event: 37.576 Executing VM operation: ParallelGCFailedAllocation


Dynamic libraries:
00400000-00401000 r-xp 00000000 fd:01 1053065                            /usr/lib/jvm/java-7-oracle/jre/bin/java
00600000-00601000 rw-p 00000000 fd:01 1053065                            /usr/lib/jvm/java-7-oracle/jre/bin/java
009e3000-00a04000 rw-p 00000000 00:00 0                                  [heap]
bae00000-bc300000 rw-p 00000000 00:00 0 
bc300000-c0000000 rw-p 00000000 00:00 0 
c0000000-c2900000 rw-p 00000000 00:00 0 
c2900000-eaa80000 rw-p 00000000 00:00 0 
eaa80000-f4180000 rw-p 00000000 00:00 0 
fbe80000-100000000 rw-p 00000000 00:00 0 
7f1110000000-7f1110021000 rw-p 00000000 00:00 0 
7f1110021000-7f1114000000 ---p 00000000 00:00 0 
7f1114000000-7f1114021000 rw-p 00000000 00:00 0 
7f1114021000-7f1118000000 ---p 00000000 00:00 0 
7f1118000000-7f1118ae5000 rw-p 00000000 00:00 0 
7f1118ae5000-7f111c000000 ---p 00000000 00:00 0 
7f111c000000-7f111cb5a000 rw-p 00000000 00:00 0 
7f111cb5a000-7f1120000000 ---p 00000000 00:00 0 
7f1120000000-7f1120021000 rw-p 00000000 00:00 0 
7f1120021000-7f1124000000 ---p 00000000 00:00 0 
7f1124000000-7f1124021000 rw-p 00000000 00:00 0 
7f1124021000-7f1128000000 ---p 00000000 00:00 0 
7f1128000000-7f1128021000 rw-p 00000000 00:00 0 
7f1128021000-7f112c000000 ---p 00000000 00:00 0 
7f112c9d1000-7f112c9d5000 r--s 0008b000 fd:01 1052978                    /usr/lib/jvm/java-7-oracle/jre/lib/jsse.jar
7f112c9d5000-7f112c9dd000 r-xp 00000000 fd:01 1052360                    /usr/lib/jvm/java-7-oracle/jre/lib/amd64/libmanagement.so
7f112c9dd000-7f112cbdc000 ---p 00008000 fd:01 1052360                    /usr/lib/jvm/java-7-oracle/jre/lib/amd64/libmanagement.so
7f112cbdc000-7f112cbdd000 rw-p 00007000 fd:01 1052360                    /usr/lib/jvm/java-7-oracle/jre/lib/amd64/libmanagement.so
7f112cbdd000-7f112cbe7000 r--s 00253000 fd:01 1052429                    /usr/lib/jvm/java-7-oracle/jre/lib/resources.jar
7f112cbe7000-7f112cee8000 rw-p 00000000 00:00 0 
7f112cee8000-7f112ceff000 r-xp 00000000 fd:01 1052386                    /usr/lib/jvm/java-7-oracle/jre/lib/amd64/libnet.so
7f112ceff000-7f112d0fe000 ---p 00017000 fd:01 1052386                    /usr/lib/jvm/java-7-oracle/jre/lib/amd64/libnet.so
7f112d0fe000-7f112d0ff000 rw-p 00016000 fd:01 1052386                    /usr/lib/jvm/java-7-oracle/jre/lib/amd64/libnet.so
7f112d0ff000-7f112d10f000 r-xp 00000000 fd:01 1052352                    /usr/lib/jvm/java-7-oracle/jre/lib/amd64/libnio.so
7f112d10f000-7f112d30f000 ---p 00010000 fd:01 1052352                    /usr/lib/jvm/java-7-oracle/jre/lib/amd64/libnio.so
7f112d30f000-7f112d310000 rw-p 00010000 fd:01 1052352                    /usr/lib/jvm/java-7-oracle/jre/lib/amd64/libnio.so
7f112d310000-7f112d316000 r--s 00036000 fd:01 822015                     /opt/OpenbravoTablero/lib/test/junit.jar
7f112d316000-7f112d31c000 r--s 00045000 fd:01 822016                     /opt/OpenbravoTablero/lib/test/hamcrest-all-1.3.jar
7f112d31c000-7f112d327000 r--s 0005f000 fd:01 822060                     /opt/OpenbravoTablero/lib/runtime/xstream-1.3.1.jar
7f112d327000-7f112d331000 r--s 00089000 fd:01 822067                     /opt/OpenbravoTablero/lib/runtime/xmlgraphics-commons-1.5.jar
7f112d331000-7f112d348000 r--s 00114000 fd:01 822019                     /opt/OpenbravoTablero/lib/runtime/xercesImpl.jar
7f112d348000-7f112d34b000 r--s 0001c000 fd:01 822082                     /opt/OpenbravoTablero/lib/runtime/wsdl4j-1.5.1.jar
7f112d34b000-7f112d351000 r--s 0004b000 fd:01 822035                     /opt/OpenbravoTablero/lib/runtime/tika-core-0.9.jar
7f112d351000-7f112d352000 r--s 00002000 fd:01 822040                     /opt/OpenbravoTablero/lib/runtime/slf4j-log4j12-1.6.1.jar
7f112d352000-7f112d354000 r--s 00005000 fd:01 822050                     /opt/OpenbravoTablero/lib/runtime/slf4j-api-1.6.1.jar
7f112d354000-7f112d35a000 r--s 00067000 fd:01 822079                     /opt/OpenbravoTablero/lib/runtime/quartz-1.6.2.jar
7f112d35a000-7f112d361000 r--s 0008e000 fd:01 822026                     /opt/OpenbravoTablero/lib/runtime/postgresql-9.4.1207.jre6.jar
7f112d361000-7f112d382000 r--s 001bb000 fd:01 822078                     /opt/OpenbravoTablero/lib/runtime/poi-3.10.1.jar
7f112d382000-7f112d386000 r--s 0003d000 fd:01 822057                     /opt/OpenbravoTablero/lib/runtime/openbravo-core.jar
7f112d386000-7f112d398000 r--s 001fc000 fd:01 822052                     /opt/OpenbravoTablero/lib/runtime/ojdbc6.jar
7f112d398000-7f112d39a000 r--s 00018000 fd:01 822066                     /opt/OpenbravoTablero/lib/runtime/nekohtml.jar
7f112d39a000-7f112d3a1000 r--s 00072000 fd:01 822028                     /opt/OpenbravoTablero/lib/runtime/mail-1.4.4.jar
7f112d3a1000-7f112d3aa000 r--s 0006d000 fd:01 822076                     /opt/OpenbravoTablero/lib/runtime/log4j-1.2.16.jar
7f112d3aa000-7f112d3b6000 r--s 000aa000 fd:01 822055                     /opt/OpenbravoTablero/lib/runtime/jxl-2.6.10.jar
7f112d3b6000-7f112d3b8000 r--s 00001000 fd:01 822039                     /opt/OpenbravoTablero/lib/runtime/jta.jar
7f112d3b8000-7f112d3c8000 r--s 0013f000 fd:01 822023                     /opt/OpenbravoTablero/lib/runtime/jfreechart-1.0.12.jar
7f112d3c8000-7f112d3ca000 r--s 00010000 fd:01 822041                     /opt/OpenbravoTablero/lib/runtime/jettison-1.3.jar
7f112d3ca000-7f112d3dc000 r--s 00223000 fd:01 822061                     /opt/OpenbravoTablero/lib/runtime/jdt-compiler-4.4.2.jar
7f112d3dc000-7f112d3e2000 r--s 00046000 fd:01 822042                     /opt/OpenbravoTablero/lib/runtime/jcommon-1.0.15.jar
7f112d3e2000-7f112d3e4000 r--s 00006000 fd:01 822086                     /opt/OpenbravoTablero/lib/runtime/jaxrpc.jar
7f112d3e4000-7f112d3ed000 r--s 00095000 fd:01 822043                     /opt/OpenbravoTablero/lib/runtime/javassist-3.14.0-GA.jar
7f112d3ed000-7f112d3ef000 r--s 0025c000 fd:01 822020                     /opt/OpenbravoTablero/lib/runtime/jasperreports-fonts-6.0.0.jar
7f112d3ef000-7f112d44b000 r--s 0048c000 fd:01 822027                     /opt/OpenbravoTablero/lib/runtime/jasperreports-6.0.0.jar
7f112d44b000-7f112d45d000 r--s 00105000 fd:01 822077                     /opt/OpenbravoTablero/lib/runtime/jackson-databind-2.5.1.jar
7f112d45d000-7f112d461000 r--s 00035000 fd:01 822056                     /opt/OpenbravoTablero/lib/runtime/jackson-core-2.5.1.jar
7f112d461000-7f112d463000 r--s 00008000 fd:01 822071                     /opt/OpenbravoTablero/lib/runtime/jackson-annotations-2.5.1.jar
7f112d463000-7f112d479000 r--s 001ef000 fd:01 822046                     /opt/OpenbravoTablero/lib/runtime/itextpdf-5.5.0.jar
7f112d479000-7f112d47b000 r--s 0000c000 fd:01 822045                     /opt/OpenbravoTablero/lib/runtime/itext-pdfa-5.5.0.jar
7f112d47b000-7f112d487000 r--s 00108000 fd:01 822068                     /opt/OpenbravoTablero/lib/runtime/iText-2.1.7.jar
7f112d487000-7f112d4cf000 r--s 003aa000 fd:01 822036                     /opt/OpenbravoTablero/lib/runtime/hibernate3-patched.jar
7f112d4cf000-7f112d4d4000 r--s 00014000 fd:01 822074                     /opt/OpenbravoTablero/lib/runtime/hibernate-jpa-2.0-api-1.0.0.Final.jar
7f112d4d4000-7f112d4e4000 r--s 000c8000 fd:01 822022                     /opt/OpenbravoTablero/lib/runtime/freemarker-2.3.16.jar
7f112d4e4000-7f112d51d000 r--s 00329000 fd:01 822088                     /opt/OpenbravoTablero/lib/runtime/fop-1.1.jar
7f112d51d000-7f112d522000 r--s 00048000 fd:01 822064                     /opt/OpenbravoTablero/lib/runtime/dom4j-1.6.1.jar
7f112d522000-7f112d525000 r--s 00016000 fd:01 822049                     /opt/OpenbravoTablero/lib/runtime/commons-pool-1.5.6.jar
7f112d525000-7f112d527000 r--s 0000d000 fd:01 822025                     /opt/OpenbravoTablero/lib/runtime/commons-logging-1.1.1.jar
7f112d527000-7f112d52c000 r--s 00041000 fd:01 822083                     /opt/OpenbravoTablero/lib/runtime/commons-lang-2.6.jar
7f112d52c000-7f112d530000 r--s 0002a000 fd:01 822063                     /opt/OpenbravoTablero/lib/runtime/commons-io-2.4.jar
7f112d530000-7f112d532000 r--s 0000d000 fd:01 822048                     /opt/OpenbravoTablero/lib/runtime/commons-fileupload-1.2.2.jar
7f112d532000-7f112d535000 r--s 0000f000 fd:01 822062                     /opt/OpenbravoTablero/lib/runtime/commons-discovery-0.2.jar
7f112d535000-7f112d539000 r--s 00020000 fd:01 822085                     /opt/OpenbravoTablero/lib/runtime/commons-digester-1.8.1.jar
7f112d539000-7f112d53c000 r--s 00025000 fd:01 822072                     /opt/OpenbravoTablero/lib/runtime/commons-dbcp-1.4.jar
7f112d53c000-7f112d54a000 r--s 0007f000 fd:01 822034                     /opt/OpenbravoTablero/lib/runtime/commons-collections-3.2.1.jar
7f112d54a000-7f112d54b000 ---p 00000000 00:00 0 
7f112d54b000-7f112d64b000 rw-p 00000000 00:00 0 
7f112d64b000-7f112d64e000 ---p 00000000 00:00 0 
7f112d64e000-7f112d74c000 rw-p 00000000 00:00 0 
7f112d74c000-7f112d74f000 ---p 00000000 00:00 0 
7f112d74f000-7f112d84d000 rw-p 00000000 00:00 0 
7f112d84d000-7f112d850000 ---p 00000000 00:00 0 
7f112d850000-7f112d94e000 rw-p 00000000 00:00 0 
7f112d94e000-7f112d951000 ---p 00000000 00:00 0 
7f112d951000-7f112da4f000 rw-p 00000000 00:00 0 
7f112da4f000-7f112dd70000 r--p 00000000 fd:01 294201                     /usr/lib/locale/locale-archive
7f112dd70000-7f1130000000 rw-p 00000000 00:00 0 
7f1130000000-7f1130021000 rw-p 00000000 00:00 0 
7f1130021000-7f1134000000 ---p 00000000 00:00 0 
7f1134000000-7f1134250000 rw-p 00000000 00:00 0 
7f1134250000-7f1138000000 ---p 00000000 00:00 0 
7f1138000000-7f1138021000 rw-p 00000000 00:00 0 
7f1138021000-7f113c000000 ---p 00000000 00:00 0 
7f113c000000-7f113c001000 r--s 00001000 fd:01 822044                     /opt/OpenbravoTablero/lib/runtime/renderFoRmi.jar
7f113c001000-7f113c003000 r--s 00010000 fd:01 822084                     /opt/OpenbravoTablero/lib/runtime/commons-codec-1.5.jar
7f113c003000-7f113c008000 r--s 00034000 fd:01 822069                     /opt/OpenbravoTablero/lib/runtime/commons-beanutils-1.8.3.jar
7f113c008000-7f113c00a000 r--s 00005000 fd:01 822031                     /opt/OpenbravoTablero/lib/runtime/catalina-ant.jar
7f113c00a000-7f113c00b000 r--s 00007000 fd:01 822080                     /opt/OpenbravoTablero/lib/runtime/batik-xml.jar
7f113c00b000-7f113c00e000 r--s 0001d000 fd:01 822059                     /opt/OpenbravoTablero/lib/runtime/batik-util.jar
7f113c00e000-7f113c013000 r--s 00030000 fd:01 822070                     /opt/OpenbravoTablero/lib/runtime/batik-svggen.jar
7f113c013000-7f113c020000 r--s 00087000 fd:01 822065                     /opt/OpenbravoTablero/lib/runtime/batik-svg-dom.jar
7f113c020000-7f113c023000 r--s 0000d000 fd:01 822033                     /opt/OpenbravoTablero/lib/runtime/batik-script.jar
7f113c023000-7f113c025000 r--s 00010000 fd:01 822073                     /opt/OpenbravoTablero/lib/runtime/batik-parser.jar
7f113c025000-7f113c029000 r--s 00038000 fd:01 822053                     /opt/OpenbravoTablero/lib/runtime/batik-gvt.jar
7f113c029000-7f113c02a000 r--s 00002000 fd:01 822051                     /opt/OpenbravoTablero/lib/runtime/batik-ext.jar
7f113c02a000-7f113c02e000 r--s 00027000 fd:01 822032                     /opt/OpenbravoTablero/lib/runtime/batik-dom.jar
7f113c02e000-7f113c036000 r--s 00045000 fd:01 822030                     /opt/OpenbravoTablero/lib/runtime/batik-css.jar
7f113c036000-7f113c040000 r--s 00080000 fd:01 822058                     /opt/OpenbravoTablero/lib/runtime/batik-bridge.jar
7f113c040000-7f113c047000 r--s 0005c000 fd:01 822087                     /opt/OpenbravoTablero/lib/runtime/batik-awt-util.jar
7f113c047000-7f113c04a000 r--s 00015000 fd:01 822018                     /opt/OpenbravoTablero/lib/runtime/batik-anim.jar
7f113c04a000-7f113c050000 r--s 00043000 fd:01 822047                     /opt/OpenbravoTablero/lib/runtime/barcode4j-fop-ext-complete.jar
7f113c050000-7f113c064000 r--s 00173000 fd:01 822075                     /opt/OpenbravoTablero/lib/runtime/axis.jar
7f113c064000-7f113c066000 r--s 00007000 fd:01 822054                     /opt/OpenbravoTablero/lib/runtime/axis-ant.jar
7f113c066000-7f113c069000 r--s 0000f000 fd:01 822037                     /opt/OpenbravoTablero/lib/runtime/avalon-framework-4.1.5.jar
7f113c069000-7f113c06e000 r--s 00068000 fd:01 822024                     /opt/OpenbravoTablero/lib/runtime/antlr-2.7.7.jar
7f113c06e000-7f113c076000 r--s 00063000 fd:01 822038                     /opt/OpenbravoTablero/lib/runtime/ant-nodeps.jar
7f113c076000-7f113c094000 r--s 001cb000 fd:01 822029                     /opt/OpenbravoTablero/lib/runtime/ant-1.9.2.jar
7f113c094000-7f113c09d000 r--s 000c7000 fd:01 822009                     /opt/OpenbravoTablero/lib/build/yuicompressor-2.4.2.jar
7f113c09d000-7f113c0a6000 r--s 000be000 fd:01 822012                     /opt/OpenbravoTablero/lib/build/ob-rhino-1.6R7.jar
7f113c0a6000-7f113c0af000 r--s 000cc000 fd:01 822011                     /opt/OpenbravoTablero/lib/build/js.jar
7f113c0af000-7f113c0b5000 r--s 0006e000 fd:01 1086263                    /opt/OpenbravoTablero/src-db/database/lib/wstx-asl-3.0.2.jar
7f113c0b5000-7f113c0b8000 ---p 00000000 00:00 0 
7f113c0b8000-7f113c1b6000 rw-p 00000000 00:00 0 
7f113c1b6000-7f113c1b9000 ---p 00000000 00:00 0 
7f113c1b9000-7f113c2b7000 rw-p 00000000 00:00 0 
7f113c2b7000-7f113c2b8000 ---p 00000000 00:00 0 
7f113c2b8000-7f113cd6f000 rw-p 00000000 00:00 0 
7f113cd6f000-7f113cf2f000 r--s 039fb000 fd:01 1053034                    /usr/lib/jvm/java-7-oracle/jre/lib/rt.jar
7f113cf2f000-7f113d000000 rw-p 00000000 00:00 0 
7f113d000000-7f113d270000 rwxp 00000000 00:00 0 
7f113d270000-7f114095a000 rw-p 00000000 00:00 0 
7f114095a000-7f1144000000 ---p 00000000 00:00 0 
7f1144000000-7f1144002000 r--s 00001000 fd:01 822081                     /opt/OpenbravoTablero/lib/runtime/ant-apache-log4j-1.9.2.jar
7f1144002000-7f1144004000 r--s 00014000 fd:01 822010                     /opt/OpenbravoTablero/lib/build/servlet-api.jar
7f1144004000-7f114400f000 r--s 000b4000 fd:01 1086261                    /opt/OpenbravoTablero/src-db/database/lib/dbsourcemanager.jar
7f114400f000-7f1144015000 r--s 00036000 fd:01 1086262                    /opt/OpenbravoTablero/src-db/database/lib/commons-betwixt-0.8.jar
7f1144015000-7f114427c000 rw-p 00000000 00:00 0 
7f114427c000-7f114427d000 ---p 00000000 00:00 0 
7f114427d000-7f114437d000 rw-p 00000000 00:00 0 
7f114437d000-7f114437e000 ---p 00000000 00:00 0 
7f114437e000-7f1144493000 rw-p 00000000 00:00 0 
7f1144493000-7f11445d4000 rw-p 00000000 00:00 0 
7f11445d4000-7f11445df000 rw-p 00000000 00:00 0 
7f11445df000-7f11445fd000 rw-p 00000000 00:00 0 
7f11445fd000-7f1144612000 rw-p 00000000 00:00 0 
7f1144612000-7f1144752000 rw-p 00000000 00:00 0 
7f1144752000-7f114479e000 rw-p 00000000 00:00 0 
7f114479e000-7f11447fd000 rw-p 00000000 00:00 0 
7f11447fd000-7f11447fe000 rw-p 00000000 00:00 0 
7f11447fe000-7f1144815000 r-xp 00000000 fd:01 1052381                    /usr/lib/jvm/java-7-oracle/jre/lib/amd64/libzip.so
7f1144815000-7f1144a15000 ---p 00017000 fd:01 1052381                    /usr/lib/jvm/java-7-oracle/jre/lib/amd64/libzip.so
7f1144a15000-7f1144a16000 rw-p 00017000 fd:01 1052381                    /usr/lib/jvm/java-7-oracle/jre/lib/amd64/libzip.so
7f1144a16000-7f1144a21000 r-xp 00000000 fd:01 652838                     /lib/x86_64-linux-gnu/libnss_files-2.23.so
7f1144a21000-7f1144c20000 ---p 0000b000 fd:01 652838                     /lib/x86_64-linux-gnu/libnss_files-2.23.so
7f1144c20000-7f1144c21000 r--p 0000a000 fd:01 652838                     /lib/x86_64-linux-gnu/libnss_files-2.23.so
7f1144c21000-7f1144c22000 rw-p 0000b000 fd:01 652838                     /lib/x86_64-linux-gnu/libnss_files-2.23.so
7f1144c22000-7f1144c28000 rw-p 00000000 00:00 0 
7f1144c28000-7f1144c33000 r-xp 00000000 fd:01 652835                     /lib/x86_64-linux-gnu/libnss_nis-2.23.so
7f1144c33000-7f1144e32000 ---p 0000b000 fd:01 652835                     /lib/x86_64-linux-gnu/libnss_nis-2.23.so
7f1144e32000-7f1144e33000 r--p 0000a000 fd:01 652835                     /lib/x86_64-linux-gnu/libnss_nis-2.23.so
7f1144e33000-7f1144e34000 rw-p 0000b000 fd:01 652835                     /lib/x86_64-linux-gnu/libnss_nis-2.23.so
7f1144e34000-7f1144e4a000 r-xp 00000000 fd:01 652833                     /lib/x86_64-linux-gnu/libnsl-2.23.so
7f1144e4a000-7f1145049000 ---p 00016000 fd:01 652833                     /lib/x86_64-linux-gnu/libnsl-2.23.so
7f1145049000-7f114504a000 r--p 00015000 fd:01 652833                     /lib/x86_64-linux-gnu/libnsl-2.23.so
7f114504a000-7f114504b000 rw-p 00016000 fd:01 652833                     /lib/x86_64-linux-gnu/libnsl-2.23.so
7f114504b000-7f114504d000 rw-p 00000000 00:00 0 
7f114504d000-7f1145055000 r-xp 00000000 fd:01 652830                     /lib/x86_64-linux-gnu/libnss_compat-2.23.so
7f1145055000-7f1145254000 ---p 00008000 fd:01 652830                     /lib/x86_64-linux-gnu/libnss_compat-2.23.so
7f1145254000-7f1145255000 r--p 00007000 fd:01 652830                     /lib/x86_64-linux-gnu/libnss_compat-2.23.so
7f1145255000-7f1145256000 rw-p 00008000 fd:01 652830                     /lib/x86_64-linux-gnu/libnss_compat-2.23.so
7f1145256000-7f114527f000 r-xp 00000000 fd:01 1052347                    /usr/lib/jvm/java-7-oracle/jre/lib/amd64/libjava.so
7f114527f000-7f114547f000 ---p 00029000 fd:01 1052347                    /usr/lib/jvm/java-7-oracle/jre/lib/amd64/libjava.so
7f114547f000-7f1145481000 rw-p 00029000 fd:01 1052347                    /usr/lib/jvm/java-7-oracle/jre/lib/amd64/libjava.so
7f1145481000-7f114548e000 r-xp 00000000 fd:01 1052374                    /usr/lib/jvm/java-7-oracle/jre/lib/amd64/libverify.so
7f114548e000-7f114568d000 ---p 0000d000 fd:01 1052374                    /usr/lib/jvm/java-7-oracle/jre/lib/amd64/libverify.so
7f114568d000-7f114568f000 rw-p 0000c000 fd:01 1052374                    /usr/lib/jvm/java-7-oracle/jre/lib/amd64/libverify.so
7f114568f000-7f1145696000 r-xp 00000000 fd:01 652847                     /lib/x86_64-linux-gnu/librt-2.23.so
7f1145696000-7f1145895000 ---p 00007000 fd:01 652847                     /lib/x86_64-linux-gnu/librt-2.23.so
7f1145895000-7f1145896000 r--p 00006000 fd:01 652847                     /lib/x86_64-linux-gnu/librt-2.23.so
7f1145896000-7f1145897000 rw-p 00007000 fd:01 652847                     /lib/x86_64-linux-gnu/librt-2.23.so
7f1145897000-7f114599f000 r-xp 00000000 fd:01 652844                     /lib/x86_64-linux-gnu/libm-2.23.so
7f114599f000-7f1145b9e000 ---p 00108000 fd:01 652844                     /lib/x86_64-linux-gnu/libm-2.23.so
7f1145b9e000-7f1145b9f000 r--p 00107000 fd:01 652844                     /lib/x86_64-linux-gnu/libm-2.23.so
7f1145b9f000-7f1145ba0000 rw-p 00108000 fd:01 652844                     /lib/x86_64-linux-gnu/libm-2.23.so
7f1145ba0000-7f1146716000 r-xp 00000000 fd:01 1052401                    /usr/lib/jvm/java-7-oracle/jre/lib/amd64/server/libjvm.so
7f1146716000-7f1146915000 ---p 00b76000 fd:01 1052401                    /usr/lib/jvm/java-7-oracle/jre/lib/amd64/server/libjvm.so
7f1146915000-7f11469d9000 rw-p 00b75000 fd:01 1052401                    /usr/lib/jvm/java-7-oracle/jre/lib/amd64/server/libjvm.so
7f11469d9000-7f1146a1a000 rw-p 00000000 00:00 0 
7f1146a1a000-7f1146bda000 r-xp 00000000 fd:01 652867                     /lib/x86_64-linux-gnu/libc-2.23.so
7f1146bda000-7f1146dd9000 ---p 001c0000 fd:01 652867                     /lib/x86_64-linux-gnu/libc-2.23.so
7f1146dd9000-7f1146ddd000 r--p 001bf000 fd:01 652867                     /lib/x86_64-linux-gnu/libc-2.23.so
7f1146ddd000-7f1146ddf000 rw-p 001c3000 fd:01 652867                     /lib/x86_64-linux-gnu/libc-2.23.so
7f1146ddf000-7f1146de3000 rw-p 00000000 00:00 0 
7f1146de3000-7f1146de6000 r-xp 00000000 fd:01 652869                     /lib/x86_64-linux-gnu/libdl-2.23.so
7f1146de6000-7f1146fe5000 ---p 00003000 fd:01 652869                     /lib/x86_64-linux-gnu/libdl-2.23.so
7f1146fe5000-7f1146fe6000 r--p 00002000 fd:01 652869                     /lib/x86_64-linux-gnu/libdl-2.23.so
7f1146fe6000-7f1146fe7000 rw-p 00003000 fd:01 652869                     /lib/x86_64-linux-gnu/libdl-2.23.so
7f1146fe7000-7f1146ffc000 r-xp 00000000 fd:01 1052393                    /usr/lib/jvm/java-7-oracle/jre/lib/amd64/jli/libjli.so
7f1146ffc000-7f11471fb000 ---p 00015000 fd:01 1052393                    /usr/lib/jvm/java-7-oracle/jre/lib/amd64/jli/libjli.so
7f11471fb000-7f11471fc000 rw-p 00014000 fd:01 1052393                    /usr/lib/jvm/java-7-oracle/jre/lib/amd64/jli/libjli.so
7f11471fc000-7f1147214000 r-xp 00000000 fd:01 652865                     /lib/x86_64-linux-gnu/libpthread-2.23.so
7f1147214000-7f1147413000 ---p 00018000 fd:01 652865                     /lib/x86_64-linux-gnu/libpthread-2.23.so
7f1147413000-7f1147414000 r--p 00017000 fd:01 652865                     /lib/x86_64-linux-gnu/libpthread-2.23.so
7f1147414000-7f1147415000 rw-p 00018000 fd:01 652865                     /lib/x86_64-linux-gnu/libpthread-2.23.so
7f1147415000-7f1147419000 rw-p 00000000 00:00 0 
7f1147419000-7f114743f000 r-xp 00000000 fd:01 652848                     /lib/x86_64-linux-gnu/ld-2.23.so
7f114743f000-7f114744a000 rw-p 00000000 00:00 0 
7f114744a000-7f1147468000 rw-p 00000000 00:00 0 
7f1147468000-7f1147472000 rw-p 00000000 00:00 0 
7f1147472000-7f1147528000 rw-p 00000000 00:00 0 
7f1147528000-7f1147530000 rw-s 00000000 fd:01 412592                     /tmp/hsperfdata_sistemas/5318
7f1147530000-7f1147533000 ---p 00000000 00:00 0 
7f1147533000-7f1147635000 rw-p 00000000 00:00 0 
7f1147635000-7f1147636000 r--s 00004000 fd:01 822021                     /opt/OpenbravoTablero/lib/runtime/ant-launcher-1.9.2.jar
7f1147636000-7f1147637000 r--s 00001000 fd:01 822008                     /opt/OpenbravoTablero/lib/build/YUIAnt.jar
7f1147637000-7f1147639000 r--s 0000e000 fd:01 1086264                    /opt/OpenbravoTablero/src-db/database/lib/jakarta-oro-2.0.8.jar
7f1147639000-7f114763a000 r--s 00001000 fd:01 1086265                    /opt/OpenbravoTablero/src-db/database/lib/dbmanager.jar
7f114763a000-7f114763b000 rw-p 00000000 00:00 0 
7f114763b000-7f114763c000 ---p 00000000 00:00 0 
7f114763c000-7f114763e000 rw-p 00000000 00:00 0 
7f114763e000-7f114763f000 r--p 00025000 fd:01 652848                     /lib/x86_64-linux-gnu/ld-2.23.so
7f114763f000-7f1147640000 rw-p 00026000 fd:01 652848                     /lib/x86_64-linux-gnu/ld-2.23.so
7f1147640000-7f1147641000 rw-p 00000000 00:00 0 
7ffc38e25000-7ffc38e48000 rw-p 00000000 00:00 0                          [stack]
7ffc38f05000-7ffc38f07000 r--p 00000000 00:00 0                          [vvar]
7ffc38f07000-7ffc38f09000 r-xp 00000000 00:00 0                          [vdso]
ffffffffff600000-ffffffffff601000 r-xp 00000000 00:00 0                  [vsyscall]

VM Arguments:
jvm_args: -Xmx1024M 
java_command: org.openbravo.ddlutils.task.AlterDatabaseJava org.postgresql.Driver jdbc:postgresql://67.205.131.69:5432/openbravotablero tad felectronica2016+ com.openbravo.db.OpenbravoExcludeFilter model com.openbravo.db.OpenbravoMetadataFilter sourcedata ${bbdd.object} false INFO /opt/OpenbravoTablero/modules/ */src-db/database/model /opt/OpenbravoTablero/modules/ */src-db/database/sourcedata yes false  true
Launcher Type: SUN_STANDARD

Environment Variables:
JAVA_HOME=/usr/lib/jvm/java-7-oracle/
PATH=/usr/local/sbin:/usr/local/bin:/usr/sbin:/usr/bin:/sbin:/bin:/usr/games:/usr/local/games
USERNAME=root
SHELL=/bin/bash

Signal Handlers:
SIGSEGV: [libjvm.so+0x9a3b20], sa_mask[0]=0x7ffbfeff, sa_flags=0x10000004
SIGBUS: [libjvm.so+0x9a3b20], sa_mask[0]=0x7ffbfeff, sa_flags=0x10000004
SIGFPE: [libjvm.so+0x81e740], sa_mask[0]=0x7ffbfeff, sa_flags=0x10000004
SIGPIPE: [libjvm.so+0x81e740], sa_mask[0]=0x7ffbfeff, sa_flags=0x10000004
SIGXFSZ: [libjvm.so+0x81e740], sa_mask[0]=0x7ffbfeff, sa_flags=0x10000004
SIGILL: [libjvm.so+0x81e740], sa_mask[0]=0x7ffbfeff, sa_flags=0x10000004
SIGUSR1: SIG_DFL, sa_mask[0]=0x00000000, sa_flags=0x00000000
SIGUSR2: [libjvm.so+0x81ffb0], sa_mask[0]=0x00000004, sa_flags=0x10000004
SIGHUP: [libjvm.so+0x8210d0], sa_mask[0]=0x7ffbfeff, sa_flags=0x10000004
SIGINT: [libjvm.so+0x8210d0], sa_mask[0]=0x7ffbfeff, sa_flags=0x10000004
SIGTERM: [libjvm.so+0x8210d0], sa_mask[0]=0x7ffbfeff, sa_flags=0x10000004
SIGQUIT: [libjvm.so+0x8210d0], sa_mask[0]=0x7ffbfeff, sa_flags=0x10000004


---------------  S Y S T E M  ---------------

OS:stretch/sid

uname:Linux 4.4.0-34-generic #53-Ubuntu SMP Wed Jul 27 16:06:39 UTC 2016 x86_64
libc:glibc 2.23 NPTL 2.23 
rlimit: STACK 8192k, CORE 0k, NPROC 15750, NOFILE 65536, AS infinity
load average:0.76 0.36 0.19

/proc/meminfo:
MemTotal:        4046696 kB
MemFree:          126924 kB
MemAvailable:      60204 kB
Buffers:            7828 kB
Cached:            64784 kB
SwapCached:            0 kB
Active:          3796948 kB
Inactive:          33272 kB
Active(anon):    3760644 kB
Inactive(anon):      200 kB
Active(file):      36304 kB
Inactive(file):    33072 kB
Unevictable:        3660 kB
Mlocked:            3660 kB
SwapTotal:             0 kB
SwapFree:              0 kB
Dirty:               308 kB
Writeback:             0 kB
AnonPages:       3761312 kB
Mapped:            36056 kB
Shmem:               776 kB
Slab:              51144 kB
SReclaimable:      34496 kB
SUnreclaim:        16648 kB
KernelStack:        4160 kB
PageTables:        12316 kB
NFS_Unstable:          0 kB
Bounce:                0 kB
WritebackTmp:          0 kB
CommitLimit:     2023348 kB
Committed_AS:    4134920 kB
VmallocTotal:   34359738367 kB
VmallocUsed:           0 kB
VmallocChunk:          0 kB
HardwareCorrupted:     0 kB
AnonHugePages:   3432448 kB
CmaTotal:              0 kB
CmaFree:               0 kB
HugePages_Total:       0
HugePages_Free:        0
HugePages_Rsvd:        0
HugePages_Surp:        0
Hugepagesize:       2048 kB
DirectMap4k:       55276 kB
DirectMap2M:     2041856 kB
DirectMap1G:     2097152 kB


CPU:total 2 (1 cores per cpu, 1 threads per core) family 6 model 63 stepping 2, cmov, cx8, fxsr, mmx, sse, sse2, sse3, ssse3, sse4.1, sse4.2, popcnt, avx, avx2, aes, erms, tsc

/proc/cpuinfo:
processor	: 0
vendor_id	: GenuineIntel
cpu family	: 6
model		: 63
model name	: Intel(R) Xeon(R) CPU E5-2650L v3 @ 1.80GHz
stepping	: 2
microcode	: 0x1
cpu MHz		: 1797.917
cache size	: 30720 KB
physical id	: 0
siblings	: 1
core id		: 0
cpu cores	: 1
apicid		: 0
initial apicid	: 0
fpu		: yes
fpu_exception	: yes
cpuid level	: 13
wp		: yes
flags		: fpu vme de pse tsc msr pae mce cx8 apic sep mtrr pge mca cmov pat pse36 clflush mmx fxsr sse sse2 ss syscall nx pdpe1gb rdtscp lm constant_tsc arch_perfmon rep_good nopl eagerfpu pni pclmulqdq vmx ssse3 fma cx16 pcid sse4_1 sse4_2 x2apic movbe popcnt tsc_deadline_timer aes xsave avx f16c rdrand hypervisor lahf_lm abm vnmi ept fsgsbase tsc_adjust bmi1 avx2 smep bmi2 erms invpcid xsaveopt arat
bugs		:
bogomips	: 3595.83
clflush size	: 64
cache_alignment	: 64
address sizes	: 40 bits physical, 48 bits virtual
power management:

processor	: 1
vendor_id	: GenuineIntel
cpu family	: 6
model		: 63
model name	: Intel(R) Xeon(R) CPU E5-2650L v3 @ 1.80GHz
stepping	: 2
microcode	: 0x1
cpu MHz		: 1797.917
cache size	: 30720 KB
physical id	: 1
siblings	: 1
core id		: 0
cpu cores	: 1
apicid		: 1
initial apicid	: 1
fpu		: yes
fpu_exception	: yes
cpuid level	: 13
wp		: yes
flags		: fpu vme de pse tsc msr pae mce cx8 apic sep mtrr pge mca cmov pat pse36 clflush mmx fxsr sse sse2 ss syscall nx pdpe1gb rdtscp lm constant_tsc arch_perfmon rep_good nopl eagerfpu pni pclmulqdq vmx ssse3 fma cx16 pcid sse4_1 sse4_2 x2apic movbe popcnt tsc_deadline_timer aes xsave avx f16c rdrand hypervisor lahf_lm abm vnmi ept fsgsbase tsc_adjust bmi1 avx2 smep bmi2 erms invpcid xsaveopt arat
bugs		:
bogomips	: 3595.83
clflush size	: 64
cache_alignment	: 64
address sizes	: 40 bits physical, 48 bits virtual
power management:



Memory: 4k page, physical 4046696k(126924k free), swap 0k(0k free)

vm_info: Java HotSpot(TM) 64-Bit Server VM (24.80-b11) for linux-amd64 JRE (1.7.0_80-b15), built on Apr 10 2015 19:53:14 by "java_re" with gcc 4.3.0 20080428 (Red Hat 4.3.0-8)

time: Thu Jul 27 15:07:55 2017
elapsed time: 37 seconds

